{
  "␣tɱ": 1601548,
  "tɱŋ": 1514441,
  "ŋd␣": 1366562,
  "ɱŋ␣": 1206215,
  "␣of": 605619,
  "␣iŋ": 546166,
  "aŋd": 544488,
  "ŋ␣t": 522631,
  "iŋg": 520110,
  "␣aŋ": 499965,
  "of␣": 492071,
  "␣to": 487610,
  "to␣": 454234,
  "ŋg␣": 449784,
  "as␣": 419778,
  "ioŋ": 382021,
  "d␣t": 376297,
  "ŋr␣": 344014,
  "ŋ␣a": 343285,
  "oŋ␣": 337841,
  "␣a␣": 335311,
  "iŋ␣": 332884,
  "␣co": 314518,
  "tio": 297191,
  "␣rŋ": 295215,
  "ŋs␣": 294348,
  "rŋ␣": 290040,
  "ŋ␣o": 287241,
  "s␣a": 286319,
  "ŋŋt": 282446,
  "is␣": 265523,
  "for": 259702,
  "ŋ␣s": 253476,
  "was": 252081,
  "␣fo": 245206,
  "␣bŋ": 241299,
  "at␣": 233937,
  "al␣": 233418,
  "f␣t": 232990,
  "tŋr": 230288,
  "ly␣": 229476,
  "tŋd": 224974,
  "atŋ": 218912,
  "ɱŋr": 215902,
  "␣wa": 215806,
  "or␣": 212427,
  "s␣t": 212271,
  "ŋrŋ": 211432,
  "d␣a": 210607,
  "ɱat": 204375,
  "t␣t": 201780,
  "ati": 200836,
  "ŋ␣c": 198310,
  "ŋ␣i": 191811,
  "tɱa": 191706,
  "s␣o": 190010,
  "ŋ␣f": 186148,
  "ŋŋ␣": 182944,
  "ŋt␣": 182876,
  "ɱis": 182248,
  "␣ɱi": 181420,
  "␣wi": 180001,
  "␣oŋ": 179820,
  "ŋ␣w": 179398,
  "st␣": 175638,
  "␣pr": 175527,
  "coŋ": 173309,
  "tɱ␣": 170348,
  "itɱ": 164437,
  "ts␣": 163467,
  "␣as": 161509,
  "ŋ␣p": 160347,
  "wit": 159650,
  "␣ɱa": 158049,
  "all": 157046,
  "ŋst": 156303,
  "vŋr": 155992,
  "␣dŋ": 150537,
  "␣sŋ": 149890,
  "␣ɱŋ": 148662,
  "ŋcŋ": 148177,
  "␣ma": 146820,
  "␣st": 146553,
  "rŋs": 145931,
  "ŋ␣b": 144729,
  "ŋrs": 144500,
  "d␣b": 143416,
  "oŋs": 143231,
  "d␣i": 142028,
  "aŋ␣": 141637,
  "r␣t": 138733,
  "␣wɱ": 135972,
  "vŋ␣": 132834,
  "ɱŋŋ": 132166,
  "cɱ␣": 129627,
  "ɱ␣t": 129180,
  "pro": 129109,
  "lŋ␣": 127578,
  "␣wŋ": 127266,
  "␣by": 124931,
  "ŋ␣r": 124876,
  "coɱ": 124152,
  "ivŋ": 122678,
  "g␣t": 122537,
  "wŋr": 122471,
  "␣fr": 120906,
  "rs␣": 120559,
  "ŋ␣ɱ": 119600,
  "s␣w": 119333,
  "rŋd": 119022,
  "ŋtŋ": 118861,
  "ŋ␣m": 117478,
  "ŋct": 116786,
  "ŋ␣ŋ": 116655,
  "s␣i": 116415,
  "␣mo": 116357,
  "t␣o": 115855,
  "ŋar": 115599,
  "␣su": 115156,
  "o␣t": 114830,
  "␣fi": 114398,
  "␣ca": 114082,
  "cŋ␣": 113953,
  "␣it": 112099,
  "roɱ": 112057,
  "tiŋ": 112043,
  "␣no": 111996,
  "iŋt": 110881,
  "␣di": 110831,
  "ŋŋd": 110776,
  "aiŋ": 110526,
  "rŋa": 110219,
  "ŋvŋ": 109923,
  "␣at": 108964,
  "t␣a": 108677,
  "ŋ␣d": 107525,
  "arŋ": 107487,
  "ad␣": 107259,
  "sŋ␣": 106692,
  "␣ar": 106336,
  "d␣o": 106233,
  "fro": 104591,
  "␣al": 104044,
  "iti": 103876,
  "ovŋ": 103242,
  "ŋti": 102592,
  "ut␣": 102322,
  "sta": 101804,
  "by␣": 101518,
  "sŋd": 98791,
  "idŋ": 97245,
  "pŋr": 96654,
  "ŋat": 95345,
  "ŋss": 95166,
  "cti": 93778,
  "iŋŋ": 93681,
  "ouŋ": 93590,
  "␣so": 93428,
  "y␣t": 92984,
  "wɱi": 92583,
  "tŋ␣": 92337,
  "ies": 92033,
  "␣is": 91195,
  "␣po": 90946,
  "tra": 90532,
  "s␣f": 90361,
  "␣la": 90358,
  "ist": 90098,
  "␣pa": 89228,
  "s␣s": 88861,
  "ld␣": 88727,
  "ɱ␣a": 88247,
  "it␣": 88206,
  "ŋ␣l": 88073,
  "ŋal": 87105,
  "dŋr": 86766,
  "ort": 86680,
  "d␣s": 86629,
  "ɱic": 86606,
  "aɱŋ": 86385,
  "tur": 86096,
  "oɱ␣": 85533,
  "pla": 85497,
  "ɱad": 85477,
  "out": 85285,
  "d␣f": 85207,
  "str": 85189,
  "ll␣": 84940,
  "uŋd": 84701,
  "ɱaŋ": 84053,
  "rat": 83763,
  "prŋ": 83492,
  "y␣a": 82958,
  "d␣w": 82357,
  "ŋeŋ": 82327,
  "orŋ": 82082,
  "␣wo": 81859,
  "cal": 81536,
  "ry␣": 81500,
  "t␣i": 81437,
  "␣sɱ": 80991,
  "ica": 80203,
  "ŋdŋ": 79868,
  "tor": 79698,
  "d␣ɱ": 79576,
  "oŋŋ": 79163,
  "ɱiŋ": 78654,
  "r␣a": 78584,
  "avŋ": 78377,
  "es␣": 77844,
  "art": 77762,
  "ŋy␣": 77708,
  "ŋas": 77625,
  "lat": 77396,
  "ɱŋd": 76962,
  "dŋd": 76643,
  "rou": 76225,
  "ŋra": 76110,
  "diŋ": 75981,
  "␣si": 75963,
  "par": 75859,
  "igɱ": 75532,
  "␣ŋx": 75369,
  "stŋ": 75127,
  "tic": 74997,
  "␣tr": 74820,
  "t␣w": 74293,
  "␣li": 73645,
  "otɱ": 73511,
  "ŋsi": 73492,
  "iŋc": 73453,
  "act": 73419,
  "␣lŋ": 73276,
  "s␣c": 73206,
  "usŋ": 72384,
  "gɱt": 72245,
  "rŋc": 72200,
  "riŋ": 71812,
  "␣uŋ": 71557,
  "ŋco": 71062,
  "icɱ": 70810,
  "ŋ␣n": 70703,
  "ŋly": 70679,
  "urŋ": 70522,
  "␣bu": 70387,
  "eŋ␣": 69441,
  "oŋt": 68716,
  "not": 68583,
  "␣nŋ": 67549,
  "tɱi": 67254,
  "aŋt": 67235,
  "agŋ": 66813,
  "tŋŋ": 66785,
  "but": 65964,
  "␣or": 65845,
  "␣ba": 65809,
  "ial": 65660,
  "␣cɱ": 65646,
  "ot␣": 65561,
  "ŋts": 65095,
  "ŋdi": 64850,
  "oɱŋ": 64770,
  "␣mŋ": 64666,
  "s␣b": 64572,
  "lar": 64249,
  "ŋri": 64151,
  "cŋs": 63967,
  "ic␣": 63715,
  "␣ŋŋ": 63597,
  "lly": 63578,
  "bŋ␣": 63512,
  "gŋ␣": 63414,
  "our": 63348,
  "␣pl": 62892,
  "ugɱ": 62869,
  "als": 62859,
  "ty␣": 62289,
  "blŋ": 61964,
  "␣lo": 61867,
  "ɱou": 61850,
  "ŋsŋ": 61444,
  "y␣o": 61339,
  "s␣p": 61333,
  "ar␣": 61073,
  "rie": 60998,
  "lŋd": 60829,
  "g␣a": 60604,
  "its": 60597,
  "ɱŋs": 60535,
  "sio": 59769,
  "dŋs": 59525,
  "sti": 59501,
  "␣fa": 59375,
  "oul": 59293,
  "a␣s": 59291,
  "ity": 59125,
  "ssi": 58944,
  "␣pŋ": 58612,
  "ŋŋs": 58563,
  "iŋs": 58458,
  "att": 58408,
  "ŋ␣g": 58367,
  "␣ac": 58355,
  "ast": 58276,
  "orɱ": 58191,
  "uld": 58039,
  "o␣a": 57750,
  "r␣o": 57588,
  "oug": 57523,
  "␣sp": 57502,
  "ir␣": 57285,
  "por": 57235,
  "rŋe": 57131,
  "d␣c": 57066,
  "␣bo": 56973,
  "iɱŋ": 56602,
  "␣tŋ": 56511,
  "ŋci": 56494,
  "t␣ɱ": 56275,
  "dis": 56249,
  "dŋ␣": 56047,
  "spŋ": 55961,
  "fir": 55908,
  "ill": 55848,
  "ous": 55539,
  "ost": 55376,
  "t␣s": 55254,
  "pos": 55191,
  "ɱav": 55114,
  "cɱa": 55077,
  "ral": 55000,
  "oɱp": 54978,
  "siŋ": 54941,
  "lŋa": 54729,
  "ŋtr": 54477,
  "tat": 54353,
  "ed␣": 54239,
  "ŋta": 54185,
  "tiv": 54107,
  "lit": 53861,
  "aŋc": 53681,
  "own": 53516,
  "ŋlŋ": 53500,
  "liŋ": 53333,
  "ŋŋŋ": 53271,
  "ɱŋi": 53095,
  "s␣ɱ": 53095,
  "low": 52936,
  "vŋd": 52866,
  "raŋ": 52829,
  "ass": 52690,
  "sŋr": 52655,
  "itŋ": 52600,
  "cou": 52459,
  "␣ɱo": 52240,
  "oŋg": 52064,
  "llŋ": 52051,
  "ttŋ": 52048,
  "␣ra": 51952,
  "tɱo": 51751,
  "s␣r": 51351,
  "ŋir": 51210,
  "rit": 50937,
  "so␣": 50659,
  "tiɱ": 50656,
  "sɱŋ": 50611,
  "r␣s": 50588,
  "␣gr": 50575,
  "s␣d": 50560,
  "tɱr": 50476,
  "vŋŋ": 50350,
  "wor": 50303,
  "d␣p": 50189,
  "ŋrn": 50167,
  "f␣a": 50145,
  "abl": 49995,
  "iŋa": 49736,
  "osŋ": 49497,
  "ss␣": 49495,
  "laŋ": 49354,
  "ay␣": 49301,
  "asŋ": 49192,
  "ɱil": 49139,
  "ds␣": 48997,
  "tro": 48771,
  "lŋs": 48717,
  "o␣b": 48492,
  "ŋgŋ": 48018,
  "␣cr": 47916,
  "rst": 47529,
  "ctŋ": 47475,
  "bŋe": 47443,
  "ŋad": 47109,
  "sto": 47082,
  "o␣s": 46800,
  "ack": 46631,
  "wɱŋ": 46173,
  "irs": 46132,
  "irŋ": 46024,
  "ŋiŋ": 45982,
  "tri": 45787,
  "ori": 45722,
  "l␣a": 45617,
  "rac": 45604,
  "t␣f": 45402,
  "oŋa": 45282,
  "ard": 45216,
  "␣mi": 45140,
  "dŋŋ": 45116,
  "fic": 45108,
  "soŋ": 45041,
  "app": 44988,
  "ŋcl": 44829,
  "acŋ": 44767,
  "rŋl": 44563,
  "ŋɱŋ": 44550,
  "wɱo": 44458,
  "us␣": 44438,
  "rt␣": 44361,
  "plŋ": 44167,
  "␣ti": 44138,
  "ftŋ": 43784,
  "ŋll": 43697,
  "adŋ": 43658,
  "pŋc": 43348,
  "y␣s": 43264,
  "ɱar": 43260,
  "uŋt": 43244,
  "sɱi": 42965,
  "t␣c": 42747,
  "ŋ␣u": 42646,
  "iŋd": 42639,
  "ign": 42606,
  "clu": 42521,
  "␣cl": 42327,
  "cor": 42285,
  "sit": 42260,
  "ɱt␣": 42237,
  "ɱ␣o": 42112,
  "␣sa": 42067,
  "crŋ": 42020,
  "sɱo": 41965,
  "rŋŋ": 41914,
  "aft": 41852,
  "cŋd": 41843,
  "ɱas": 41653,
  "tŋs": 41614,
  "d␣m": 41587,
  "␣fŋ": 41260,
  "d␣n": 41250,
  "d␣d": 41242,
  "␣ab": 41195,
  "y␣i": 41101,
  "␣do": 40783,
  "ord": 40770,
  "icŋ": 40567,
  "oɱɱ": 40565,
  "iŋi": 40513,
  "cŋŋ": 40348,
  "ŋŋc": 40295,
  "␣br": 40269,
  "duc": 40261,
  "oll": 40195,
  "d␣r": 40102,
  "s␣m": 40047,
  "␣ŋa": 39933,
  "rŋp": 39873,
  "vŋl": 39860,
  "owŋ": 39846,
  "ula": 39783,
  "rti": 39774,
  "cat": 39464,
  "opŋ": 39393,
  "two": 39366,
  "s␣n": 39303,
  "isŋ": 39179,
  "lso": 39177,
  "y␣w": 39170,
  "gɱ␣": 39136,
  "␣tw": 39088,
  "lay": 39084,
  "wn␣": 38994,
  "a␣c": 38866,
  "␣us": 38815,
  "r␣c": 38727,
  "sid": 38700,
  "␣ro": 38654,
  "cɱŋ": 38628,
  "o␣ɱ": 38577,
  "sŋŋ": 38531,
  "␣sc": 38460,
  "t␣b": 38445,
  "ls␣": 38379,
  "r␣i": 38153,
  "s␣l": 38127,
  "uri": 38113,
  "acɱ": 38096,
  "war": 38071,
  "ari": 37947,
  "ual": 37729,
  "maŋ": 37593,
  "ssŋ": 37546,
  "␣da": 37523,
  "caŋ": 37498,
  "y␣c": 37498,
  "isɱ": 37446,
  "lis": 37371,
  "␣ga": 37366,
  "l␣t": 37314,
  "bŋc": 37312,
  "wou": 37222,
  "tal": 37216,
  "o␣c": 36908,
  "rgŋ": 36894,
  "taŋ": 36860,
  "a␣p": 36826,
  "wiŋ": 36824,
  "sŋs": 36809,
  "ŋxp": 36717,
  "ɱor": 36714,
  "ilŋ": 36571,
  "kiŋ": 36468,
  "suc": 36459,
  "fŋr": 36428,
  "rŋɱ": 36273,
  "ck␣": 36225,
  "id␣": 36190,
  "mor": 36115,
  "␣ta": 36110,
  "s␣ŋ": 36009,
  "aŋy": 35883,
  "␣na": 35789,
  "gra": 35770,
  "r␣w": 35674,
  "ɱo␣": 35670,
  "cia": 35652,
  "ct␣": 35477,
  "ŋto": 35475,
  "ult": 35450,
  "arg": 35379,
  "fou": 35294,
  "ffŋ": 35284,
  "ɱŋy": 35256,
  "␣ad": 35156,
  "gŋŋ": 35110,
  "ɱpl": 35106,
  "tar": 35094,
  "aŋg": 35066,
  "␣pu": 34977,
  "ow␣": 34845,
  "llo": 34844,
  "␣ŋv": 34824,
  "g␣o": 34803,
  "cri": 34753,
  "ŋca": 34722,
  "ɱip": 34678,
  "uct": 34668,
  "bŋr": 34582,
  "ŋvi": 34552,
  "otŋ": 34518,
  "t␣p": 34354,
  "␣mu": 34300,
  "ɱ␣w": 34201,
  "lac": 34199,
  "␣ap": 34145,
  "giŋ": 34125,
  "y␣f": 34081,
  "lud": 34071,
  "ŋw␣": 34040,
  "off": 34037,
  "ars": 34005,
  "␣ot": 33976,
  "ɱ␣i": 33973,
  "oŋd": 33873,
  "arr": 33869,
  "tai": 33746,
  "rai": 33624,
  "r␣f": 33619,
  "␣vi": 33591,
  "ɱ␣ɱ": 33438,
  "akŋ": 33411,
  "loŋ": 33325,
  "␣ag": 33311,
  "ork": 33243,
  "ied": 33192,
  "wo␣": 33162,
  "pri": 33150,
  "␣du": 33068,
  "ary": 33018,
  "ili": 33016,
  "d␣ŋ": 33011,
  "o␣p": 33003,
  "ucɱ": 32953,
  "gŋs": 32941,
  "caɱ": 32906,
  "ɱŋa": 32618,
  "l␣s": 32564,
  "ali": 32508,
  "ŋli": 32484,
  "ŋrv": 32483,
  "sur": 32423,
  "usi": 32379,
  "␣af": 32376,
  "atɱ": 32358,
  "tŋɱ": 32250,
  "r␣p": 32076,
  "ɱiɱ": 31908,
  "tlŋ": 31882,
  "sig": 31831,
  "oiŋ": 31787,
  "pŋŋ": 31781,
  "o␣r": 31770,
  "y␣b": 31714,
  "ɱal": 31707,
  "ɱŋɱ": 31688,
  "ɱs␣": 31630,
  "abo": 31604,
  "ici": 31587,
  "rŋt": 31584,
  "␣ov": 31469,
  "f␣ɱ": 31450,
  "␣iɱ": 31446,
  "trŋ": 31434,
  "ŋga": 31422,
  "r␣ɱ": 31326,
  "␣ou": 31182,
  "mŋŋ": 31157,
  "rd␣": 31145,
  "ŋqu": 31066,
  "sŋc": 30994,
  "rtɱ": 30950,
  "yŋa": 30851,
  "g␣i": 30840,
  "ŋit": 30747,
  "␣yŋ": 30744,
  "fiŋ": 30741,
  "ɱbŋ": 30698,
  "bli": 30660,
  "ɱoŋ": 30584,
  "viŋ": 30534,
  "lic": 30531,
  "roŋ": 30529,
  "ara": 30398,
  "ŋds": 30390,
  "␣op": 30383,
  "aŋs": 30352,
  "tly": 30256,
  "grŋ": 30193,
  "nŋd": 30193,
  "ŋsp": 30182,
  "cɱi": 30115,
  "tru": 30086,
  "d␣l": 30069,
  "ppŋ": 30036,
  "ŋɱa": 29992,
  "ŋgi": 29922,
  "ivi": 29895,
  "ŋgs": 29841,
  "t␣d": 29838,
  "ŋac": 29835,
  "ria": 29823,
  "l␣o": 29707,
  "ŋfo": 29553,
  "ric": 29328,
  "␣go": 29240,
  "isi": 29199,
  "ɱ␣s": 29198,
  "cul": 29193,
  "aŋi": 29191,
  "a␣m": 29160,
  "l␣c": 29116,
  "rtŋ": 29065,
  "ŋe␣": 28959,
  "wŋe": 28946,
  "sŋa": 28864,
  "ppo": 28848,
  "lŋc": 28846,
  "ɱos": 28793,
  "cie": 28690,
  "ieŋ": 28673,
  "rŋv": 28570,
  "ɱit": 28491,
  "mos": 28423,
  "ors": 28351,
  "lie": 28306,
  "atu": 28283,
  "sŋl": 28220,
  "iɱp": 28217,
  "ail": 28174,
  "rri": 28170,
  "␣fl": 28168,
  "␣fu": 28092,
  "arl": 28079,
  "car": 28051,
  "y␣ɱ": 28033,
  "ŋtɱ": 27876,
  "soɱ": 27865,
  "rcŋ": 27833,
  "ita": 27773,
  "urn": 27761,
  "gro": 27729,
  "now": 27702,
  "nŋw": 27638,
  "y␣r": 27523,
  "acc": 27515,
  "ŋed": 27471,
  "bou": 27444,
  "y␣d": 27440,
  "oss": 27333,
  "old": 27329,
  "ust": 27288,
  "ɱro": 27281,
  "a␣f": 27268,
  "t␣m": 27238,
  "rdŋ": 27194,
  "ŋrt": 27131,
  "ffi": 27114,
  "dit": 27096,
  "lli": 27096,
  "ŋɱp": 27042,
  "iss": 27024,
  "iɱa": 27017,
  "rod": 26979,
  "kŋ␣": 26960,
  "␣up": 26925,
  "udŋ": 26889,
  "t␣r": 26887,
  "vŋs": 26885,
  "ŋxt": 26875,
  "los": 26840,
  "o␣d": 26804,
  "oŋl": 26716,
  "rov": 26698,
  "udi": 26601,
  "r␣m": 26399,
  "til": 26393,
  "ŋŋr": 26380,
  "pŋa": 26348,
  "tie": 26289,
  "ŋtu": 26280,
  "ŋ␣v": 26272,
  "dŋc": 26260,
  "rop": 26258,
  "ifi": 26205,
  "col": 26074,
  "␣cŋ": 26007,
  "nat": 25982,
  "␣gŋ": 25957,
  "rcɱ": 25763,
  "␣dr": 25762,
  "f␣s": 25750,
  "r␣b": 25746,
  "que": 25713,
  "y␣p": 25680,
  "a␣r": 25675,
  "a␣t": 25538,
  "rio": 25496,
  "osi": 25418,
  "ue␣": 25357,
  "ɱrŋ": 25339,
  "bŋt": 25330,
  "ook": 25329,
  "rig": 25295,
  "sou": 25213,
  "odu": 25143,
  "ur␣": 25015,
  "rn␣": 25011,
  "alŋ": 24948,
  "aga": 24942,
  "air": 24926,
  "sup": 24907,
  "niŋ": 24888,
  "gai": 24852,
  "ris": 24805,
  "kŋd": 24772,
  "vid": 24772,
  "ɱpa": 24741,
  "g␣s": 24739,
  "ɱow": 24555,
  "rly": 24528,
  "twŋ": 24514,
  "iou": 24503,
  "rrŋ": 24488,
  "oli": 24458,
  "pŋd": 24439,
  "ccŋ": 24423,
  "␣ri": 24419,
  "uŋi": 24401,
  "tŋl": 24390,
  "ory": 24326,
  "ora": 24266,
  "ŋfŋ": 24236,
  "tŋa": 24234,
  "ŋsc": 24182,
  "dur": 24065,
  "oɱi": 24052,
  "o␣w": 24052,
  "o␣m": 23990,
  "ŋry": 23952,
  "ɱɱŋ": 23902,
  "ict": 23889,
  "l␣p": 23800,
  "ubl": 23771,
  "cau": 23769,
  "␣ŋl": 23769,
  "sis": 23767,
  "cŋr": 23740,
  "gaŋ": 23739,
  "gŋd": 23674,
  "vis": 23651,
  "rŋg": 23567,
  "up␣": 23562,
  "gaɱ": 23552,
  "a␣l": 23525,
  "r␣r": 23519,
  "aus": 23472,
  "sts": 23454,
  "ks␣": 23436,
  "ɱŋl": 23335,
  "s␣u": 23294,
  "scr": 23277,
  "rib": 23240,
  "utŋ": 23175,
  "loc": 23139,
  "iɱ␣": 23100,
  "sŋv": 23055,
  "cla": 23018,
  "alt": 23005,
  "rŋf": 22929,
  "ɱpo": 22895,
  "ŋsu": 22884,
  "lŋt": 22863,
  "oŋc": 22850,
  "ŋis": 22812,
  "ŋtw": 22733,
  "way": 22682,
  "las": 22667,
  "upp": 22662,
  "␣vŋ": 22606,
  "rɱŋ": 22598,
  "rot": 22496,
  "lig": 22494,
  "spo": 22445,
  "rɱa": 22436,
  "gŋr": 22425,
  "ŋdu": 22406,
  "r␣d": 22350,
  "gs␣": 22332,
  "o␣f": 22296,
  "utɱ": 22212,
  "ful": 22157,
  "ayŋ": 22121,
  "qui": 22112,
  "olo": 22075,
  "fil": 22075,
  "ɱig": 22030,
  "izŋ": 21960,
  "ood": 21945,
  "ŋlo": 21917,
  "t␣ŋ": 21892,
  "g␣w": 21811,
  "uti": 21761,
  "l␣i": 21693,
  "adi": 21642,
  "clŋ": 21634,
  "bat": 21633,
  "tia": 21585,
  "g␣f": 21582,
  "a␣d": 21531,
  "itt": 21526,
  "odŋ": 21516,
  "ps␣": 21500,
  "sub": 21413,
  "rad": 21412,
  "tit": 21392,
  "iŋf": 21368,
  "poŋ": 21179,
  "ild": 21152,
  "ŋla": 21135,
  "fac": 21060,
  "o␣i": 21039,
  "ɱ␣c": 20990,
  "ŋɱ␣": 20939,
  "g␣ɱ": 20921,
  "eŋc": 20880,
  "oca": 20874,
  "olŋ": 20849,
  "die": 20845,
  "sic": 20734,
  "pol": 20720,
  "tcɱ": 20697,
  "iat": 20694,
  "ruc": 20690,
  "t␣l": 20646,
  "eŋt": 20629,
  "kno": 20608,
  "lt␣": 20608,
  "iɱi": 20576,
  "uŋc": 20554,
  "aɱp": 20529,
  "rol": 20526,
  "cit": 20517,
  "␣nu": 20516,
  "ŋaɱ": 20482,
  "cur": 20452,
  "␣ci": 20318,
  "pub": 20208,
  "too": 20161,
  "ttl": 20136,
  "y␣m": 20124,
  "sol": 20123,
  "o␣ŋ": 20121,
  "cɱo": 20075,
  "riv": 19973,
  "ɱai": 19893,
  "ŋɱo": 19889,
  "qua": 19887,
  "orc": 19879,
  "ŋcr": 19874,
  "ŋŋg": 19804,
  "␣bi": 19746,
  "naɱ": 19723,
  "␣va": 19669,
  "cas": 19638,
  "r␣ŋ": 19553,
  "rnŋ": 19531,
  "mus": 19456,
  "aŋn": 19454,
  "l␣f": 19445,
  "fol": 19404,
  "dŋa": 19380,
  "d␣u": 19349,
  "bŋg": 19340,
  "nor": 19330,
  "rds": 19319,
  "ueŋ": 19153,
  "dŋp": 19135,
  "ick": 19133,
  "mat": 19122,
  "cap": 19118,
  "␣ŋs": 19089,
  "mad": 19070,
  "stu": 19022,
  "day": 19020,
  "val": 19019,
  "rsŋ": 18925,
  "tab": 18921,
  "ark": 18917,
  "il␣": 18914,
  "rk␣": 18899,
  "tak": 18882,
  "asi": 18872,
  "␣qu": 18795,
  "ŋɱb": 18766,
  "cto": 18690,
  "moŋ": 18690,
  "ŋaŋ": 18685,
  "ip␣": 18684,
  "ɱ␣f": 18678,
  "arɱ": 18631,
  "␣kn": 18626,
  "yiŋ": 18595,
  "wŋl": 18549,
  "␣pi": 18540,
  "tac": 18529,
  "a␣b": 18528,
  "bŋl": 18492,
  "bro": 18485,
  "ŋrɱ": 18476,
  "ura": 18346,
  "f␣i": 18323,
  "ucŋ": 18296,
  "ŋcɱ": 18275,
  "ŋpt": 18168,
  "mar": 18168,
  "␣wr": 18155,
  "rvŋ": 18155,
  "dŋv": 18125,
  "f␣c": 18125,
  "ros": 18111,
  "l␣r": 18044,
  "iŋu": 18041,
  "bas": 18030,
  "baŋ": 17970,
  "did": 17952,
  "igi": 17931,
  "avi": 17918,
  "paŋ": 17879,
  "bŋf": 17872,
  "aɱi": 17864,
  "nuɱ": 17707,
  "ikŋ": 17686,
  "sco": 17676,
  "ŋnŋ": 17674,
  "pai": 17674,
  "urr": 17660,
  "fie": 17600,
  "od␣": 17578,
  "dif": 17576,
  "pti": 17575,
  "lŋr": 17553,
  "g␣c": 17497,
  "fŋa": 17479,
  "uil": 17447,
  "iff": 17446,
  "clo": 17429,
  "ily": 17423,
  "ovi": 17418,
  "pul": 17389,
  "ŋda": 17365,
  "row": 17340,
  "rvi": 17336,
  "ŋrf": 17330,
  "urt": 17328,
  "tud": 17255,
  "lŋg": 17234,
  "rɱ␣": 17207,
  "␣ɱu": 17205,
  "dic": 17195,
  "ckŋ": 17192,
  "ues": 17174,
  "bot": 17160,
  "yŋd": 17159,
  "arc": 17152,
  "y␣ŋ": 17151,
  "ŋig": 17086,
  "ŋtt": 17053,
  "ŋtl": 17043,
  "f␣p": 17027,
  "mal": 17006,
  "ɱŋt": 16989,
  "␣ru": 16979,
  "bil": 16957,
  "a␣n": 16900,
  "d␣g": 16857,
  "lŋŋ": 16855,
  "uɱŋ": 16812,
  "␣cu": 16808,
  "xpŋ": 16783,
  "wŋd": 16782,
  "ɱot": 16757,
  "sŋt": 16706,
  "uɱb": 16689,
  "g␣p": 16676,
  "iaŋ": 16663,
  "owi": 16586,
  "pat": 16583,
  "log": 16578,
  "uɱ␣": 16553,
  "sŋe": 16548,
  "r␣l": 16545,
  "␣bl": 16530,
  "lvŋ": 16510,
  "vic": 16498,
  "␣aɱ": 16495,
  "l␣w": 16475,
  "iŋv": 16462,
  "rts": 16406,
  "y␣l": 16395,
  "ilɱ": 16345,
  "o␣o": 16328,
  "k␣o": 16316,
  "ays": 16312,
  "jŋc": 16257,
  "wri": 16250,
  "bac": 16241,
  "ok␣": 16237,
  "ier": 16237,
  "bui": 16226,
  "vie": 16211,
  "iso": 16209,
  "rta": 16186,
  "poi": 16177,
  "aso": 16136,
  "dŋf": 16106,
  "cro": 16093,
  "urs": 16086,
  "rap": 16057,
  "vol": 16021,
  "pas": 15963,
  "mil": 15919,
  "f␣w": 15900,
  "oti": 15890,
  "dat": 15875,
  "ɱ␣p": 15865,
  "aid": 15830,
  "lŋɱ": 15827,
  "ato": 15813,
  "sma": 15762,
  "lop": 15760,
  "bri": 15708,
  "ctu": 15681,
  "s␣g": 15674,
  "cts": 15650,
  "␣gi": 15642,
  "aŋŋ": 15627,
  "spi": 15614,
  "ft␣": 15574,
  "mov": 15572,
  "o␣l": 15563,
  "isc": 15558,
  "ucc": 15553,
  "lai": 15524,
  "no␣": 15524,
  "ŋrr": 15493,
  "ock": 15478,
  "ŋiv": 15474,
  "␣ki": 15446,
  "sib": 15436,
  "mai": 15426,
  "miŋ": 15415,
  "l␣b": 15406,
  "oŋi": 15387,
  "ɱol": 15369,
  "pic": 15349,
  "tta": 15310,
  "bŋi": 15292,
  "ŋcu": 15288,
  "ŋl␣": 15285,
  "roa": 15266,
  "cov": 15233,
  "fŋc": 15161,
  "l␣d": 15148,
  "a␣w": 15146,
  "ibl": 15132,
  "␣sy": 15086,
  "f␣m": 15037,
  "try": 14995,
  "ogr": 14931,
  "may": 14927,
  "dŋl": 14926,
  "ys␣": 14915,
  "dow": 14836,
  "oup": 14787,
  "div": 14780,
  "ssu": 14753,
  "lif": 14750,
  "␣ŋɱ": 14740,
  "ɱ␣m": 14731,
  "t␣n": 14725,
  "ifŋ": 14697,
  "dia": 14696,
  "alo": 14631,
  "ŋpa": 14616,
  "mŋɱ": 14572,
  "ibŋ": 14550,
  "pop": 14549,
  "tua": 14497,
  "piŋ": 14473,
  "ull": 14461,
  "lik": 14460,
  "e␣t": 14426,
  "add": 14396,
  "roc": 14386,
  "ɱ␣b": 14382,
  "siv": 14374,
  "ŋff": 14353,
  "ued": 14352,
  "aɱ␣": 14295,
  "opp": 14271,
  "ŋrc": 14235,
  "ŋvo": 14234,
  "drŋ": 14212,
  "icu": 14150,
  "gat": 14145,
  "ŋgl": 14142,
  "dy␣": 14134,
  "roo": 14127,
  "ŋgu": 14095,
  "yŋr": 14089,
  "ŋav": 14080,
  "ŋfl": 14072,
  "␣sm": 14064,
  "scɱ": 14041,
  "tŋc": 14034,
  "l␣m": 14011,
  "ŋet": 13994,
  "ila": 13988,
  "lla": 13987,
  "wat": 13941,
  "ŋpo": 13926,
  "vat": 13892,
  "n␣a": 13886,
  "rna": 13869,
  "ŋŋi": 13833,
  "mak": 13823,
  "iew": 13823,
  "ics": 13774,
  "opu": 13764,
  "dra": 13763,
  "rag": 13753,
  "aŋo": 13752,
  "plo": 13742,
  "gni": 13727,
  "itu": 13717,
  "dgŋ": 13705,
  "tow": 13667,
  "␣ai": 13664,
  "liv": 13661,
  "␣au": 13627,
  "ŋfi": 13627,
  "␣sl": 13606,
  "␣ob": 13569,
  "bit": 13557,
  "ism": 13553,
  "cŋp": 13546,
  "ɱpŋ": 13544,
  "ŋak": 13527,
  "atc": 13522,
  "ŋag": 13504,
  "lŋv": 13503,
  "sla": 13456,
  "aɱo": 13441,
  "␣gu": 13428,
  "ɱpt": 13418,
  "sul": 13387,
  "f␣f": 13379,
  "gŋt": 13365,
  "gov": 13364,
  "pli": 13355,
  "nŋr": 13330,
  "cra": 13325,
  "g␣b": 13286,
  "p␣t": 13253,
  "loo": 13240,
  "you": 13224,
  "␣tu": 13221,
  "ldi": 13210,
  "ŋni": 13164,
  "ŋa␣": 13154,
  "f␣o": 13148,
  "cŋi": 13140,
  "a␣g": 13134,
  "vio": 13118,
  "lf␣": 13113,
  "k␣t": 13087,
  "ɱoɱ": 13075,
  "␣vo": 13069,
  "iev": 13062,
  "aut": 13052,
  "ɱag": 13036,
  "pit": 13030,
  "faɱ": 13011,
  "w␣t": 13002,
  "apŋ": 12984,
  "ŋ␣k": 12960,
  "ŋue": 12931,
  "a␣ɱ": 12927,
  "l␣ŋ": 12919,
  "siɱ": 12917,
  "tis": 12909,
  "rɱi": 12847,
  "rŋq": 12842,
  "ccu": 12817,
  "ird": 12804,
  "oad": 12792,
  "ŋlf": 12790,
  "rkŋ": 12785,
  "ɱuŋ": 12744,
  "mod": 12725,
  "abi": 12681,
  "ltɱ": 12673,
  "k␣a": 12672,
  "rsi": 12606,
  "aro": 12592,
  "bŋd": 12588,
  "ŋɱi": 12545,
  "giv": 12530,
  "ppr": 12507,
  "riɱ": 12497,
  "␣ju": 12479,
  "raɱ": 12470,
  "frŋ": 12466,
  "pt␣": 12438,
  "␣ow": 12425,
  "lue": 12419,
  "lti": 12411,
  "glŋ": 12395,
  "␣ŋf": 12371,
  "n␣t": 12332,
  "var": 12318,
  "aŋa": 12314,
  "ws␣": 12303,
  "cid": 12301,
  "ŋ␣y": 12283,
  "occ": 12267,
  "adv": 12240,
  "tag": 12218,
  "oɱb": 12207,
  "dir": 12198,
  "sɱa": 12191,
  "ptŋ": 12191,
  "g␣m": 12181,
  "iva": 12175,
  "brŋ": 12141,
  "zŋd": 12098,
  "aɱa": 12097,
  "tŋe": 12093,
  "nŋa": 12058,
  "uit": 12055,
  "␣oc": 12039,
  "apt": 12008,
  "yst": 11995,
  "urc": 11975,
  "ips": 11954,
  "gnŋ": 11951,
  "oci": 11937,
  "oŋf": 11913,
  "sɱ␣": 11903,
  "ciŋ": 11895,
  "cco": 11881,
  "ɱoo": 11877,
  "aci": 11873,
  "ŋop": 11868,
  "bor": 11867,
  "ŋpr": 11863,
  "mŋt": 11858,
  "rfo": 11789,
  "lls": 11787,
  "bal": 11763,
  "iŋn": 11735,
  "ɱ␣r": 11718,
  "wɱa": 11640,
  "o␣g": 11639,
  "tif": 11622,
  "saɱ": 11599,
  "oŋo": 11592,
  "rdi": 11588,
  "ɱy␣": 11585,
  "␣yo": 11551,
  "gn␣": 11515,
  "ruŋ": 11498,
  "sal": 11487,
  "dŋt": 11444,
  "mŋa": 11435,
  "awa": 11422,
  "␣pɱ": 11396,
  "er␣": 11381,
  "ŋsɱ": 11370,
  "bsŋ": 11366,
  "l␣ɱ": 11359,
  "liɱ": 11358,
  "ggŋ": 11357,
  "oŋv": 11356,
  "flo": 11352,
  "nɱŋ": 11346,
  "est": 11342,
  "dŋɱ": 11335,
  "kŋt": 11316,
  "nŋs": 11285,
  "aff": 11280,
  "ɱɱa": 11280,
  "aŋk": 11279,
  "cus": 11277,
  "␣av": 11262,
  "mis": 11252,
  "top": 11244,
  "ɱ␣d": 11244,
  "soc": 11224,
  "pow": 11195,
  "spa": 11187,
  "ŋer": 11187,
  "sai": 11168,
  "kŋŋ": 11154,
  "rid": 11144,
  "evŋ": 11121,
  "ol␣": 11114,
  "ugg": 11109,
  "irc": 11107,
  "rip": 11077,
  "ŋro": 11073,
  "ŋls": 10991,
  "rnɱ": 10988,
  "ɱir": 10955,
  "ŋxc": 10950,
  "gue": 10935,
  "ŋŋa": 10931,
  "ŋpl": 10927,
  "lio": 10911,
  "wŋa": 10905,
  "opi": 10899,
  "rog": 10871,
  "pac": 10868,
  "ota": 10860,
  "fai": 10830,
  "ɱpr": 10806,
  "opl": 10803,
  "wil": 10747,
  "gio": 10747,
  "f␣r": 10741,
  "t␣u": 10733,
  "ubs": 10729,
  "cks": 10719,
  "ɱie": 10692,
  "ŋor": 10660,
  "rar": 10656,
  "␣jo": 10654,
  "ɱ␣ŋ": 10652,
  "rni": 10631,
  "aki": 10621,
  "r␣n": 10620,
  "ɱɱi": 10619,
  "cut": 10604,
  "put": 10598,
  "raf": 10594,
  "cis": 10593,
  "f␣ŋ": 10584,
  "g␣d": 10577,
  "bra": 10536,
  "ssa": 10516,
  "sor": 10491,
  "ŋŋo": 10487,
  "uŋs": 10479,
  "uŋg": 10479,
  "f␣d": 10473,
  "scŋ": 10466,
  "ool": 10454,
  "wŋs": 10452,
  "ul␣": 10439,
  "suɱ": 10436,
  "rob": 10394,
  "fig": 10349,
  "toŋ": 10319,
  "ɱ␣l": 10319,
  "ŋrg": 10308,
  "ŋic": 10295,
  "jor": 10277,
  "f␣b": 10277,
  "t␣g": 10275,
  "maj": 10266,
  "olv": 10240,
  "ajo": 10232,
  "boo": 10225,
  "pŋo": 10214,
  "vil": 10200,
  "muc": 10187,
  "ŋpi": 10179,
  "rŋw": 10156,
  "lab": 10155,
  "op␣": 10149,
  "ŋdo": 10143,
  "oft": 10122,
  "dro": 10099,
  "olu": 10084,
  "g␣r": 10069,
  "sue": 10061,
  "sua": 10030,
  "ɱɱo": 10027,
  "org": 10003,
  "l␣l": 9989,
  "r␣g": 9985,
  "ŋou": 9969,
  "opo": 9963,
  "rro": 9954,
  "tou": 9952,
  "ocŋ": 9922,
  "ɱuɱ": 9921,
  "flŋ": 9906,
  "dar": 9886,
  "wid": 9886,
  "flu": 9884,
  "biŋ": 9879,
  "ava": 9856,
  "fŋŋ": 9833,
  "oot": 9813,
  "␣ni": 9812,
  "fuŋ": 9789,
  "sca": 9782,
  "ibu": 9781,
  "ŋot": 9761,
  "apɱ": 9744,
  "␣id": 9730,
  "ior": 9695,
  "fur": 9681,
  "bly": 9649,
  "␣aw": 9644,
  "sys": 9640,
  "aiɱ": 9624,
  "ltŋ": 9618,
  "iuɱ": 9587,
  "rɱs": 9582,
  "ito": 9582,
  "ibi": 9571,
  "xtŋ": 9563,
  "sso": 9553,
  "cli": 9542,
  "bŋs": 9537,
  "pie": 9507,
  "ras": 9446,
  "ŋep": 9426,
  "p␣o": 9401,
  "f␣l": 9383,
  "ŋek": 9370,
  "vit": 9346,
  "orn": 9345,
  "rav": 9342,
  "cŋl": 9319,
  "pra": 9294,
  "lia": 9282,
  "cip": 9272,
  "ff␣": 9272,
  "isl": 9204,
  "ŋfu": 9191,
  "cs␣": 9182,
  "okŋ": 9176,
  "d␣v": 9173,
  "typ": 9137,
  "doɱ": 9115,
  "orl": 9107,
  "rso": 9102,
  "uir": 9068,
  "kil": 9066,
  "tti": 9060,
  "uar": 9059,
  "ŋld": 9044,
  "pur": 9031,
  "ŋva": 9006,
  "gar": 9003,
  "rga": 8993,
  "␣ŋi": 8987,
  "arn": 8982,
  "ŋpŋ": 8979,
  "tɱs": 8962,
  "ais": 8951,
  "isp": 8928,
  "sug": 8921,
  "iel": 8862,
  "alb": 8862,
  "six": 8857,
  "ddi": 8856,
  "lor": 8853,
  "g␣ŋ": 8849,
  "daɱ": 8843,
  "pir": 8820,
  "xpl": 8816,
  "uat": 8803,
  "ɱur": 8798,
  "isa": 8781,
  "avo": 8764,
  "y␣u": 8739,
  "ŋso": 8722,
  "eld": 8721,
  "ŋxa": 8667,
  "vaŋ": 8663,
  "ŋno": 8654,
  "␣ŋd": 8623,
  "lot": 8621,
  "ows": 8599,
  "due": 8581,
  "rsɱ": 8575,
  "ilt": 8571,
  "coa": 8542,
  "sil": 8521,
  "fiv": 8511,
  "lŋf": 8497,
  "toɱ": 8491,
  "rks": 8489,
  "ŋɱs": 8482,
  "agr": 8478,
  "ɱsŋ": 8468,
  "y␣n": 8464,
  "bar": 8462,
  "pŋ␣": 8461,
  "lɱ␣": 8426,
  "aw␣": 8422,
  "ooŋ": 8417,
  "oyŋ": 8415,
  "ury": 8412,
  "buɱ": 8389,
  "bir": 8370,
  "ulŋ": 8361,
  "tir": 8359,
  "fla": 8351,
  "oor": 8333,
  "s␣v": 8325,
  "mŋd": 8324,
  "oɱa": 8312,
  "ŋft": 8304,
  "cy␣": 8304,
  "roy": 8300,
  "ldŋ": 8294,
  "fŋl": 8285,
  "ŋiɱ": 8279,
  "rty": 8276,
  "c␣a": 8267,
  "iɱs": 8255,
  "ŋgr": 8249,
  "pɱy": 8244,
  "lbu": 8226,
  "rra": 8211,
  "odi": 8208,
  "w␣a": 8191,
  "owl": 8186,
  "rli": 8173,
  "jus": 8169,
  "far": 8168,
  "bla": 8166,
  "iod": 8136,
  "pɱo": 8134,
  "rld": 8116,
  "p␣a": 8094,
  "nŋc": 8090,
  "pɱi": 8089,
  "sŋq": 8087,
  "fŋw": 8087,
  "boa": 8075,
  "pŋt": 8062,
  "ppl": 8052,
  "sci": 8048,
  "gui": 8003,
  "ɱtŋ": 7994,
  "ift": 7993,
  "oɱo": 7966,
  "mas": 7948,
  "l␣g": 7945,
  "foo": 7915,
  "sat": 7904,
  "obs": 7897,
  "pɱŋ": 7875,
  "rŋi": 7868,
  "ŋoɱ": 7834,
  "if␣": 7831,
  "ief": 7805,
  "y␣g": 7800,
  "bod": 7795,
  "mot": 7773,
  "dua": 7761,
  "␣sk": 7722,
  "a␣v": 7677,
  "lus": 7674,
  "␣kŋ": 7668,
  "guŋ": 7664,
  "ola": 7664,
  "urv": 7661,
  "dri": 7656,
  "ŋk␣": 7655,
  "xt␣": 7634,
  "uff": 7611,
  "ɱɱu": 7606,
  "k␣i": 7603,
  "iet": 7596,
  "daŋ": 7594,
  "fri": 7579,
  "bjŋ": 7559,
  "sly": 7550,
  "cru": 7546,
  "ŋxi": 7541,
  "ogi": 7540,
  "doŋ": 7530,
  "pmŋ": 7516,
  "rus": 7514,
  "lut": 7510,
  "orp": 7493,
  "bŋa": 7465,
  "fŋ␣": 7461,
  "o␣n": 7455,
  "fal": 7453,
  "tmŋ": 7450,
  "et␣": 7437,
  "ogŋ": 7394,
  "luɱ": 7392,
  "acr": 7378,
  "ɱbi": 7349,
  "ŋlp": 7342,
  "rui": 7338,
  "orr": 7326,
  "kŋr": 7324,
  "iɱɱ": 7299,
  "iŋk": 7298,
  "ayi": 7294,
  "dio": 7280,
  "saŋ": 7270,
  "ns␣": 7264,
  "mag": 7248,
  "␣if": 7233,
  "ctr": 7231,
  "do␣": 7225,
  "pot": 7218,
  "dly": 7216,
  "aug": 7207,
  "scu": 7205,
  "uis": 7204,
  "wŋŋ": 7198,
  "␣ty": 7171,
  "bus": 7143,
  "rab": 7124,
  "ats": 7124,
  "usl": 7116,
  "k␣w": 7107,
  "fli": 7105,
  "wro": 7052,
  "fŋe": 7044,
  "nŋx": 7038,
  "kŋs": 7022,
  "ody": 7021,
  "fat": 6998,
  "ix␣": 6966,
  "sty": 6961,
  "iga": 6961,
  "sfu": 6955,
  "uɱa": 6951,
  "ŋus": 6948,
  "ask": 6946,
  "ers": 6929,
  "ops": 6923,
  "p␣w": 6901,
  "ocu": 6899,
  "gul": 6890,
  "ŋ␣j": 6874,
  "ɱop": 6862,
  "ssf": 6840,
  "sŋɱ": 6829,
  "law": 6829,
  "lag": 6817,
  "g␣l": 6815,
  "itl": 6811,
  "zŋ␣": 6791,
  "ŋeɱ": 6786,
  "ŋŋu": 6782,
  "fra": 6766,
  "ipa": 6758,
  "ipt": 6718,
  "tog": 6711,
  "uŋ␣": 6700,
  "asɱ": 6694,
  "ŋgt": 6677,
  "gic": 6662,
  "mou": 6643,
  "cop": 6636,
  "ŋlt": 6633,
  "uts": 6625,
  "viv": 6619,
  "alf": 6619,
  "ril": 6614,
  "bŋh": 6608,
  "stl": 6594,
  "ŋab": 6546,
  "joi": 6539,
  "woɱ": 6531,
  "oac": 6525,
  "osp": 6521,
  "fus": 6518,
  "pis": 6514,
  "ziŋ": 6509,
  "vŋɱ": 6508,
  "atr": 6501,
  "raw": 6497,
  "nif": 6485,
  "ŋes": 6484,
  "xaɱ": 6473,
  "iŋo": 6471,
  "wal": 6469,
  "n␣o": 6466,
  "oŋn": 6458,
  "liz": 6450,
  "loy": 6429,
  "gɱŋ": 6422,
  "gtɱ": 6422,
  "gis": 6410,
  "icl": 6408,
  "␣ol": 6400,
  "l␣n": 6399,
  "arb": 6397,
  "r␣u": 6391,
  "ŋiz": 6390,
  "ŋdl": 6388,
  "blo": 6370,
  "f␣n": 6362,
  "ala": 6360,
  "ɱap": 6349,
  "nŋv": 6344,
  "bur": 6343,
  "nŋe": 6341,
  "aig": 6340,
  "ddŋ": 6319,
  "oto": 6317,
  "oes": 6313,
  "api": 6297,
  "ŋio": 6285,
  "ŋhi": 6278,
  "adɱ": 6277,
  "␣ŋp": 6273,
  "c␣s": 6259,
  "spl": 6254,
  "idi": 6252,
  "ŋcy": 6244,
  "ɱ␣n": 6224,
  "uŋa": 6216,
  "nal": 6209,
  "o␣u": 6204,
  "kŋl": 6161,
  "noŋ": 6154,
  "s␣k": 6153,
  "dɱi": 6152,
  "␣sw": 6151,
  "fŋs": 6132,
  "ysi": 6111,
  "alɱ": 6110,
  "dul": 6102,
  "obl": 6084,
  "skŋ": 6077,
  "sod": 6076,
  "gal": 6073,
  "rof": 6058,
  "lou": 6057,
  "pŋe": 6055,
  "ŋxŋ": 6054,
  "f␣g": 6047,
  "␣ŋq": 6031,
  "ipl": 6030,
  "oop": 6027,
  "ŋie": 6022,
  "gua": 6005,
  "rtu": 5988,
  "suf": 5987,
  "ooɱ": 5980,
  "ŋha": 5971,
  "pɱa": 5970,
  "ɱts": 5964,
  "eŋd": 5959,
  "usu": 5955,
  "tyl": 5947,
  "␣gl": 5941,
  "rva": 5936,
  "w␣o": 5933,
  "irt": 5898,
  "ɱus": 5895,
  "spr": 5891,
  "agi": 5873,
  "oar": 5872,
  "ia␣": 5870,
  "sm␣": 5864,
  "owa": 5857,
  "gy␣": 5852,
  "w␣s": 5844,
  "ida": 5841,
  "pal": 5841,
  "asu": 5829,
  "cir": 5828,
  "e␣o": 5814,
  "rpo": 5799,
  "r␣v": 5776,
  "aɱɱ": 5761,
  "dva": 5737,
  "iri": 5735,
  "vot": 5728,
  "ptu": 5716,
  "vor": 5713,
  "uŋn": 5712,
  "oat": 5703,
  "adu": 5688,
  "coi": 5686,
  "waŋ": 5684,
  "upŋ": 5684,
  "ypŋ": 5670,
  "fit": 5650,
  "gna": 5643,
  "ŋel": 5635,
  "roj": 5635,
  "voi": 5627,
  "ŋdg": 5627,
  "ldr": 5615,
  "mid": 5596,
  "ylŋ": 5589,
  "gur": 5577,
  "nou": 5576,
  "oxi": 5571,
  "ojŋ": 5562,
  "wŋv": 5562,
  "rci": 5560,
  "ŋ␣q": 5554,
  "aps": 5554,
  "siz": 5552,
  "t␣v": 5538,
  "opm": 5538,
  "ŋrl": 5519,
  "lŋe": 5513,
  "ruɱ": 5512,
  "ŋrp": 5504,
  "apa": 5504,
  "pŋs": 5493,
  "gɱo": 5491,
  "dlŋ": 5483,
  "igu": 5470,
  "iza": 5469,
  "ɱŋo": 5467,
  "ods": 5463,
  "ak␣": 5461,
  "ŋty": 5459,
  "dŋe": 5457,
  "slo": 5439,
  "xcŋ": 5439,
  "irɱ": 5436,
  "tot": 5436,
  "n␣f": 5412,
  "faŋ": 5399,
  "␣ŋc": 5397,
  "usɱ": 5395,
  "doc": 5386,
  "ɱ␣g": 5386,
  "ɱba": 5378,
  "dŋb": 5378,
  "vir": 5370,
  "syɱ": 5369,
  "woŋ": 5356,
  "xtr": 5355,
  "xis": 5350,
  "pap": 5348,
  "oŋy": 5340,
  "tut": 5336,
  "nov": 5333,
  "rul": 5330,
  "opt": 5320,
  "cuɱ": 5316,
  "rcr": 5311,
  "rŋb": 5311,
  "sus": 5311,
  "boŋ": 5295,
  "tol": 5287,
  "oba": 5284,
  "ply": 5281,
  "ɱly": 5278,
  "a␣o": 5271,
  "cos": 5268,
  "fav": 5264,
  "ɱpi": 5259,
  "oal": 5259,
  "goo": 5254,
  "ŋck": 5246,
  "t␣y": 5242,
  "rɱo": 5223,
  "ott": 5220,
  "ilo": 5213,
  "osa": 5212,
  "rfa": 5211,
  "ado": 5211,
  "iqu": 5206,
  "uck": 5200,
  "gly": 5196,
  "p␣i": 5179,
  "aɱs": 5179,
  "␣my": 5155,
  "g␣u": 5152,
  "ils": 5148,
  "ads": 5145,
  "mig": 5135,
  "c␣c": 5134,
  "ɱaɱ": 5129,
  "tig": 5119,
  "nig": 5110,
  "oya": 5106,
  "fŋɱ": 5099,
  "idg": 5097,
  "n␣i": 5086,
  "lau": 5084,
  "edŋ": 5074,
  "␣ŋr": 5073,
  "tuŋ": 5072,
  "avy": 5069,
  "ŋbr": 5062,
  "ski": 5053,
  "cad": 5029,
  "lɱo": 5009,
  "squ": 4994,
  "cɱn": 4987,
  "aud": 4974,
  "ffo": 4974,
  "rcu": 4969,
  "sli": 4965,
  "pil": 4964,
  "sui": 4963,
  "ŋut": 4961,
  "cil": 4960,
  "a␣a": 4958,
  "oid": 4940,
  "sŋp": 4933,
  "g␣n": 4932,
  "k␣f": 4931,
  "ŋŋl": 4917,
  "ecŋ": 4913,
  "uic": 4899,
  "w␣c": 4896,
  "ɱbl": 4886,
  "boɱ": 4885,
  "gɱl": 4882,
  "ckl": 4880,
  "ɱov": 4880,
  "iec": 4880,
  "say": 4879,
  "ra␣": 4878,
  "ttr": 4875,
  "ɱbo": 4866,
  "io␣": 4866,
  "ata": 4849,
  "rki": 4847,
  "oo␣": 4841,
  "mŋe": 4826,
  "ogy": 4824,
  "rwa": 4824,
  "ltu": 4823,
  "wnŋ": 4821,
  "uɱp": 4817,
  "uɱɱ": 4814,
  "ŋws": 4813,
  "ɱul": 4813,
  "ŋdr": 4813,
  "opɱ": 4808,
  "cŋɱ": 4806,
  "oil": 4796,
  "idu": 4790,
  "e␣a": 4788,
  "iol": 4781,
  "alu": 4778,
  "uŋŋ": 4760,
  "urp": 4724,
  "vai": 4722,
  "vy␣": 4719,
  "urf": 4718,
  "ady": 4711,
  "poo": 4695,
  "oas": 4694,
  "gav": 4688,
  "bio": 4687,
  "agu": 4685,
  "zat": 4683,
  "ots": 4676,
  "c␣p": 4670,
  "ait": 4663,
  "ep␣": 4660,
  "ogn": 4653,
  "␣ɱy": 4649,
  "pta": 4648,
  "cog": 4640,
  "ray": 4619,
  "sau": 4619,
  "yal": 4616,
  "lub": 4610,
  "ŋfa": 4602,
  "ŋrw": 4602,
  "rbi": 4588,
  "tas": 4585,
  "␣il": 4578,
  "dus": 4577,
  "ef␣": 4572,
  "alr": 4568,
  "ŋlv": 4563,
  "ups": 4563,
  "rgu": 4560,
  "xiɱ": 4551,
  "uto": 4545,
  "n␣s": 4530,
  "edi": 4523,
  "w␣i": 4521,
  "bow": 4514,
  "lid": 4514,
  "ɱni": 4503,
  "fis": 4495,
  "tɱu": 4491,
  "oub": 4482,
  "w␣w": 4472,
  "g␣g": 4470,
  "ŋŋɱ": 4469,
  "l␣v": 4464,
  "sag": 4454,
  "tŋg": 4451,
  "itc": 4450,
  "ɱpɱ": 4450,
  "gŋɱ": 4449,
  "kŋe": 4434,
  "ira": 4399,
  "lib": 4395,
  "aɱb": 4391,
  "rns": 4390,
  "ew␣": 4381,
  "ŋo␣": 4373,
  "rif": 4370,
  "pŋl": 4358,
  "ɱod": 4357,
  "ŋks": 4354,
  "riz": 4346,
  "saw": 4331,
  "nit": 4330,
  "auŋ": 4319,
  "bab": 4317,
  "fly": 4313,
  "rup": 4312,
  "igŋ": 4306,
  "k␣p": 4304,
  "ada": 4302,
  "bol": 4287,
  "soo": 4286,
  "ids": 4285,
  "c␣t": 4279,
  "llu": 4275,
  "iag": 4251,
  "tip": 4250,
  "tnŋ": 4248,
  "ety": 4243,
  "cta": 4242,
  "k␣b": 4222,
  "doe": 4218,
  "uad": 4215,
  "iro": 4213,
  "y␣v": 4211,
  "uiŋ": 4200,
  "nic": 4197,
  "udy": 4196,
  "cŋe": 4194,
  "ŋgo": 4194,
  "uŋk": 4193,
  "rry": 4192,
  "upt": 4186,
  "ŋŋv": 4180,
  "nŋt": 4180,
  "cɱu": 4170,
  "ɱys": 4151,
  "oic": 4144,
  "iŋl": 4125,
  "sŋx": 4119,
  "lwa": 4112,
  "ŋŋy": 4111,
  "jur": 4110,
  "w␣m": 4101,
  "dou": 4101,
  "ŋoŋ": 4099,
  "apo": 4080,
  "wlŋ": 4078,
  "nav": 4077,
  "ewŋ": 4075,
  "mŋr": 4074,
  "fas": 4061,
  "ols": 4059,
  "urb": 4046,
  "kly": 4046,
  "ipp": 4042,
  "cki": 4038,
  "xpa": 4037,
  "eti": 4034,
  "ŋyŋ": 4032,
  "utu": 4031,
  "agn": 4030,
  "ɱwa": 4028,
  "ŋsf": 4028,
  "eɱŋ": 4027,
  "bst": 4026,
  "alk": 4025,
  "ŋba": 4025,
  "aur": 3992,
  "abs": 3990,
  "woo": 3987,
  "ŋap": 3987,
  "w␣p": 3983,
  "ctl": 3975,
  "hiŋ": 3971,
  "orb": 3963,
  "ytɱ": 3960,
  "obj": 3956,
  "rug": 3940,
  "xpr": 3928,
  "cif": 3922,
  "e␣s": 3918,
  "azi": 3917,
  "ova": 3914,
  "dŋo": 3899,
  "ago": 3887,
  "poe": 3880,
  "voc": 3879,
  "loa": 3878,
  "lts": 3877,
  "gŋo": 3876,
  "spɱ": 3870,
  "k␣s": 3869,
  "iɱu": 3865,
  "ŋju": 3865,
  "tɱw": 3862,
  "rpr": 3845,
  "n␣w": 3845,
  "coo": 3843,
  "uta": 3841,
  "urg": 3840,
  "sar": 3838,
  "go␣": 3835,
  "w␣ɱ": 3834,
  "noɱ": 3824,
  "el␣": 3822,
  "rɱy": 3814,
  "o␣k": 3798,
  "n␣p": 3782,
  "nŋg": 3774,
  "tŋx": 3770,
  "oɱs": 3733,
  "got": 3730,
  "mul": 3722,
  "gol": 3721,
  "w␣f": 3718,
  "foc": 3718,
  "ŋkŋ": 3717,
  "o␣v": 3712,
  "vas": 3703,
  "ŋpu": 3702,
  "bŋŋ": 3699,
  "fŋd": 3698,
  "ify": 3697,
  "rok": 3694,
  "laɱ": 3693,
  "wŋ␣": 3688,
  "nar": 3687,
  "upo": 3677,
  "e␣w": 3676,
  "jou": 3669,
  "ubj": 3665,
  "eks": 3657,
  "ɱ␣u": 3653,
  "cyc": 3652,
  "ycl": 3639,
  "ŋuɱ": 3636,
  "uss": 3634,
  "atm": 3629,
  "ou␣": 3622,
  "gag": 3608,
  "lav": 3603,
  "lap": 3601,
  "wis": 3601,
  "obi": 3584,
  "gaz": 3577,
  "f␣v": 3577,
  "n␣b": 3569,
  "c␣f": 3562,
  "oro": 3557,
  "rtl": 3557,
  "lov": 3555,
  "ɱab": 3547,
  "lŋx": 3545,
  "cup": 3544,
  "bov": 3532,
  "rsa": 3530,
  "␣cy": 3529,
  "ror": 3528,
  "ŋbu": 3527,
  "usa": 3523,
  "ofŋ": 3520,
  "ɱid": 3515,
  "wic": 3512,
  "yoŋ": 3510,
  "lty": 3509,
  "kŋy": 3505,
  "yɱŋ": 3497,
  "acy": 3493,
  "uca": 3489,
  "civ": 3485,
  "hŋa": 3482,
  "c␣i": 3472,
  "goŋ": 3471,
  "rba": 3467,
  "nŋl": 3459,
  "rtr": 3458,
  "␣lu": 3449,
  "c␣o": 3447,
  "goa": 3446,
  "␣ur": 3442,
  "ŋŋf": 3435,
  "psŋ": 3430,
  "cca": 3427,
  "l␣u": 3421,
  "vou": 3414,
  "udg": 3413,
  "tsŋ": 3405,
  "iŋh": 3399,
  "tax": 3391,
  "wif": 3386,
  "lds": 3385,
  "idd": 3378,
  "bul": 3376,
  "␣sq": 3374,
  "tsi": 3363,
  "t␣k": 3361,
  "e␣i": 3361,
  "aly": 3358,
  "pts": 3358,
  "ews": 3356,
  "iŋj": 3354,
  "a␣y": 3336,
  "sif": 3336,
  "smi": 3333,
  "cŋa": 3330,
  "gŋl": 3325,
  "c␣r": 3324,
  "n␣c": 3324,
  "d␣j": 3321,
  "wŋi": 3319,
  "pay": 3312,
  "c␣d": 3308,
  "rbo": 3301,
  "oks": 3300,
  "rsu": 3298,
  "lp␣": 3295,
  "ppi": 3291,
  "ap␣": 3281,
  "ypi": 3266,
  "utt": 3263,
  "k␣c": 3251,
  "pid": 3246,
  "gri": 3241,
  "ryi": 3236,
  "uel": 3235,
  "tus": 3235,
  "p␣f": 3230,
  "␣ir": 3223,
  "r␣y": 3219,
  "dal": 3212,
  "fut": 3204,
  "sy␣": 3201,
  "f␣u": 3197,
  "rox": 3196,
  "ŋhŋ": 3192,
  "xŋc": 3179,
  "k␣ɱ": 3177,
  "sk␣": 3175,
  "iar": 3171,
  "ŋwa": 3168,
  "via": 3167,
  "p␣s": 3166,
  "w␣b": 3158,
  "axi": 3151,
  "p␣b": 3150,
  "rno": 3149,
  "aŋu": 3149,
  "rgi": 3149,
  "rŋr": 3147,
  "eds": 3139,
  "tto": 3128,
  "ŋau": 3127,
  "luŋ": 3123,
  "awn": 3115,
  "gla": 3115,
  "dru": 3110,
  "a␣i": 3109,
  "ŋx␣": 3105,
  "bs␣": 3104,
  "uɱs": 3103,
  "lrŋ": 3096,
  "tuɱ": 3091,
  "fif": 3090,
  "oŋɱ": 3086,
  "pio": 3086,
  "ŋxɱ": 3085,
  "ɱti": 3079,
  "aul": 3077,
  "diu": 3067,
  "ŋki": 3063,
  "lyi": 3044,
  "␣ic": 3041,
  "ucl": 3035,
  "tɱy": 3024,
  "iaɱ": 3023,
  "uci": 3020,
  "goi": 3012,
  "cqu": 3010,
  "adr": 3010,
  "oy␣": 3009,
  "rik": 3008,
  "dig": 3005,
  "ŋŋe": 3004,
  "ɱpu": 3004,
  "acq": 3003,
  "ois": 2999,
  "ub␣": 2998,
  "uŋl": 2995,
  "cav": 2993,
  "usp": 2984,
  "sia": 2961,
  "gns": 2959,
  "wly": 2957,
  "rpŋ": 2957,
  "w␣d": 2956,
  "gmŋ": 2954,
  "vŋa": 2954,
  "ŋjŋ": 2954,
  "agg": 2952,
  "mix": 2946,
  "yɱp": 2944,
  "nuc": 2943,
  "ubɱ": 2935,
  "blu": 2928,
  "ŋia": 2927,
  "y␣k": 2927,
  "ŋiu": 2925,
  "tɱd": 2916,
  "knŋ": 2915,
  "iɱb": 2915,
  "syn": 2913,
  "ɱoi": 2908,
  "oda": 2908,
  "dor": 2906,
  "igr": 2899,
  "aba": 2899,
  "my␣": 2895,
  "plu": 2895,
  "d␣k": 2890,
  "ciɱ": 2885,
  "ŋyo": 2884,
  "sfŋ": 2881,
  "dol": 2879,
  "rŋy": 2873,
  "lad": 2867,
  "ie␣": 2851,
  "rŋj": 2851,
  "lsŋ": 2848,
  "xŋd": 2841,
  "ŋxu": 2830,
  "ŋfr": 2818,
  "orw": 2818,
  "dap": 2817,
  "ŋnu": 2811,
  "uag": 2809,
  "lpŋ": 2801,
  "acu": 2793,
  "rgy": 2791,
  "toc": 2791,
  "ɱib": 2788,
  "gas": 2784,
  "ŋol": 2782,
  "ɱ␣v": 2781,
  "uid": 2775,
  "aca": 2774,
  "ɱtl": 2773,
  "oos": 2771,
  "dop": 2769,
  "ŋwŋ": 2768,
  "e␣c": 2767,
  "ŋbŋ": 2764,
  "ek␣": 2759,
  "c␣m": 2746,
  "tba": 2743,
  "␣ŋy": 2743,
  "swi": 2741,
  "ixŋ": 2735,
  "dau": 2727,
  "lys": 2722,
  "s␣j": 2721,
  "jud": 2716,
  "pus": 2706,
  "dvŋ": 2702,
  "xpo": 2701,
  "wav": 2700,
  "ivo": 2696,
  "aws": 2691,
  "lur": 2690,
  "ŋur": 2684,
  "twi": 2684,
  "bis": 2677,
  "lŋb": 2676,
  "py␣": 2672,
  "nŋi": 2672,
  "c␣b": 2671,
  "ppa": 2664,
  "ŋos": 2663,
  "owd": 2656,
  "rfu": 2655,
  "utr": 2655,
  "ddl": 2645,
  "xua": 2640,
  "nis": 2639,
  "e␣f": 2637,
  "alc": 2636,
  "w␣r": 2632,
  "c␣ŋ": 2632,
  "ɱŋe": 2627,
  "ŋrh": 2624,
  "urd": 2621,
  "␣sn": 2618,
  "uɱi": 2616,
  "mac": 2615,
  "suŋ": 2614,
  "swŋ": 2614,
  "␣ja": 2609,
  "ixt": 2605,
  "vac": 2603,
  "irl": 2599,
  "lɱs": 2599,
  "lk␣": 2597,
  "zŋŋ": 2592,
  "upl": 2591,
  "c␣w": 2582,
  "asp": 2576,
  "e␣m": 2572,
  "irr": 2572,
  "dvi": 2563,
  "nua": 2563,
  "g␣v": 2553,
  "ŋec": 2543,
  "ɱdr": 2537,
  "pou": 2529,
  "ŋrb": 2529,
  "iab": 2529,
  "slŋ": 2520,
  "glo": 2518,
  "o␣y": 2511,
  "hol": 2510,
  "fru": 2510,
  "y␣y": 2503,
  "iog": 2500,
  "p␣ɱ": 2497,
  "rŋh": 2496,
  "git": 2485,
  "nŋu": 2483,
  "ŋsa": 2479,
  "ecɱ": 2478,
  "uip": 2465,
  "diɱ": 2464,
  "tli": 2458,
  "uɱo": 2452,
  "lip": 2447,
  "p␣c": 2447,
  "taf": 2439,
  "isk": 2433,
  "lɱŋ": 2429,
  "yŋt": 2422,
  "dŋg": 2422,
  "tay": 2422,
  "fy␣": 2415,
  "ilv": 2413,
  "sac": 2410,
  "ɱoc": 2408,
  "cab": 2408,
  "pag": 2405,
  "twa": 2404,
  "nŋy": 2403,
  "alw": 2394,
  "upi": 2384,
  "ydr": 2384,
  "os␣": 2380,
  "sav": 2376,
  "ggl": 2376,
  "icy": 2376,
  "mŋl": 2371,
  "yri": 2371,
  "sap": 2370,
  "saf": 2367,
  "afŋ": 2365,
  "usc": 2364,
  "ɱp␣": 2346,
  "ɱwŋ": 2345,
  "cɱr": 2342,
  "cio": 2338,
  "s␣y": 2332,
  "moo": 2327,
  "gno": 2324,
  "smo": 2320,
  "asc": 2320,
  "kŋp": 2314,
  "n␣ɱ": 2311,
  "g␣y": 2311,
  "gɱw": 2307,
  "ŋjo": 2307,
  "ŋɱu": 2300,
  "uɱn": 2298,
  "w␣l": 2292,
  "ckn": 2290,
  "wsp": 2285,
  "oɱy": 2282,
  "sɱr": 2278,
  "sie": 2274,
  "smŋ": 2272,
  "gor": 2271,
  "spu": 2265,
  "wns": 2262,
  "n␣ŋ": 2255,
  "xɱi": 2254,
  "lob": 2252,
  "oct": 2245,
  "ŋtc": 2243,
  "ipŋ": 2238,
  "oco": 2237,
  "niz": 2237,
  "ffs": 2229,
  "mol": 2226,
  "sɱɱ": 2223,
  "hav": 2217,
  "ibr": 2203,
  "e␣d": 2193,
  "uou": 2193,
  "ias": 2190,
  "ŋwɱ": 2190,
  "ŋho": 2187,
  "oki": 2183,
  "ubt": 2179,
  "oso": 2174,
  "mur": 2173,
  "a␣j": 2171,
  "lod": 2170,
  "dut": 2163,
  "zoŋ": 2160,
  "rfŋ": 2152,
  "puŋ": 2152,
  "ta␣": 2152,
  "sba": 2149,
  "d␣y": 2148,
  "dli": 2147,
  "ŋɱy": 2145,
  "obt": 2142,
  "ŋgg": 2140,
  "uŋp": 2136,
  "yɱb": 2136,
  "bŋy": 2136,
  "giɱ": 2134,
  "d␣q": 2133,
  "naŋ": 2132,
  "rto": 2127,
  "oŋu": 2126,
  "e␣p": 2123,
  "␣ly": 2122,
  "boy": 2121,
  "sir": 2117,
  "bta": 2115,
  "oet": 2114,
  "ɱyp": 2109,
  "fos": 2108,
  "dwa": 2105,
  "sas": 2102,
  "oof": 2100,
  "tŋp": 2099,
  "nos": 2096,
  "o␣j": 2093,
  "mŋc": 2093,
  "rby": 2092,
  "ɱif": 2092,
  "ŋif": 2086,
  "ipm": 2086,
  "ɱyd": 2085,
  "ugŋ": 2081,
  "sop": 2081,
  "taɱ": 2075,
  "pto": 2074,
  "lɱi": 2069,
  "xŋs": 2069,
  "big": 2068,
  "gia": 2065,
  "ico": 2059,
  "ŋil": 2054,
  "rue": 2054,
  "s␣q": 2050,
  "rha": 2041,
  "rtn": 2038,
  "joy": 2038,
  "ŋna": 2038,
  "uŋf": 2034,
  "dca": 2030,
  "bad": 2027,
  "otb": 2026,
  "k␣m": 2023,
  "yna": 2020,
  "tod": 2017,
  "luc": 2015,
  "eɱs": 2012,
  "ofi": 1997,
  "yli": 1995,
  "xti": 1995,
  "ɱb␣": 1988,
  "oud": 1984,
  "␣ul": 1983,
  "ets": 1978,
  "tiz": 1968,
  "eri": 1968,
  "juŋ": 1966,
  "ilu": 1965,
  "gir": 1964,
  "x␣o": 1962,
  "w␣ŋ": 1960,
  "adl": 1956,
  "wai": 1956,
  "tap": 1952,
  "job": 1951,
  "opr": 1951,
  "ogu": 1950,
  "doo": 1944,
  "rtm": 1938,
  "adc": 1937,
  "ŋog": 1935,
  "izi": 1934,
  "ŋtm": 1934,
  "lŋl": 1933,
  "erŋ": 1933,
  "rŋo": 1920,
  "cci": 1915,
  "lnŋ": 1914,
  "ŋsl": 1914,
  "isu": 1914,
  "ɱŋw": 1903,
  "yŋl": 1902,
  "e␣ɱ": 1895,
  "hap": 1893,
  "ɱps": 1893,
  "mŋs": 1885,
  "arv": 1884,
  "pok": 1883,
  "abu": 1882,
  "n␣r": 1881,
  "ŋru": 1880,
  "lyr": 1879,
  "opa": 1878,
  "ouc": 1875,
  "fŋt": 1873,
  "k␣r": 1868,
  "uŋu": 1866,
  "bso": 1865,
  "voy": 1863,
  "ulp": 1861,
  "arp": 1858,
  "pab": 1857,
  "buŋ": 1857,
  "uŋr": 1854,
  "uaŋ": 1852,
  "r␣j": 1848,
  "max": 1847,
  "wrŋ": 1842,
  "ŋaf": 1837,
  "ftɱ": 1837,
  "c␣l": 1827,
  "␣ps": 1826,
  "tmo": 1824,
  "asy": 1822,
  "fs␣": 1821,
  "vŋh": 1819,
  "a␣k": 1818,
  "idl": 1817,
  "vŋy": 1816,
  "yar": 1814,
  "uli": 1809,
  "la␣": 1808,
  "ŋkn": 1808,
  "uty": 1807,
  "lca": 1806,
  "ɱlŋ": 1805,
  "lta": 1803,
  "ddr": 1800,
  "xcl": 1799,
  "␣dy": 1797,
  "r␣k": 1797,
  "n␣m": 1796,
  "owt": 1794,
  "wtɱ": 1794,
  "etɱ": 1793,
  "rpɱ": 1793,
  "tɱl": 1792,
  "oly": 1792,
  "dil": 1791,
  "ŋys": 1790,
  "hoo": 1789,
  "uvŋ": 1788,
  "box": 1788,
  "moɱ": 1786,
  "ŋŋj": 1786,
  "niq": 1785,
  "k␣d": 1783,
  "hŋr": 1779,
  "swa": 1777,
  "␣ox": 1773,
  "␣ŋg": 1773,
  "adj": 1771,
  "rgo": 1771,
  "rpa": 1770,
  "dsɱ": 1767,
  "abŋ": 1763,
  "ɱbs": 1762,
  "ayo": 1757,
  "ɱno": 1756,
  "gli": 1741,
  "tfo": 1739,
  "loɱ": 1738,
  "psy": 1736,
  "igg": 1736,
  "rcl": 1733,
  "ycɱ": 1725,
  "iɱo": 1725,
  "obŋ": 1723,
  "lco": 1719,
  "ubŋ": 1716,
  "e␣b": 1713,
  "olc": 1711,
  "ŋpɱ": 1708,
  "oeɱ": 1706,
  "arf": 1704,
  "itn": 1700,
  "eli": 1685,
  "odo": 1684,
  "dog": 1680,
  "xŋr": 1680,
  "tub": 1678,
  "hic": 1678,
  "cod": 1675,
  "ciz": 1672,
  "tid": 1672,
  "usb": 1667,
  "gɱb": 1665,
  "c␣ɱ": 1664,
  "ɱa␣": 1657,
  "fue": 1657,
  "pia": 1656,
  "␣zo": 1655,
  "lak": 1654,
  "hab": 1649,
  "dyn": 1644,
  "ilw": 1641,
  "uls": 1640,
  "oys": 1634,
  "rru": 1634,
  "c␣v": 1633,
  "mic": 1631,
  "dry": 1629,
  "dwi": 1627,
  "ocr": 1623,
  "tue": 1622,
  "p␣d": 1618,
  "ɱac": 1616,
  "␣ŋt": 1616,
  "og␣": 1615,
  "␣jŋ": 1613,
  "loi": 1613,
  "ɱae": 1612,
  "riu": 1609,
  "ŋdy": 1607,
  "nol": 1605,
  "ŋwi": 1605,
  "ax␣": 1604,
  "iot": 1604,
  "n␣d": 1604,
  "hib": 1601,
  "ŋŋn": 1595,
  "ŋsm": 1595,
  "p␣p": 1590,
  "efl": 1589,
  "asa": 1589,
  "ag␣": 1588,
  "ŋwl": 1585,
  "tŋb": 1584,
  "␣oi": 1583,
  "ŋbo": 1582,
  "ŋɱn": 1581,
  "mŋ␣": 1581,
  "stw": 1580,
  "opy": 1580,
  "t␣j": 1579,
  "mut": 1572,
  "bbŋ": 1560,
  "roi": 1558,
  "isf": 1557,
  "lŋy": 1556,
  "sno": 1553,
  "sku": 1552,
  "abb": 1550,
  "ggr": 1549,
  "tau": 1545,
  "ud␣": 1542,
  "kul": 1539,
  "atf": 1538,
  "ŋdf": 1537,
  "jac": 1535,
  "pig": 1532,
  "w␣g": 1532,
  "nas": 1531,
  "dip": 1525,
  "utl": 1522,
  "ffa": 1522,
  "ɱut": 1521,
  "tos": 1520,
  "pod": 1519,
  "l␣y": 1517,
  "fts": 1512,
  "ɱri": 1510,
  "m␣a": 1507,
  "fid": 1505,
  "oir": 1504,
  "xcɱ": 1504,
  "syc": 1503,
  "k␣u": 1502,
  "sŋu": 1501,
  "cka": 1493,
  "rbŋ": 1492,
  "a␣u": 1488,
  "xid": 1486,
  "ɱbr": 1481,
  "ŋyɱ": 1481,
  "fyi": 1480,
  "ipi": 1479,
  "k␣l": 1472,
  "␣rh": 1465,
  "ŋiq": 1464,
  "bsi": 1460,
  "bɱi": 1459,
  "vŋt": 1459,
  "xac": 1458,
  "eɱ␣": 1454,
  "ŋui": 1453,
  "ŋdɱ": 1447,
  "epi": 1447,
  "uro": 1447,
  "agm": 1445,
  "ckg": 1435,
  "yŋs": 1432,
  "oty": 1430,
  "atl": 1425,
  "ogs": 1425,
  "ypo": 1424,
  "fix": 1421,
  "sŋi": 1420,
  "epŋ": 1419,
  "kgr": 1418,
  "vig": 1418,
  "rco": 1413,
  "p␣r": 1412,
  "cry": 1408,
  "lax": 1407,
  "l␣k": 1406,
  "lry": 1400,
  "tsm": 1398,
  "c␣g": 1393,
  "map": 1393,
  "cot": 1391,
  "ox␣": 1391,
  "lvi": 1389,
  "dai": 1387,
  "ŋrd": 1386,
  "abr": 1386,
  "rut": 1385,
  "eiŋ": 1382,
  "sŋw": 1382,
  "ky␣": 1380,
  "tɱɱ": 1380,
  "cue": 1379,
  "nob": 1377,
  "vul": 1377,
  "noc": 1377,
  "lŋp": 1377,
  "sms": 1375,
  "rca": 1372,
  "n␣l": 1371,
  "klŋ": 1368,
  "awi": 1364,
  "utc": 1364,
  "zŋs": 1364,
  "bid": 1361,
  "ob␣": 1360,
  "guɱ": 1358,
  "k␣ŋ": 1354,
  "ufa": 1350,
  "god": 1349,
  "ŋuf": 1349,
  "wli": 1348,
  "p␣m": 1346,
  "ŋei": 1346,
  "gsi": 1344,
  "ggs": 1343,
  "sad": 1342,
  "bud": 1335,
  "ɱia": 1334,
  "osu": 1331,
  "f␣y": 1331,
  "ŋdd": 1327,
  "␣ig": 1327,
  "ssm": 1325,
  "tad": 1325,
  "sŋg": 1325,
  "mob": 1322,
  "maɱ": 1322,
  "ubb": 1320,
  "upr": 1318,
  "ɱra": 1317,
  "ŋlu": 1316,
  "sab": 1312,
  "quo": 1311,
  "ewa": 1310,
  "itr": 1305,
  "psi": 1305,
  "sof": 1302,
  "lpt": 1299,
  "ŋew": 1298,
  "udd": 1297,
  "ɱst": 1296,
  "ɱŋp": 1294,
  "niv": 1294,
  "doi": 1291,
  "ypɱ": 1291,
  "ccl": 1289,
  "ags": 1288,
  "tib": 1287,
  "dvo": 1287,
  "ulf": 1287,
  "ios": 1285,
  "c␣n": 1285,
  "ɱio": 1283,
  "xtu": 1282,
  "bia": 1278,
  "alv": 1274,
  "soi": 1273,
  "xil": 1271,
  "x␣m": 1269,
  "ifo": 1266,
  "icr": 1262,
  "stɱ": 1258,
  "ig␣": 1256,
  "ɱak": 1256,
  "ŋlɱ": 1250,
  "oxy": 1248,
  "rpl": 1247,
  "gus": 1246,
  "eva": 1245,
  "gdo": 1240,
  "ŋgd": 1238,
  "a␣q": 1236,
  "ɱ␣y": 1235,
  "mit": 1235,
  "sŋb": 1234,
  "rub": 1233,
  "rgr": 1232,
  "y␣j": 1231,
  "tŋi": 1230,
  "cɱɱ": 1227,
  "agl": 1227,
  "ae␣": 1226,
  "coh": 1222,
  "ryo": 1220,
  "dɱŋ": 1219,
  "sfo": 1216,
  "o␣q": 1215,
  "oga": 1212,
  "ɱli": 1211,
  "ɱau": 1210,
  "ahŋ": 1209,
  "dfa": 1209,
  "ŋŋx": 1208,
  "␣ae": 1208,
  "ido": 1208,
  "myt": 1204,
  "bru": 1203,
  "pɱs": 1189,
  "ɱnŋ": 1187,
  "ŋwo": 1186,
  "oyɱ": 1186,
  "ocɱ": 1186,
  "scl": 1186,
  "ɱn␣": 1185,
  "e␣r": 1185,
  "cua": 1183,
  "t␣q": 1183,
  "ieg": 1182,
  "ldw": 1181,
  "x␣a": 1180,
  "e␣y": 1177,
  "aty": 1176,
  "isr": 1175,
  "vŋg": 1173,
  "idn": 1171,
  "lo␣": 1171,
  "mys": 1171,
  "rfi": 1166,
  "bsp": 1164,
  "aeo": 1162,
  "ɱŋc": 1161,
  "uer": 1159,
  "␣dw": 1155,
  "iki": 1154,
  "ŋŋz": 1150,
  "rau": 1150,
  "lua": 1149,
  "dqu": 1147,
  "pɱr": 1142,
  "vag": 1140,
  "ɱyl": 1136,
  "w␣u": 1134,
  "cŋt": 1132,
  "iŋy": 1131,
  "adq": 1129,
  "tob": 1124,
  "sks": 1120,
  "uor": 1117,
  "ynt": 1116,
  "lcu": 1114,
  "cɱy": 1114,
  "rhŋ": 1113,
  "olt": 1113,
  "bɱa": 1111,
  "␣ut": 1110,
  "ŋuo": 1108,
  "obb": 1108,
  "haŋ": 1108,
  "ŋyt": 1107,
  "pɱ␣": 1103,
  "swo": 1101,
  "wag": 1101,
  "dnŋ": 1101,
  "vŋc": 1099,
  "r␣q": 1097,
  "aks": 1093,
  "rsy": 1091,
  "rsp": 1089,
  "asm": 1087,
  "ɱtɱ": 1081,
  "axŋ": 1078,
  "gie": 1073,
  "ŋgm": 1073,
  "rwi": 1066,
  "w␣n": 1066,
  "b␣a": 1063,
  "gŋa": 1060,
  "ptɱ": 1060,
  "uln": 1058,
  "nut": 1058,
  "yŋ␣": 1057,
  "ɱna": 1053,
  "sky": 1053,
  "rɱu": 1047,
  "egŋ": 1047,
  "zŋr": 1044,
  "ntɱ": 1043,
  "evi": 1041,
  "l␣j": 1040,
  "dst": 1039,
  "␣ah": 1038,
  "ŋzy": 1037,
  "dyi": 1035,
  "x␣w": 1034,
  "pyr": 1034,
  "x␣s": 1034,
  "ozŋ": 1031,
  "iru": 1030,
  "wŋb": 1027,
  "ŋgy": 1026,
  "olk": 1024,
  "x␣t": 1023,
  "xtɱ": 1022,
  "hou": 1022,
  "ŋgn": 1022,
  "ŋoc": 1022,
  "␣vu": 1020,
  "sɱu": 1019,
  "poc": 1018,
  "sna": 1018,
  "aer": 1017,
  "fug": 1016,
  "tox": 1016,
  "rys": 1015,
  "ŋdt": 1014,
  "ieu": 1013,
  "rdl": 1010,
  "ug␣": 1010,
  "bsc": 1010,
  "rla": 1010,
  "rud": 1006,
  "zyɱ": 1006,
  "liq": 1005,
  "vad": 1004,
  "acl": 1003,
  "oit": 1000,
  "ggi": 1000,
  "lro": 1000,
  "aqu": 999,
  "obv": 999,
  "gil": 993,
  "wiɱ": 993,
  "fti": 992,
  "auc": 992,
  "fau": 989,
  "uiv": 988,
  "ŋuŋ": 988,
  "ppy": 988,
  "utb": 987,
  "luo": 987,
  "gad": 985,
  "ulo": 984,
  "nai": 984,
  "buy": 983,
  "ifu": 983,
  "ygŋ": 982,
  "ŋsw": 981,
  "uŋw": 979,
  "ɱiz": 978,
  "xyg": 978,
  "els": 978,
  "liu": 976,
  "wd␣": 975,
  "edo": 975,
  "wŋt": 975,
  "ryt": 971,
  "rŋu": 968,
  "ɱru": 967,
  "iry": 965,
  "zzl": 964,
  "osc": 963,
  "uga": 961,
  "rps": 960,
  "wɱy": 959,
  "dtr": 959,
  "bbi": 959,
  "aya": 957,
  "izo": 956,
  "ald": 956,
  "rho": 955,
  "yɱo": 950,
  "ilr": 948,
  "ocl": 947,
  "vŋi": 946,
  "uot": 946,
  "pup": 945,
  "rhy": 944,
  "e␣l": 944,
  "ugu": 943,
  "rlo": 943,
  "ŋŋw": 942,
  "dho": 942,
  "lfi": 942,
  "ŋua": 940,
  "vok": 940,
  "sŋh": 940,
  "uŋo": 939,
  "uee": 936,
  "ysŋ": 935,
  "xiŋ": 935,
  "oru": 935,
  "cɱl": 933,
  "rur": 929,
  "ubu": 922,
  "azŋ": 921,
  "ro␣": 921,
  "uɱu": 919,
  "eol": 918,
  "e␣ŋ": 918,
  "etr": 917,
  "e␣g": 917,
  "upa": 917,
  "coc": 915,
  "sŋf": 915,
  "oyi": 915,
  "ms␣": 915,
  "ɱfo": 913,
  "boi": 913,
  "dsc": 911,
  "f␣j": 910,
  "efs": 909,
  "mok": 909,
  "xit": 909,
  "noo": 907,
  "dib": 905,
  "lŋw": 904,
  "odd": 902,
  "eut": 902,
  "iŋq": 902,
  "snŋ": 901,
  "zar": 901,
  "lkŋ": 900,
  "ŋps": 898,
  "oɱf": 895,
  "sov": 893,
  "ŋbt": 893,
  "xca": 892,
  "m␣o": 892,
  "tbr": 891,
  "kni": 891,
  "aco": 890,
  "pgr": 881,
  "lpi": 881,
  "b␣w": 879,
  "ŋ␣z": 878,
  "lln": 876,
  "eŋa": 875,
  "oŋq": 875,
  "noi": 874,
  "oho": 874,
  "lŋu": 872,
  "sud": 871,
  "ioc": 871,
  "iŋɱ": 871,
  "ayɱ": 871,
  "gap": 870,
  "oŋk": 869,
  "jaw": 869,
  "lki": 867,
  "ŋid": 867,
  "␣oa": 866,
  "bic": 865,
  "ulɱ": 864,
  "cly": 862,
  "m␣i": 861,
  "yof": 860,
  "gif": 859,
  "ŋyi": 859,
  "roh": 858,
  "juv": 857,
  "stm": 857,
  "toi": 856,
  "b␣t": 855,
  "y␣q": 852,
  "lŋo": 851,
  "f␣k": 850,
  "kit": 846,
  "uie": 844,
  "ɱog": 844,
  "ryl": 842,
  "uzz": 839,
  "p␣l": 837,
  "b␣o": 837,
  "rlŋ": 835,
  "ŋŋh": 835,
  "irp": 835,
  "juɱ": 834,
  "zlŋ": 833,
  "muŋ": 833,
  "cui": 831,
  "ohi": 830,
  "tŋu": 830,
  "rls": 829,
  "nak": 827,
  "wdŋ": 826,
  "kid": 825,
  "ŋzŋ": 824,
  "igo": 823,
  "wl␣": 821,
  "itm": 821,
  "␣ya": 819,
  "hal": 818,
  "ugs": 817,
  "p␣ŋ": 814,
  "ɱob": 814,
  "pik": 813,
  "ŋud": 809,
  "kab": 809,
  "gsɱ": 806,
  "ulk": 805,
  "ŋcc": 805,
  "kwa": 805,
  "dgi": 803,
  "ɱoe": 802,
  "eki": 802,
  "xoŋ": 801,
  "tyr": 801,
  "ɱug": 801,
  "odl": 800,
  "kag": 799,
  "axo": 798,
  "goe": 796,
  "uab": 795,
  "x␣c": 794,
  "tul": 794,
  "alg": 791,
  "obo": 791,
  "apl": 791,
  "utp": 791,
  "x␣i": 790,
  "isd": 790,
  "ŋoe": 790,
  "uds": 788,
  "mir": 788,
  "tco": 787,
  "upg": 786,
  "wnt": 785,
  "kic": 783,
  "ɱlo": 781,
  "ɱaz": 781,
  "tla": 780,
  "sot": 780,
  "wir": 780,
  "tst": 778,
  "yra": 778,
  "pip": 778,
  "lyp": 776,
  "tfu": 776,
  "yag": 774,
  "rpi": 773,
  "oaŋ": 773,
  "k␣g": 773,
  "xic": 773,
  "doz": 772,
  "ɱbu": 772,
  "hyt": 771,
  "ŋuv": 771,
  "duɱ": 771,
  "rf␣": 771,
  "ŋbs": 771,
  "adn": 771,
  "ldh": 769,
  "va␣": 768,
  "ny␣": 765,
  "bos": 765,
  "n␣n": 763,
  "ltr": 763,
  "ius": 761,
  "cky": 761,
  "n␣u": 760,
  "ylo": 759,
  "tɱn": 758,
  "yŋe": 757,
  "rda": 757,
  "n␣g": 756,
  "eeŋ": 756,
  "ubi": 746,
  "yno": 746,
  "g␣j": 746,
  "bag": 745,
  "uŋb": 744,
  "rl␣": 743,
  "gst": 740,
  "␣oɱ": 738,
  "w␣y": 737,
  "cay": 737,
  "␣py": 736,
  "gnɱ": 736,
  "ɱ␣k": 735,
  "cub": 734,
  "dŋq": 733,
  "ilk": 731,
  "rɱl": 731,
  "xci": 730,
  "sru": 729,
  "ŋtb": 728,
  "rwŋ": 727,
  "sip": 726,
  "ŋby": 722,
  "rae": 722,
  "otr": 721,
  "cŋf": 720,
  "dja": 717,
  "ssl": 717,
  "rtw": 716,
  "lks": 714,
  "a␣ŋ": 714,
  "lsi": 713,
  "rdo": 713,
  "da␣": 712,
  "dub": 712,
  "bt␣": 712,
  "cof": 711,
  "eŋs": 711,
  "xts": 710,
  "k␣n": 708,
  "lŋi": 708,
  "yie": 708,
  "ldl": 708,
  "pav": 706,
  "␣od": 706,
  "␣os": 706,
  "m␣f": 705,
  "ipɱ": 703,
  "isg": 702,
  "nto": 700,
  "gib": 699,
  "lux": 697,
  "tŋt": 696,
  "lui": 696,
  "oŋw": 695,
  "kna": 695,
  "gru": 695,
  "wol": 694,
  "l␣q": 693,
  "nur": 692,
  "␣ŋu": 691,
  "dos": 691,
  "dab": 690,
  "dd␣": 690,
  "tŋo": 685,
  "gma": 683,
  "xɱa": 683,
  "ŋxo": 682,
  "epl": 682,
  "ŋp␣": 682,
  "bie": 681,
  "apy": 681,
  "ŋaw": 680,
  "rvo": 678,
  "awy": 676,
  "ovo": 676,
  "ɱ␣j": 676,
  "wyŋ": 676,
  "puɱ": 675,
  "olf": 675,
  "xie": 675,
  "tty": 674,
  "dɱa": 673,
  "raz": 671,
  "oŋz": 671,
  "ŋup": 671,
  "g␣k": 670,
  "ybo": 670,
  "rwɱ": 670,
  "p␣u": 668,
  "w␣v": 668,
  "wak": 666,
  "ero": 665,
  "hŋŋ": 665,
  "alp": 663,
  "dla": 663,
  "rbl": 661,
  "nap": 659,
  "irf": 659,
  "uŋh": 656,
  "ogg": 655,
  "dju": 654,
  "ŋof": 653,
  "cɱd": 652,
  "␣ax": 651,
  "ɱfu": 651,
  "uy␣": 651,
  "obu": 650,
  "yco": 646,
  "tiq": 645,
  "aka": 644,
  "aes": 644,
  "utf": 642,
  "ɱns": 642,
  "fty": 641,
  "ckw": 640,
  "ŋlc": 639,
  "w␣k": 639,
  "osy": 638,
  "ɱla": 637,
  "rka": 636,
  "elŋ": 636,
  "b␣i": 635,
  "mud": 634,
  "nad": 633,
  "gŋe": 631,
  "e␣n": 630,
  "odg": 630,
  "␣io": 625,
  "toe": 624,
  "rb␣": 624,
  "sfi": 624,
  "gos": 621,
  "oxŋ": 621,
  "ipu": 621,
  "ŋov": 621,
  "bvi": 621,
  "ŋkl": 620,
  "␣yi": 620,
  "uba": 620,
  "pty": 618,
  "bay": 618,
  "ync": 615,
  "uak": 614,
  "uet": 610,
  "aza": 610,
  "p␣g": 609,
  "ulg": 608,
  "erc": 608,
  "rhi": 608,
  "abd": 607,
  "oed": 605,
  "ŋip": 603,
  "coe": 602,
  "ɱ␣q": 602,
  "lst": 599,
  "ŋpp": 599,
  "oŋj": 598,
  "yor": 598,
  "rrh": 597,
  "wni": 595,
  "jŋt": 594,
  "ulu": 593,
  "rp␣": 591,
  "ogo": 591,
  "oak": 589,
  "igs": 588,
  "x␣p": 588,
  "ewi": 588,
  "yɱɱ": 587,
  "adw": 587,
  "xta": 585,
  "tpo": 584,
  "upd": 584,
  "g␣q": 581,
  "dba": 581,
  "pda": 580,
  "igm": 579,
  "llɱ": 579,
  "cac": 575,
  "eɱi": 575,
  "dac": 574,
  "cɱb": 574,
  "bbl": 574,
  "ubo": 573,
  "ɱoa": 573,
  "ŋwr": 571,
  "dtɱ": 570,
  "ɱqu": 568,
  "ifl": 566,
  "paw": 566,
  "tɱq": 566,
  "laz": 564,
  "ypa": 563,
  "ocy": 563,
  "lfu": 562,
  "kis": 561,
  "nia": 561,
  "gay": 560,
  "sfa": 559,
  "ŋny": 559,
  "slu": 559,
  "yti": 557,
  "ypt": 556,
  "rak": 556,
  "kir": 553,
  "dŋi": 553,
  "duŋ": 549,
  "cyt": 549,
  "ma␣": 548,
  "tŋw": 547,
  "m␣t": 545,
  "rdɱ": 545,
  "ekŋ": 545,
  "lgŋ": 542,
  "lva": 541,
  "pad": 540,
  "kat": 539,
  "upɱ": 538,
  "m␣w": 538,
  "lga": 537,
  "k␣v": 537,
  "nŋ␣": 535,
  "ytŋ": 535,
  "eŋi": 534,
  "siu": 533,
  "rao": 533,
  "tpu": 532,
  "dhŋ": 531,
  "ŋrk": 531,
  "axy": 531,
  "ɱdo": 530,
  "isb": 530,
  "ɱɱ␣": 530,
  "pov": 526,
  "u␣w": 525,
  "fib": 525,
  "upy": 524,
  "uly": 524,
  "roe": 520,
  "dno": 519,
  "rbs": 519,
  "biv": 519,
  "tfi": 517,
  "ffl": 517,
  "ŋdw": 517,
  "axa": 515,
  "bvŋ": 515,
  "kli": 514,
  "gɱs": 514,
  "wnl": 512,
  "x␣d": 511,
  "␣zŋ": 510,
  "ssy": 510,
  "bts": 509,
  "byp": 509,
  "iba": 507,
  "jok": 506,
  "af␣": 505,
  "srŋ": 505,
  "toa": 504,
  "uŋɱ": 504,
  "lug": 502,
  "tdo": 502,
  "nlo": 502,
  "lyz": 501,
  "usk": 501,
  "lpɱ": 501,
  "utd": 500,
  "wls": 499,
  "azz": 499,
  "n␣v": 499,
  "osm": 498,
  "x␣r": 497,
  "duo": 496,
  "ŋdb": 495,
  "idt": 495,
  "ukŋ": 495,
  "puz": 495,
  "moi": 494,
  "f␣q": 493,
  "tuf": 493,
  "ɱaf": 493,
  "tbo": 491,
  "␣gɱ": 489,
  "usn": 488,
  "aŋx": 488,
  "bby": 488,
  "vaɱ": 487,
  "dot": 487,
  "vab": 485,
  "ugb": 484,
  "ŋgw": 484,
  "cŋc": 483,
  "cko": 482,
  "ffr": 481,
  "aby": 481,
  "tɱf": 481,
  "yro": 481,
  "nac": 479,
  "buf": 479,
  "ŋyw": 479,
  "␣ka": 478,
  "ŋyb": 477,
  "uda": 477,
  "etl": 477,
  "xŋɱ": 476,
  "ifa": 476,
  "ybr": 475,
  "u␣c": 473,
  "␣zi": 469,
  "zoo": 469,
  "ubd": 469,
  "cow": 469,
  "fab": 469,
  "lbŋ": 468,
  "c␣u": 467,
  "nag": 466,
  "fia": 466,
  "ɱtf": 464,
  "kal": 464,
  "fŋu": 462,
  "syl": 461,
  "ryp": 461,
  "ŋza": 461,
  "␣aq": 461,
  "era": 460,
  "rfl": 459,
  "ŋbi": 459,
  "ɱiv": 457,
  "ioa": 457,
  "oe␣": 455,
  "sgu": 455,
  "u␣a": 455,
  "b␣f": 453,
  "gou": 453,
  "paɱ": 452,
  "yla": 452,
  "uŋv": 452,
  "awl": 452,
  "lae": 451,
  "ɱtn": 451,
  "sdi": 450,
  "yab": 450,
  "dna": 448,
  "aɱu": 447,
  "p␣n": 447,
  "fak": 446,
  "ɱyb": 446,
  "glu": 446,
  "diz": 445,
  "vow": 445,
  "ekl": 445,
  "ioɱ": 444,
  "x␣f": 443,
  "gwr": 443,
  "cyl": 443,
  "ynd": 442,
  "tma": 441,
  "lto": 441,
  "klo": 441,
  "ely": 441,
  "adh": 440,
  "waɱ": 439,
  "ŋoi": 439,
  "moc": 438,
  "rdw": 438,
  "sc␣": 437,
  "dox": 437,
  "fad": 436,
  "gɱi": 435,
  "lbo": 434,
  "xat": 433,
  "nŋo": 431,
  "gby": 431,
  "e␣u": 431,
  "soa": 430,
  "kad": 429,
  "ncɱ": 429,
  "smu": 429,
  "aic": 429,
  "ywr": 428,
  "iŋp": 428,
  "bbo": 427,
  "co␣": 426,
  "jŋw": 426,
  "iox": 426,
  "ywɱ": 425,
  "gau": 425,
  "orh": 424,
  "kar": 422,
  "kie": 422,
  "cɱs": 420,
  "lul": 419,
  "lfa": 419,
  "stp": 418,
  "gac": 417,
  "wds": 417,
  "ŋuc": 416,
  "yzŋ": 416,
  "daw": 416,
  "ffu": 416,
  "xy␣": 415,
  "tuc": 415,
  "yll": 415,
  "utw": 415,
  "ab␣": 414,
  "lps": 414,
  "ftw": 412,
  "dds": 412,
  "btŋ": 412,
  "awk": 411,
  "xio": 410,
  "tuo": 410,
  "kŋw": 409,
  "lyt": 408,
  "iŋb": 408,
  "ptl": 407,
  "ofo": 407,
  "btr": 407,
  "akn": 407,
  "awŋ": 406,
  "␣uɱ": 405,
  "aor": 405,
  "yto": 404,
  "iac": 404,
  "ɱix": 404,
  "ldo": 404,
  "url": 403,
  "eŋŋ": 402,
  "rc␣": 402,
  "llp": 402,
  "ubf": 401,
  "nud": 401,
  "das": 400,
  "ixi": 398,
  "pst": 397,
  "wŋp": 397,
  "dsi": 397,
  "ogl": 396,
  "wsu": 396,
  "btl": 396,
  "b␣s": 395,
  "wra": 395,
  "yaŋ": 393,
  "kst": 393,
  "bdu": 393,
  "vap": 392,
  "ɱda": 392,
  "ucr": 392,
  "ɱyɱ": 392,
  "usy": 390,
  "tɱc": 389,
  "mɱ␣": 388,
  "pwa": 387,
  "yot": 387,
  "tŋf": 387,
  "urɱ": 386,
  "x␣b": 386,
  "dso": 386,
  "udo": 385,
  "jaz": 384,
  "xpi": 384,
  "ckb": 383,
  "x␣y": 383,
  "upw": 383,
  "ckp": 382,
  "dod": 382,
  "aɱl": 382,
  "etŋ": 381,
  "jŋr": 381,
  "ŋez": 381,
  "ohŋ": 381,
  "nɱo": 380,
  "nŋp": 380,
  "oqu": 380,
  "sɱy": 380,
  "ubc": 380,
  "ŋŋq": 380,
  "␣ŋj": 379,
  "ŋul": 377,
  "ca␣": 377,
  "yɱa": 376,
  "u␣t": 376,
  "x␣ɱ": 376,
  "uai": 376,
  "za␣": 375,
  "dys": 375,
  "ŋdn": 373,
  "xag": 373,
  "yl␣": 372,
  "bdi": 372,
  "tnu": 371,
  "i␣a": 370,
  "edl": 370,
  "kup": 370,
  "gry": 370,
  "fsɱ": 369,
  "ryw": 369,
  "tŋv": 368,
  "bɱŋ": 368,
  "ux␣": 366,
  "bog": 365,
  "afl": 363,
  "rpt": 363,
  "gog": 362,
  "xib": 362,
  "e␣v": 361,
  "ckd": 360,
  "ccr": 359,
  "b␣c": 359,
  "ŋsb": 359,
  "pɱl": 359,
  "kou": 358,
  "gg␣": 357,
  "ŋef": 357,
  "sŋy": 355,
  "hŋl": 355,
  "vau": 354,
  "ɱao": 352,
  "pnŋ": 351,
  "mŋg": 351,
  "vae": 350,
  "vib": 350,
  "wny": 349,
  "pŋp": 349,
  "pau": 349,
  "nod": 349,
  "buc": 347,
  "eta": 346,
  "ycŋ": 346,
  "ibo": 346,
  "foŋ": 345,
  "gga": 344,
  "ŋc␣": 344,
  "llb": 342,
  "lyɱ": 342,
  "ɱiu": 341,
  "aŋz": 340,
  "uas": 339,
  "cɱt": 339,
  "ipo": 339,
  "ruf": 339,
  "dfi": 338,
  "ŋkr": 338,
  "ŋɱɱ": 337,
  "b␣ɱ": 336,
  "ŋi␣": 336,
  "djo": 336,
  "dsl": 336,
  "laq": 335,
  "ɱco": 335,
  "yŋw": 335,
  "err": 335,
  "euv": 334,
  "fŋi": 334,
  "eps": 333,
  "oeu": 333,
  "ksɱ": 332,
  "yɱn": 331,
  "uvr": 331,
  "ŋyl": 331,
  "kru": 331,
  "pog": 331,
  "esŋ": 330,
  "b␣b": 330,
  "taw": 330,
  "bap": 330,
  "sɱl": 330,
  "rwo": 330,
  "stb": 329,
  "yis": 329,
  "po␣": 328,
  "irb": 328,
  "lɱɱ": 328,
  "izz": 327,
  "adg": 327,
  "ɱax": 326,
  "d␣z": 326,
  "fŋv": 325,
  "␣gy": 324,
  "aɱn": 323,
  "ubg": 323,
  "tɱb": 323,
  "jai": 323,
  "lba": 323,
  "m␣b": 322,
  "hyd": 322,
  "sbi": 322,
  "ŋow": 322,
  "fsp": 321,
  "pco": 320,
  "ac␣": 320,
  "aux": 319,
  "ska": 318,
  "xŋŋ": 318,
  "kdo": 318,
  "oel": 318,
  "pyi": 318,
  "ofs": 318,
  "dɱo": 317,
  "rnt": 317,
  "ŋod": 316,
  "dfu": 316,
  "xcu": 315,
  "wmŋ": 315,
  "tup": 315,
  "tav": 314,
  "tsɱ": 314,
  "x␣l": 314,
  "ell": 313,
  "bdo": 313,
  "eŋp": 313,
  "ɱik": 313,
  "rkn": 312,
  "zz␣": 310,
  "oov": 310,
  "u␣ɱ": 309,
  "sfy": 309,
  "ugm": 308,
  "ɱŋf": 307,
  "gid": 306,
  "yrŋ": 306,
  "u␣s": 305,
  "nip": 305,
  "lyn": 305,
  "dup": 304,
  "eŋz": 304,
  "mug": 304,
  "dwo": 304,
  "ga␣": 304,
  "lɱa": 303,
  "cib": 303,
  "lci": 303,
  "wiv": 303,
  "nie": 302,
  "guo": 302,
  "nst": 302,
  "bai": 302,
  "otu": 301,
  "aŋv": 301,
  "hŋs": 301,
  "upc": 300,
  "ezŋ": 300,
  "npi": 299,
  "aŋw": 299,
  "lyc": 299,
  "ywa": 298,
  "rnp": 297,
  "fox": 296,
  "owc": 296,
  "dlo": 295,
  "ɱyc": 294,
  "xot": 293,
  "cuo": 292,
  "dgm": 292,
  "kla": 291,
  "ɱaw": 291,
  "iho": 290,
  "izu": 290,
  "sak": 289,
  "ɱŋb": 289,
  "ŋgɱ": 289,
  "ssw": 288,
  "zoɱ": 288,
  "dag": 288,
  "na␣": 287,
  "zur": 287,
  "ssn": 287,
  "ygo": 287,
  "wnw": 287,
  "hau": 287,
  "ɱɱs": 287,
  "wca": 286,
  "myc": 286,
  "guy": 285,
  "nŋb": 284,
  "otl": 283,
  "ryd": 283,
  "bsu": 282,
  "ŋuk": 282,
  "cku": 282,
  "rqu": 282,
  "kŋo": 281,
  "sɱw": 281,
  "oŋr": 281,
  "fuɱ": 281,
  "b␣r": 279,
  "tui": 279,
  "gyɱ": 279,
  "uuɱ": 278,
  "loq": 278,
  "x␣ŋ": 278,
  "jaɱ": 278,
  "xur": 277,
  "sob": 277,
  "dwŋ": 276,
  "bip": 276,
  "b␣p": 275,
  "auɱ": 275,
  "cae": 272,
  "dug": 270,
  "ayl": 270,
  "niu": 269,
  "nul": 269,
  "ciu": 268,
  "ŋev": 268,
  "ndr": 267,
  "dŋx": 266,
  "uxu": 265,
  "rkl": 265,
  "iŋw": 264,
  "nwa": 264,
  "rbu": 264,
  "uxi": 263,
  "x␣g": 263,
  "pru": 262,
  "tcr": 261,
  "bib": 261,
  "ŋdc": 261,
  "otc": 260,
  "roz": 259,
  "ilg": 259,
  "khŋ": 259,
  "nty": 259,
  "bug": 258,
  "lkl": 258,
  "lka": 258,
  "nsɱ": 257,
  "oaɱ": 257,
  "afr": 257,
  "gi␣": 256,
  "vrŋ": 256,
  "sro": 256,
  "sps": 256,
  "ŋdp": 254,
  "n␣j": 254,
  "dpo": 254,
  "odw": 254,
  "tiu": 254,
  "gab": 254,
  "dni": 253,
  "nt␣": 253,
  "tsp": 253,
  "lpa": 253,
  "tsc": 252,
  "sp␣": 252,
  "cyb": 252,
  "akd": 252,
  "tni": 251,
  "ktɱ": 250,
  "gnt": 250,
  "bno": 250,
  "zab": 250,
  "hŋt": 249,
  "kpi": 248,
  "wla": 247,
  "edb": 247,
  "lkh": 247,
  "giz": 247,
  "owɱ": 247,
  "cag": 246,
  "gut": 246,
  "ssr": 245,
  "gig": 245,
  "cig": 245,
  "apu": 245,
  "his": 244,
  "yda": 244,
  "ylu": 244,
  "dŋw": 244,
  "b␣d": 242,
  "odr": 242,
  "psu": 242,
  "jug": 242,
  "ŋsq": 241,
  "wfu": 241,
  "ryb": 241,
  "bba": 240,
  "sgr": 239,
  "miɱ": 239,
  "lgr": 239,
  "ibb": 238,
  "ɱub": 238,
  "akt": 238,
  "fsŋ": 238,
  "lky": 238,
  "ɱŋx": 237,
  "oɱn": 237,
  "c␣j": 236,
  "lft": 236,
  "awf": 235,
  "abn": 234,
  "ŋdh": 234,
  "fog": 234,
  "oer": 234,
  "ucu": 233,
  "aɱy": 233,
  "␣pn": 233,
  "gti": 232,
  "bfo": 232,
  "lyg": 232,
  "azo": 232,
  "odp": 232,
  "poɱ": 231,
  "b␣m": 230,
  "aŋq": 230,
  "gub": 230,
  "llf": 229,
  "lcɱ": 229,
  "oyc": 229,
  "muz": 228,
  "urk": 228,
  "bco": 228,
  "iad": 228,
  "utn": 227,
  "ryɱ": 227,
  "cm␣": 227,
  "cuu": 227,
  "ŋwm": 226,
  "arh": 226,
  "au␣": 226,
  "rdr": 226,
  "␣xŋ": 226,
  "ayw": 226,
  "iop": 225,
  "u␣o": 225,
  "uco": 225,
  "ldn": 224,
  "w␣j": 224,
  "dov": 224,
  "ŋai": 224,
  "kɱa": 224,
  "isy": 224,
  "yps": 223,
  "lgo": 223,
  "nib": 223,
  "tcy": 222,
  "tfl": 221,
  "rtf": 221,
  "spy": 220,
  "orf": 220,
  "ldf": 220,
  "dŋz": 219,
  "rsc": 219,
  "uyi": 219,
  "tok": 219,
  "ŋzv": 218,
  "zvo": 218,
  "ssp": 218,
  "caf": 217,
  "ayf": 217,
  "ipr": 217,
  "hil": 217,
  "i␣i": 217,
  "yɱ␣": 217,
  "sɱb": 217,
  "xty": 216,
  "stn": 216,
  "ssb": 216,
  "lfr": 216,
  "lih": 216,
  "wbo": 216,
  "ulb": 215,
  "uo␣": 214,
  "kda": 214,
  "rcy": 214,
  "ŋgb": 214,
  "dyl": 213,
  "upb": 212,
  "zop": 212,
  "ifs": 212,
  "tŋh": 211,
  "bry": 211,
  "lfw": 211,
  "ayt": 210,
  "␣ib": 210,
  "fwa": 210,
  "duk": 210,
  "otp": 209,
  "oŋp": 209,
  "tyc": 209,
  "afi": 208,
  "jŋa": 208,
  "nih": 207,
  "sŋo": 207,
  "owm": 206,
  "tca": 206,
  "scs": 206,
  "iai": 205,
  "hiz": 204,
  "p␣v": 204,
  "ckf": 204,
  "jag": 204,
  "pox": 203,
  "rfs": 203,
  "sa␣": 203,
  "wig": 202,
  "pŋw": 202,
  "ugi": 200,
  "u␣d": 200,
  "awo": 200,
  "ksi": 199,
  "ptc": 199,
  "oap": 198,
  "dda": 198,
  "aea": 198,
  "wax": 198,
  "ybi": 197,
  "rdu": 197,
  "bub": 196,
  "pma": 195,
  "ipw": 195,
  "ŋsy": 195,
  "rdn": 195,
  "ibs": 195,
  "gŋb": 195,
  "osq": 195,
  "aos": 194,
  "ɱya": 194,
  "ɱty": 194,
  "tlo": 194,
  "i␣o": 193,
  "owb": 193,
  "ybŋ": 193,
  "foa": 192,
  "␣ko": 192,
  "rlf": 191,
  "biɱ": 191,
  "ka␣": 191,
  "ŋsk": 190,
  "isq": 190,
  "kyl": 189,
  "ɱyt": 189,
  "hor": 189,
  "zza": 188,
  "fŋb": 188,
  "rgl": 188,
  "bik": 188,
  "wip": 188,
  "adf": 188,
  "ŋtf": 187,
  "li␣": 187,
  "tɱp": 187,
  "esi": 187,
  "iiŋ": 187,
  "nau": 186,
  "irg": 186,
  "rdy": 186,
  "tt␣": 186,
  "ɱwo": 185,
  "cai": 185,
  "ija": 185,
  "noy": 185,
  "ŋlk": 185,
  "ŋvu": 184,
  "i␣w": 184,
  "ɱij": 184,
  "ubp": 184,
  "wpo": 184,
  "ctm": 184,
  "ŋsv": 183,
  "ett": 183,
  "sɱf": 183,
  "ndi": 183,
  "tya": 181,
  "ajŋ": 181,
  "iid": 181,
  "tɱh": 181,
  "cɱc": 181,
  "rcs": 181,
  "ezi": 180,
  "ŋky": 180,
  "t␣z": 179,
  "tpl": 179,
  "awm": 179,
  "yol": 179,
  "dco": 179,
  "gŋh": 179,
  "ŋgf": 178,
  "lof": 178,
  "afo": 178,
  "u␣m": 178,
  "ofa": 178,
  "lsa": 178,
  "ɱcr": 177,
  "koa": 177,
  "byi": 177,
  "toy": 177,
  "wkw": 177,
  "dŋu": 177,
  "pso": 176,
  "uka": 176,
  "idw": 176,
  "ewp": 176,
  "iob": 175,
  "kŋu": 175,
  "ɱho": 175,
  "oeŋ": 175,
  "kɱ␣": 174,
  "nog": 174,
  "svŋ": 174,
  "bŋq": 174,
  "tyi": 174,
  "lgi": 173,
  "foi": 173,
  "kho": 173,
  "cys": 173,
  "lpo": 172,
  "cŋo": 172,
  "s␣z": 172,
  "oka": 172,
  "kii": 172,
  "jar": 171,
  "gbo": 171,
  "vŋe": 170,
  "kfo": 170,
  "xa␣": 170,
  "gŋf": 170,
  "dgl": 170,
  "tsk": 170,
  "ŋwt": 170,
  "bgŋ": 170,
  "tfa": 169,
  "foe": 169,
  "kip": 169,
  "mog": 169,
  "ayb": 169,
  "llw": 169,
  "u␣f": 168,
  "utm": 168,
  "har": 168,
  "u␣g": 168,
  "ŋbb": 168,
  "ɱfi": 168,
  "aiv": 168,
  "xpu": 168,
  "rtc": 168,
  "biq": 168,
  "utg": 168,
  "zy␣": 167,
  "xia": 167,
  "lvo": 167,
  "acs": 167,
  "owf": 166,
  "coy": 166,
  "cni": 166,
  "yca": 166,
  "oɱr": 166,
  "uea": 166,
  "m␣ɱ": 166,
  "lho": 165,
  "kdr": 165,
  "aŋl": 164,
  "yzo": 164,
  "icn": 164,
  "wie": 164,
  "ihŋ": 163,
  "pŋf": 163,
  "wad": 162,
  "adp": 162,
  "ugl": 162,
  "eŋw": 162,
  "cob": 162,
  "ftl": 162,
  "aot": 161,
  "kap": 161,
  "ŋob": 161,
  "c␣q": 160,
  "ulc": 160,
  "zŋa": 160,
  "gae": 160,
  "tyɱ": 160,
  "lol": 160,
  "ipy": 160,
  "ŋhy": 160,
  "agp": 159,
  "caw": 159,
  "i␣t": 159,
  "aeɱ": 159,
  "ttɱ": 159,
  "sni": 158,
  "idy": 158,
  "bfa": 158,
  "yɱs": 158,
  "ŋsg": 158,
  "ɱhŋ": 158,
  "rih": 158,
  "pya": 158,
  "azy": 157,
  "ŋzo": 157,
  "lir": 157,
  "nio": 157,
  "u␣i": 157,
  "kfa": 157,
  "r␣z": 156,
  "eto": 156,
  "awb": 156,
  "x␣n": 156,
  "ozo": 156,
  "ŋae": 156,
  "xco": 155,
  "w␣q": 155,
  "pud": 155,
  "m␣s": 154,
  "e␣k": 154,
  "u␣l": 154,
  "iɱn": 154,
  "cak": 154,
  "voɱ": 154,
  "rdc": 154,
  "l␣z": 154,
  "dbo": 154,
  "apr": 154,
  "fow": 154,
  "ipb": 153,
  "moa": 153,
  "c␣k": 153,
  "uys": 153,
  "m␣c": 153,
  "piv": 152,
  "wab": 152,
  "lyb": 152,
  "a␣z": 152,
  "f␣z": 152,
  "ouv": 152,
  "wov": 151,
  "bak": 151,
  "ddy": 150,
  "sdo": 150,
  "goc": 149,
  "dcɱ": 149,
  "ɱyr": 149,
  "lpl": 149,
  "rɱf": 149,
  "esn": 148,
  "uos": 148,
  "tcl": 148,
  "ŋcs": 148,
  "oev": 148,
  "puc": 148,
  "k␣j": 148,
  "olɱ": 148,
  "vŋx": 148,
  "iur": 148,
  "irw": 147,
  "␣pt": 147,
  "cic": 147,
  "dpl": 147,
  "kya": 147,
  "gyn": 147,
  "gyr": 147,
  "ti␣": 147,
  "cdo": 146,
  "pwr": 146,
  "ŋcd": 146,
  "yɱi": 145,
  "␣ub": 145,
  "ess": 144,
  "ri␣": 144,
  "kak": 144,
  "xŋ␣": 144,
  "rii": 144,
  "itz": 144,
  "u␣p": 143,
  "raj": 143,
  "hŋɱ": 143,
  "uyŋ": 143,
  "tug": 143,
  "ery": 142,
  "oɱu": 142,
  "puf": 142,
  "nab": 142,
  "buo": 141,
  "biu": 141,
  "sda": 141,
  "gfu": 141,
  "uoy": 140,
  "xtb": 140,
  "tov": 140,
  "oyf": 140,
  "pbr": 140,
  "ubv": 140,
  "ihi": 140,
  "ŋox": 139,
  "ueb": 139,
  "stc": 139,
  "dsm": 139,
  "zol": 139,
  "pŋx": 139,
  "cŋh": 139,
  "ɱɱy": 138,
  "gŋw": 138,
  "uvi": 138,
  "afa": 138,
  "aik": 138,
  "xcr": 138,
  "asl": 138,
  "ŋya": 138,
  "pm␣": 137,
  "kbo": 137,
  "wba": 137,
  "tsu": 137,
  "asn": 137,
  "rŋk": 137,
  "ɱsɱ": 137,
  "kŋɱ": 136,
  "muɱ": 136,
  "tbu": 136,
  "cuc": 136,
  "gpi": 135,
  "ɱi␣": 135,
  "tpa": 135,
  "sbŋ": 135,
  "xop": 135,
  "kpo": 135,
  "ŋŋb": 134,
  "ɱyi": 134,
  "ki␣": 134,
  "eɱa": 134,
  "wnp": 134,
  "bŋv": 134,
  "ni␣": 134,
  "m␣m": 133,
  "ouf": 133,
  "u␣k": 133,
  "kɱŋ": 133,
  "␣ak": 133,
  "dbl": 133,
  "xlŋ": 133,
  "ufl": 132,
  "aŋh": 132,
  "aŋp": 132,
  "lhŋ": 132,
  "arq": 131,
  "ckɱ": 131,
  "yho": 131,
  "ppɱ": 131,
  "ttu": 131,
  "dpa": 130,
  "gsp": 130,
  "poa": 130,
  "oax": 130,
  "ysm": 130,
  "kwo": 129,
  "ea␣": 129,
  "ɱtw": 129,
  "oyo": 129,
  "k␣y": 129,
  "yfu": 129,
  "rua": 128,
  "dcr": 128,
  "kto": 128,
  "dŋh": 128,
  "hod": 128,
  "lwo": 128,
  "lri": 128,
  "axl": 128,
  "ldc": 128,
  "ŋb␣": 127,
  "␣sf": 127,
  "adb": 127,
  "baɱ": 127,
  "wap": 127,
  "yni": 127,
  "fuc": 126,
  "jŋo": 126,
  "orv": 126,
  "wnf": 126,
  "xto": 126,
  "ugo": 126,
  "b␣l": 126,
  "pfu": 125,
  "yac": 125,
  "dyŋ": 125,
  "isj": 125,
  "ŋka": 125,
  "m␣d": 125,
  "uŋq": 124,
  "bo␣": 124,
  "sɱn": 124,
  "eos": 124,
  "jaŋ": 124,
  "ɱŋv": 124,
  "dsŋ": 124,
  "u␣b": 124,
  "zal": 124,
  "gop": 123,
  "rfr": 123,
  "ryn": 123,
  "lpf": 123,
  "ysf": 123,
  "voŋ": 123,
  "tpr": 122,
  "ilh": 122,
  "cŋb": 122,
  "dfl": 122,
  "aku": 122,
  "wmi": 122,
  "pba": 122,
  "fŋg": 122,
  "ɱŋg": 121,
  "esc": 121,
  "sf␣": 121,
  "pbu": 121,
  "ɱtc": 120,
  "odc": 120,
  "rpu": 120,
  "pŋg": 120,
  "aec": 120,
  "rkf": 120,
  "wfa": 119,
  "ɱpy": 119,
  "rbr": 119,
  "osɱ": 119,
  "bup": 119,
  "tbi": 119,
  "uxt": 118,
  "m␣g": 118,
  "aoh": 118,
  "hag": 118,
  "gŋi": 118,
  "ebu": 118,
  "ɱyŋ": 118,
  "ckc": 118,
  "uft": 118,
  "lfŋ": 118,
  "mau": 118,
  "ohy": 118,
  "zyg": 118,
  "ba␣": 118,
  "kof": 117,
  "wma": 117,
  "irn": 117,
  "boh": 117,
  "tga": 117,
  "bbr": 117,
  "ŋwb": 117,
  "jux": 117,
  "rah": 117,
  "bob": 116,
  "ɱok": 116,
  "ika": 116,
  "wnh": 116,
  "biz": 116,
  "edy": 116,
  "olp": 116,
  "ofl": 116,
  "ɱu␣": 116,
  "how": 116,
  "ypu": 116,
  "ubw": 115,
  "elt": 115,
  "jut": 115,
  "cya": 115,
  "luk": 115,
  "yos": 115,
  "p␣k": 115,
  "luv": 115,
  "␣iv": 115,
  "iko": 114,
  "ɱyo": 114,
  "cuŋ": 114,
  "kaŋ": 114,
  "eab": 114,
  "ŋea": 114,
  "okl": 113,
  "ydo": 113,
  "bwa": 113,
  "cyn": 112,
  "ŋhu": 112,
  "urh": 112,
  "uso": 112,
  "pif": 112,
  "dwr": 111,
  "odb": 111,
  "nuŋ": 111,
  "tah": 111,
  "kra": 111,
  "ŋlr": 111,
  "oŋb": 111,
  "wsɱ": 110,
  "zŋb": 110,
  "uia": 110,
  "tda": 110,
  "pyg": 110,
  "xos": 110,
  "mop": 110,
  "ulv": 110,
  "bys": 110,
  "ah␣": 110,
  "␣ji": 110,
  "rɱt": 110,
  "ssɱ": 109,
  "uki": 109,
  "huɱ": 109,
  "ggy": 109,
  "uŋj": 109,
  "ɱŋh": 109,
  "uac": 109,
  "yog": 109,
  "i␣f": 109,
  "oue": 109,
  "ɱtm": 108,
  "ltw": 108,
  "pŋu": 108,
  "igy": 108,
  "cŋu": 107,
  "ryz": 107,
  "n␣k": 107,
  "␣uk": 107,
  "ŋrj": 107,
  "␣ts": 107,
  "sos": 107,
  "␣kr": 107,
  "sax": 107,
  "vos": 106,
  "ɱpb": 106,
  "hyɱ": 106,
  "e␣j": 106,
  "aiz": 106,
  "ctf": 105,
  "stf": 105,
  "sgŋ": 105,
  "psa": 105,
  "i␣s": 105,
  "nŋɱ": 105,
  "hŋd": 105,
  "dbi": 105,
  "yby": 105,
  "ioi": 105,
  "ɱyg": 105,
  "akf": 104,
  "oɱl": 104,
  "zas": 104,
  "tzŋ": 104,
  "rŋx": 104,
  "ŋvy": 104,
  "tso": 104,
  "joc": 104,
  "yfr": 104,
  "yba": 103,
  "bgr": 103,
  "dpŋ": 103,
  "rix": 103,
  "ncr": 103,
  "isn": 103,
  "jui": 103,
  "bi␣": 103,
  "uxŋ": 102,
  "ɱpg": 102,
  "ela": 102,
  "udl": 102,
  "uɱv": 102,
  "i␣c": 102,
  "swu": 102,
  "ib␣": 102,
  "aha": 102,
  "rax": 101,
  "xɱu": 101,
  "luf": 101,
  "tgr": 101,
  "sbo": 101,
  "bti": 101,
  "cuf": 101,
  "exi": 101,
  "dcu": 101,
  "efi": 101,
  "ŋbl": 101,
  "kaw": 101,
  "wry": 101,
  "x␣v": 101,
  "pyl": 101,
  "e␣q": 101,
  "ubr": 101,
  "cɱw": 100,
  "eat": 100,
  "ŋtp": 100,
  "lbw": 100,
  "cŋk": 100,
  "npl": 100,
  "aln": 100,
  "␣s␣": 100,
  "ko␣": 100,
  "p␣q": 100,
  "ŋkt": 99,
  "rtg": 99,
  "koo": 99,
  "dbr": 99,
  "ŋɱl": 98,
  "arw": 98,
  "wco": 98,
  "iap": 98,
  "ytt": 98,
  "xyl": 98,
  "buk": 98,
  "obr": 97,
  "upu": 97,
  "ysc": 97,
  "ŋŋp": 97,
  "pa␣": 97,
  "rkp": 97,
  "i␣m": 97,
  "evo": 97,
  "fto": 96,
  "sju": 96,
  "␣lb": 96,
  "ygm": 96,
  "gmy": 96,
  "ɱuf": 96,
  "kiɱ": 96,
  "b␣ŋ": 96,
  "nfa": 96,
  "oex": 96,
  "eu␣": 96,
  "ldb": 96,
  "lcŋ": 95,
  "ŋwc": 95,
  "lŋh": 95,
  "rkɱ": 95,
  "ffb": 94,
  "bpl": 94,
  "ckh": 94,
  "sow": 94,
  "m␣r": 94,
  "rtz": 94,
  "wks": 94,
  "vŋo": 94,
  "lil": 93,
  "rdb": 93,
  "yfl": 93,
  "oko": 93,
  "xaf": 93,
  "bca": 92,
  "dfo": 92,
  "ynŋ": 92,
  "bto": 92,
  "tgu": 92,
  "xor": 92,
  "m␣p": 92,
  "u␣n": 92,
  "lbs": 92,
  "koŋ": 92,
  "kbi": 91,
  "atn": 91,
  "btf": 91,
  "goɱ": 91,
  "twr": 91,
  "lah": 91,
  "zie": 91,
  "yru": 91,
  "ŋeb": 91,
  "pbo": 90,
  "idf": 90,
  "iov": 90,
  "ufo": 90,
  "bju": 90,
  "ɱue": 90,
  "p␣y": 90,
  "␣oy": 90,
  "eoŋ": 89,
  "uoi": 89,
  "uzŋ": 89,
  "ŋoa": 89,
  "dii": 89,
  "adt": 89,
  "kas": 88,
  "otw": 88,
  "olb": 88,
  "owy": 88,
  "␣gn": 88,
  "ygu": 88,
  "owr": 88,
  "␣ny": 88,
  "i␣d": 88,
  "tsw": 88,
  "udu": 88,
  "ypr": 88,
  "␣yt": 88,
  "ŋlb": 87,
  "nta": 87,
  "rkw": 87,
  "oc␣": 87,
  "erf": 87,
  "loe": 87,
  "kwi": 87,
  "i␣p": 87,
  "yŋb": 87,
  "ioe": 87,
  "ɱ␣z": 86,
  "tu␣": 86,
  "ŋzz": 86,
  "sgi": 86,
  "kca": 86,
  "wuŋ": 86,
  "dui": 86,
  "g␣z": 86,
  "daz": 86,
  "oig": 85,
  "kfi": 85,
  "ako": 85,
  "ygr": 85,
  "rtb": 85,
  "gyp": 85,
  "nyɱ": 85,
  "oog": 85,
  "ofu": 85,
  "dby": 85,
  "ŋu␣": 84,
  "wy␣": 84,
  "n␣q": 84,
  "lpr": 84,
  "wts": 84,
  "oxa": 84,
  "uaɱ": 84,
  "xal": 84,
  "ŋ␣x": 84,
  "lyŋ": 84,
  "fba": 84,
  "eez": 83,
  "zli": 83,
  "snu": 83,
  "rɱh": 83,
  "oja": 83,
  "yzi": 83,
  "asq": 83,
  "tgo": 83,
  "p␣j": 83,
  "lkw": 83,
  "kro": 83,
  "eɱo": 82,
  "b␣n": 82,
  "ŋwn": 82,
  "ŋwd": 82,
  "ynx": 82,
  "itf": 82,
  "egi": 82,
  "akl": 82,
  "k␣k": 82,
  "ɱca": 82,
  "wsŋ": 82,
  "atp": 82,
  "pkŋ": 81,
  "vo␣": 81,
  "nui": 81,
  "zŋl": 81,
  "ŋkɱ": 81,
  "ksm": 81,
  "sdŋ": 81,
  "buz": 81,
  "irk": 81,
  "ksŋ": 81,
  "myo": 81,
  "efŋ": 81,
  "tof": 81,
  "gŋc": 80,
  "ilf": 80,
  "tts": 80,
  "vod": 80,
  "ckt": 80,
  "gŋv": 80,
  "ruv": 80,
  "u␣r": 80,
  "dyg": 80,
  "dik": 80,
  "oei": 79,
  "u␣ŋ": 79,
  "tja": 79,
  "b␣u": 79,
  "ivy": 79,
  "ckr": 79,
  "jŋe": 79,
  "iae": 79,
  "hog": 79,
  "zŋt": 79,
  "byt": 79,
  "cɱh": 78,
  "␣ug": 78,
  "aet": 78,
  "o␣z": 78,
  "␣ŋe": 78,
  "oob": 78,
  "eŋb": 78,
  "ubn": 78,
  "jŋs": 78,
  "elc": 78,
  "bw␣": 78,
  "kbŋ": 78,
  "cbi": 77,
  "yŋŋ": 77,
  "ŋja": 77,
  "dav": 77,
  "eŋn": 77,
  "hos": 77,
  "aɱw": 77,
  "icb": 77,
  "psɱ": 77,
  "rnu": 77,
  "ygi": 77,
  "ɱay": 76,
  "rky": 76,
  "rct": 76,
  "nhi": 76,
  "i␣ɱ": 76,
  "c␣y": 76,
  "dsp": 76,
  "owp": 76,
  "fta": 76,
  "aŋf": 76,
  "gow": 76,
  "ooe": 75,
  "atw": 75,
  "iyo": 75,
  "kiy": 75,
  "pŋb": 75,
  "ŋzi": 75,
  "hoŋ": 75,
  "wok": 74,
  "oia": 74,
  "bŋw": 74,
  "m␣ŋ": 74,
  "ekd": 74,
  "eft": 74,
  "eŋh": 74,
  "c␣z": 74,
  "lsc": 74,
  "ldu": 74,
  "elh": 74,
  "bue": 73,
  "ywŋ": 73,
  "zzi": 73,
  "lal": 73,
  "zŋe": 73,
  "soe": 73,
  "xi␣": 73,
  "ieb": 73,
  "fae": 73,
  "zoa": 73,
  "rij": 73,
  "eso": 73,
  "aed": 73,
  "rsm": 73,
  "byŋ": 73,
  "kŋb": 72,
  "wdi": 72,
  "k␣q": 72,
  "aru": 72,
  "pae": 72,
  "ii␣": 72,
  "wng": 72,
  "ccɱ": 72,
  "ɱdi": 72,
  "rlu": 72,
  "bho": 72,
  "ɱsy": 72,
  "ɱsc": 72,
  "gŋy": 72,
  "orq": 72,
  "erk": 71,
  "wdo": 71,
  "ŋik": 71,
  "bcu": 71,
  "xŋl": 70,
  "lnu": 70,
  "ɱsi": 70,
  "tz␣": 70,
  "z␣a": 70,
  "ŋsd": 70,
  "ngr": 70,
  "␣oo": 70,
  "roq": 70,
  "fuz": 69,
  "csŋ": 69,
  "n␣y": 69,
  "osk": 69,
  "pɱt": 69,
  "ɱup": 69,
  "ɱwɱ": 69,
  "iju": 69,
  "ntu": 69,
  "gɱn": 69,
  "␣az": 69,
  "bŋz": 69,
  "gɱa": 69,
  "i␣b": 69,
  "ɱvŋ": 68,
  "␣og": 68,
  "i␣r": 68,
  "ueg": 68,
  "boe": 68,
  "kbu": 68,
  "oef": 68,
  "axp": 67,
  "b␣g": 67,
  "y␣z": 67,
  "fnŋ": 67,
  "bty": 67,
  "jua": 67,
  "ɱtt": 67,
  "gfi": 67,
  "ɱfŋ": 67,
  "pɱu": 67,
  "ɱud": 67,
  "eba": 66,
  "ega": 66,
  "ovu": 66,
  "xud": 66,
  "xɱo": 66,
  "lru": 66,
  "gaf": 66,
  "gbi": 66,
  "epr": 66,
  "uep": 66,
  "eco": 66,
  "ɱso": 66,
  "ueo": 66,
  "kta": 65,
  "myr": 65,
  "djŋ": 65,
  "bpo": 65,
  "eou": 65,
  "yci": 65,
  "ogm": 65,
  "nsp": 65,
  "rhu": 64,
  "ɱci": 64,
  "sst": 64,
  "paq": 64,
  "otm": 64,
  "ŋfy": 64,
  "dbŋ": 64,
  "yfi": 64,
  "dof": 64,
  "ɱtj": 64,
  "llt": 63,
  "llh": 63,
  "pmo": 63,
  "vue": 63,
  "pix": 63,
  "ctn": 63,
  "oiɱ": 63,
  "yga": 63,
  "wsl": 63,
  "maz": 62,
  "kys": 62,
  "␣ŋb": 62,
  "␣zy": 62,
  "wiz": 62,
  "ui␣": 62,
  "dix": 62,
  "ɱfa": 62,
  "nsi": 62,
  "edu": 62,
  "uɱc": 62,
  "bŋɱ": 62,
  "toz": 61,
  "ai␣": 61,
  "tsa": 61,
  "pbŋ": 61,
  "urq": 61,
  "apn": 61,
  "kyw": 61,
  "kŋa": 61,
  "viz": 61,
  "tbŋ": 61,
  "aho": 60,
  "cɱp": 60,
  "ŋyh": 60,
  "klu": 60,
  "xqu": 60,
  "yng": 60,
  "ojo": 60,
  "ilb": 60,
  "pki": 60,
  "rkh": 60,
  "ŋsn": 60,
  "ŋxq": 60,
  "zzŋ": 59,
  "rpm": 59,
  "yov": 59,
  "cst": 59,
  "kpl": 59,
  "ayg": 59,
  "ysa": 59,
  "jiŋ": 59,
  "␣ay": 59,
  "ubh": 58,
  "eŋl": 58,
  "etc": 58,
  "oec": 58,
  "eff": 58,
  "ŋyd": 58,
  "xub": 58,
  "sby": 58,
  "xod": 58,
  "uɱf": 57,
  "egr": 57,
  "twɱ": 57,
  "cyp": 57,
  "otg": 57,
  "tpŋ": 57,
  "ɱŋq": 57,
  "rny": 57,
  "ayr": 57,
  "myz": 57,
  "nae": 57,
  "ŋn␣": 57,
  "cty": 57,
  "rwr": 57,
  "ŋpf": 56,
  "iep": 56,
  "wbŋ": 56,
  "fha": 56,
  "ffh": 56,
  "pfa": 56,
  "bok": 56,
  "cyɱ": 56,
  "lu␣": 56,
  "bni": 56,
  "hyo": 56,
  "yŋo": 56,
  "lb␣": 55,
  "␣oe": 55,
  "lna": 55,
  "uef": 55,
  "zaŋ": 55,
  "ci␣": 55,
  "uv␣": 55,
  "otn": 55,
  "ydŋ": 55,
  "sae": 55,
  "ŋyn": 54,
  "tno": 54,
  "syp": 54,
  "sdu": 54,
  "gta": 54,
  "yak": 54,
  "kay": 54,
  "npo": 54,
  "ozy": 54,
  "aŋb": 54,
  "rnf": 54,
  "d␣x": 54,
  "eal": 54,
  "yo␣": 53,
  "ryŋ": 53,
  "oŋh": 53,
  "ɱpk": 53,
  "sbr": 53,
  "zzo": 53,
  "kba": 53,
  "lŋk": 53,
  "yrd": 52,
  "cŋw": 52,
  "ɱuc": 52,
  "rnb": 52,
  "aŋj": 52,
  "lbi": 52,
  "ffy": 52,
  "odn": 52,
  "eho": 52,
  "nco": 52,
  "x␣u": 52,
  "ecr": 52,
  "toh": 52,
  "zod": 52,
  "ebl": 52,
  "sŋk": 51,
  "ŋpm": 51,
  "ygy": 51,
  "oha": 51,
  "ŋxy": 51,
  "erl": 51,
  "rvy": 51,
  "foɱ": 51,
  "myŋ": 51,
  "yly": 51,
  "gɱf": 51,
  "wnr": 51,
  "lyw": 51,
  "yrs": 51,
  "csi": 50,
  "wmo": 50,
  "baf": 50,
  "pŋɱ": 50,
  "ɱnu": 50,
  "tfŋ": 50,
  "ɱŋk": 50,
  "stg": 50,
  "kri": 50,
  "ybu": 50,
  "piu": 50,
  "aky": 50,
  "obc": 50,
  "ysp": 50,
  "hoe": 50,
  "udf": 50,
  "ueu": 50,
  "edɱ": 50,
  "wsr": 50,
  "si␣": 50,
  "aar": 50,
  "vra": 49,
  "b␣v": 49,
  "wfo": 49,
  "nox": 49,
  "ptr": 49,
  "uru": 49,
  "mya": 49,
  "jog": 49,
  "lya": 49,
  "ŋeh": 49,
  "jub": 49,
  "oea": 49,
  "oag": 49,
  "rju": 49,
  "hŋu": 49,
  "siq": 49,
  "␣oz": 49,
  "zly": 48,
  "yso": 48,
  "lsɱ": 48,
  "ywo": 48,
  "iez": 48,
  "dpi": 48,
  "woe": 48,
  "fry": 48,
  "tcu": 48,
  "ŋtd": 48,
  "swr": 48,
  "kco": 48,
  "dkŋ": 47,
  "z␣c": 47,
  "rgɱ": 47,
  "nil": 47,
  "llr": 47,
  "sut": 47,
  "gm␣": 47,
  "bsɱ": 47,
  "sog": 47,
  "ŋug": 47,
  "uol": 47,
  "zor": 47,
  "oie": 47,
  "bif": 47,
  "eɱp": 47,
  "wa␣": 47,
  "lix": 47,
  "ebo": 46,
  "kuŋ": 46,
  "cɱf": 46,
  "ivu": 46,
  "lfo": 46,
  "ya␣": 46,
  "rko": 46,
  "fax": 46,
  "ohu": 45,
  "eci": 45,
  "jol": 45,
  "gpo": 45,
  "pug": 45,
  "nly": 45,
  "agt": 45,
  "oh␣": 45,
  "hui": 45,
  "ɱdŋ": 45,
  "iŋr": 45,
  "ŋkh": 45,
  "wsi": 45,
  "byr": 45,
  "iaq": 45,
  "uoŋ": 45,
  "yny": 45,
  "piz": 45,
  "awd": 44,
  "zig": 44,
  "icc": 44,
  "ŋvr": 44,
  "ŋdk": 44,
  "vro": 44,
  "ŋwf": 44,
  "␣ku": 44,
  "zir": 44,
  "baz": 44,
  "dgu": 44,
  "igl": 44,
  "kiv": 44,
  "nri": 44,
  "u␣j": 44,
  "kha": 44,
  "kaɱ": 44,
  "z␣s": 44,
  "f␣x": 43,
  "lup": 43,
  "voa": 43,
  "wt␣": 43,
  "pŋz": 43,
  "syr": 43,
  "ees": 43,
  "yr␣": 43,
  "ozz": 43,
  "soy": 43,
  "nub": 43,
  "m␣l": 43,
  "axw": 43,
  "ooc": 43,
  "vyw": 43,
  "hs␣": 43,
  "opk": 43,
  "aŋr": 43,
  "yop": 42,
  "dtŋ": 42,
  "lld": 42,
  "bau": 42,
  "vyi": 42,
  "atb": 42,
  "nho": 42,
  "bcl": 42,
  "mŋi": 42,
  "wst": 42,
  "ɱpm": 42,
  "wbr": 42,
  "owo": 41,
  "udb": 41,
  "oyh": 41,
  "ahs": 41,
  "eue": 41,
  "wk␣": 41,
  "ywi": 41,
  "oa␣": 41,
  "upk": 41,
  "noz": 41,
  "awg": 41,
  "afn": 41,
  "zo␣": 41,
  "␣ok": 41,
  "bdŋ": 40,
  "fod": 40,
  "p␣z": 40,
  "xwi": 40,
  "ooz": 40,
  "kpa": 40,
  "rg␣": 40,
  "boc": 40,
  "ŋuu": 40,
  "esɱ": 40,
  "eak": 40,
  "idr": 40,
  "zzy": 40,
  "yd␣": 39,
  "yxo": 39,
  "ŋtn": 39,
  "ixa": 39,
  "ngŋ": 39,
  "eer": 39,
  "wgr": 39,
  "lyo": 39,
  "azu": 39,
  "nfi": 39,
  "itb": 39,
  "lfl": 39,
  "ugn": 39,
  "mŋz": 38,
  "iɱl": 38,
  "okb": 38,
  "yhŋ": 38,
  "lɱl": 38,
  "kry": 38,
  "efc": 38,
  "wsc": 38,
  "wss": 38,
  "fca": 38,
  "otd": 38,
  "iof": 38,
  "jŋl": 38,
  "␣vs": 38,
  "jad": 38,
  "xus": 38,
  "okɱ": 38,
  "ua␣": 38,
  "pno": 38,
  "llc": 38,
  "ypn": 37,
  "uiz": 37,
  "gŋp": 37,
  "huŋ": 37,
  "uif": 37,
  "otf": 37,
  "ɱyx": 37,
  "xaŋ": 37,
  "vip": 37,
  "gob": 37,
  "dfŋ": 37,
  "vog": 37,
  "ayh": 36,
  "gwo": 36,
  "rnl": 36,
  "du␣": 36,
  "vri": 36,
  "rsl": 36,
  "oky": 36,
  "bŋo": 36,
  "dad": 36,
  "ieɱ": 36,
  "suz": 36,
  "mah": 36,
  "nah": 36,
  "idp": 36,
  "sɱs": 36,
  "zag": 35,
  "auv": 35,
  "kbr": 35,
  "pue": 35,
  "dga": 35,
  "miz": 35,
  "tae": 35,
  "dgy": 35,
  "jos": 35,
  "pi␣": 35,
  "ybd": 35,
  "yls": 35,
  "ɱta": 35,
  "eŋy": 35,
  "ɱvi": 35,
  "dsk": 35,
  "wdy": 35,
  "haɱ": 35,
  "yɱy": 35,
  "tɱt": 35,
  "lno": 35,
  "ayp": 35,
  "psc": 35,
  "z␣m": 35,
  "rdp": 34,
  "zŋp": 34,
  "xab": 34,
  "ryg": 34,
  "ɱto": 34,
  "xas": 34,
  "ryc": 34,
  "igz": 34,
  "elo": 34,
  "zit": 34,
  "ddu": 34,
  "kaz": 34,
  "ftb": 34,
  "pfi": 34,
  "elb": 34,
  "nx␣": 34,
  "eca": 34,
  "epy": 34,
  "riq": 34,
  "ŋaz": 34,
  "gza": 34,
  "ptw": 34,
  "efu": 34,
  "pwŋ": 34,
  "nup": 34,
  "cmi": 33,
  "rcm": 33,
  "di␣": 33,
  "nus": 33,
  "nop": 33,
  "bsl": 33,
  "uod": 33,
  "rnc": 33,
  "efo": 33,
  "ffn": 33,
  "dud": 33,
  "ddo": 33,
  "ooi": 33,
  "abh": 33,
  "soj": 33,
  "iln": 33,
  "uku": 32,
  "ylc": 32,
  "ŋex": 32,
  "apb": 32,
  "bop": 32,
  "ksg": 32,
  "cud": 32,
  "odɱ": 32,
  "jau": 32,
  "ppm": 32,
  "yss": 32,
  "vŋw": 32,
  "fcɱ": 32,
  "aie": 32,
  "iaz": 32,
  "lda": 32,
  "ŋns": 32,
  "aub": 32,
  "ffc": 32,
  "zoi": 32,
  "zuɱ": 32,
  "aol": 32,
  "viu": 32,
  "ŋkk": 32,
  "i␣ŋ": 31,
  "jab": 31,
  "xwo": 31,
  "␣ry": 31,
  "tik": 31,
  "bnŋ": 31,
  "kŋh": 31,
  "akw": 31,
  "pwi": 31,
  "tyw": 31,
  "fsi": 31,
  "rdh": 31,
  "lsy": 31,
  "sjo": 31,
  "cok": 31,
  "z␣f": 31,
  "␣ds": 31,
  "aup": 31,
  "wpa": 31,
  "abj": 30,
  "wfi": 30,
  "oby": 30,
  "iha": 30,
  "fdo": 30,
  "dha": 30,
  "maf": 30,
  "ɱox": 30,
  "rɱw": 30,
  "␣kl": 30,
  "dih": 30,
  "lcy": 30,
  "ohs": 30,
  "rgs": 30,
  "i␣g": 30,
  "iwa": 30,
  "kio": 30,
  "iɱy": 30,
  "ydi": 30,
  "piq": 30,
  "awr": 30,
  "ggo": 30,
  "kg␣": 30,
  "␣fj": 29,
  "kuɱ": 29,
  "ŋii": 29,
  "lkt": 29,
  "ɱpf": 29,
  "ael": 29,
  "ŋah": 29,
  "niɱ": 29,
  "oyb": 29,
  "ogf": 29,
  "iŋx": 29,
  "oeb": 29,
  "fjo": 29,
  "gɱy": 29,
  "kua": 29,
  "ziɱ": 29,
  "rkr": 28,
  "ixp": 28,
  "gaw": 28,
  "piɱ": 28,
  "pwo": 28,
  "cox": 28,
  "gnu": 28,
  "oxw": 28,
  "bu␣": 28,
  "wki": 28,
  "nfu": 28,
  "tys": 28,
  "ypl": 28,
  "nuf": 28,
  "bgl": 28,
  "ŋrz": 28,
  "xif": 28,
  "gao": 28,
  "odf": 28,
  "ŋgp": 27,
  "␣ŋk": 27,
  "oyl": 27,
  "hoɱ": 27,
  "nue": 27,
  "uva": 27,
  "ofr": 27,
  "eic": 27,
  "bae": 27,
  "olh": 27,
  "ssc": 27,
  "byc": 27,
  "kŋg": 27,
  "rɱb": 27,
  "mow": 27,
  "zaa": 27,
  "aeŋ": 27,
  "x␣k": 27,
  "muf": 27,
  "iwi": 27,
  "kol": 27,
  "lyl": 27,
  "z␣p": 27,
  "ɱry": 27,
  "avu": 27,
  "i␣l": 27,
  "dsw": 26,
  "vŋf": 26,
  "jay": 26,
  "dsu": 26,
  "kkŋ": 26,
  "xig": 26,
  "giu": 26,
  "mav": 26,
  "uqu": 26,
  "bki": 26,
  "ubk": 26,
  "i␣j": 26,
  "lyh": 26,
  "hot": 26,
  "gbŋ": 26,
  "byw": 26,
  "etn": 26,
  "waf": 26,
  "jav": 26,
  "ytr": 26,
  "rja": 26,
  "z␣b": 26,
  "jov": 26,
  "ogw": 26,
  "auk": 26,
  "fst": 26,
  "nid": 26,
  "asb": 26,
  "ɱŋu": 25,
  "oey": 25,
  "myx": 25,
  "wru": 25,
  "hɱi": 25,
  "elw": 25,
  "kif": 25,
  "m␣u": 25,
  "aev": 25,
  "hur": 25,
  "ruo": 25,
  "ɱwi": 25,
  "ftn": 25,
  "ɱbn": 25,
  "mg␣": 25,
  "oaf": 25,
  "␣vy": 25,
  "yŋu": 25,
  "dki": 25,
  "dyk": 25,
  "xau": 25,
  "ykŋ": 25,
  "ihy": 24,
  "ahɱ": 24,
  "wah": 24,
  "jo␣": 24,
  "wnc": 24,
  "skr": 24,
  "ŋlg": 24,
  "eis": 24,
  "quy": 24,
  "ŋfs": 24,
  "ilc": 24,
  "caq": 24,
  "rjŋ": 24,
  "uyo": 24,
  "yxi": 24,
  "gmo": 24,
  "ja␣": 24,
  "kyd": 24,
  "yta": 24,
  "std": 24,
  "rya": 24,
  "faw": 24,
  "ɱtu": 24,
  "apw": 24,
  "wdr": 23,
  "ŋln": 23,
  "aɱf": 23,
  "h␣w": 23,
  "adk": 23,
  "dpɱ": 23,
  "nwi": 23,
  "wac": 23,
  "apm": 23,
  "nc␣": 23,
  "sɱt": 23,
  "␣xx": 23,
  "lfp": 23,
  "ldy": 23,
  "fot": 23,
  "ego": 23,
  "auf": 23,
  "uav": 23,
  "lyf": 23,
  "waw": 23,
  "nca": 23,
  "skt": 23,
  "aue": 23,
  "jig": 23,
  "lyu": 23,
  "bŋk": 23,
  "ayd": 23,
  "loz": 23,
  "syd": 23,
  "baw": 23,
  "eaŋ": 23,
  "yur": 23,
  "afy": 23,
  "wpl": 23,
  "ɱsd": 23,
  "pmu": 23,
  "yaw": 23,
  "iek": 23,
  "zae": 23,
  "ltl": 22,
  "z␣g": 22,
  "tsy": 22,
  "ldv": 22,
  "vŋb": 22,
  "joe": 22,
  "knu": 22,
  "nɱ␣": 22,
  "zba": 22,
  "avv": 22,
  "ayc": 22,
  "m␣n": 22,
  "ysl": 22,
  "tzb": 22,
  "ɱsm": 22,
  "bgi": 22,
  "yaɱ": 22,
  "fpŋ": 22,
  "iwo": 22,
  "ŋyc": 22,
  "ltm": 22,
  "skn": 22,
  "sii": 22,
  "ltz": 22,
  "oav": 22,
  "gnp": 22,
  "ŋyp": 22,
  "coq": 22,
  "ahy": 22,
  "had": 22,
  "rir": 22,
  "fbŋ": 21,
  "ysr": 21,
  "olg": 21,
  "ktr": 21,
  "ɱiq": 21,
  "yok": 21,
  "tsl": 21,
  "tkŋ": 21,
  "tzi": 21,
  "pdr": 21,
  "kyr": 21,
  "oxc": 21,
  "aɱt": 21,
  "rzo": 21,
  "lbl": 21,
  "yod": 21,
  "ouq": 21,
  "u␣u": 21,
  "kos": 21,
  "bcɱ": 21,
  "pdo": 21,
  "tux": 21,
  "zap": 21,
  "oxo": 21,
  "xx␣": 21,
  "ksc": 21,
  "okc": 21,
  "gwa": 20,
  "␣p␣": 20,
  "rsw": 20,
  "esy": 20,
  "oku": 20,
  "agɱ": 20,
  "ŋoo": 20,
  "h␣a": 20,
  "ŋoh": 20,
  "psp": 20,
  "␣ao": 20,
  "ahi": 20,
  "ɱsp": 20,
  "ŋkf": 20,
  "kfu": 20,
  "tmi": 20,
  "kso": 20,
  "byl": 20,
  "h␣o": 20,
  "␣ŋ␣": 20,
  "kor": 20,
  "ɱaj": 20,
  "uay": 20,
  "hŋe": 20,
  "tpi": 20,
  "exa": 20,
  "usw": 20,
  "oua": 20,
  "iky": 19,
  "pga": 19,
  "gwŋ": 19,
  "v␣a": 19,
  "gmi": 19,
  "nug": 19,
  "oxɱ": 19,
  "edw": 19,
  "rɱn": 19,
  "rŋz": 19,
  "ji␣": 19,
  "ao␣": 19,
  "ɱyn": 19,
  "rdv": 19,
  "oau": 19,
  "tiw": 19,
  "dŋk": 19,
  "uko": 19,
  "sɱp": 19,
  "xya": 19,
  "ŋtk": 19,
  "␣kh": 19,
  "wpi": 19,
  "ŋbc": 19,
  "vvy": 19,
  "dyb": 19,
  "mae": 19,
  "pŋj": 19,
  "suo": 19,
  "opb": 19,
  "cao": 19,
  "okk": 19,
  "pfr": 19,
  "␣xy": 19,
  "ŋŋk": 19,
  "fŋk": 19,
  "nbi": 19,
  "ɱtr": 19,
  "uɱl": 19,
  "ebr": 19,
  "gŋu": 19,
  "z␣t": 19,
  "ik␣": 19,
  "lns": 19,
  "rjo": 18,
  "x␣j": 18,
  "rpn": 18,
  "fa␣": 18,
  "kki": 18,
  "rsk": 18,
  "aok": 18,
  "odh": 18,
  "odk": 18,
  "obn": 18,
  "obw": 18,
  "tih": 18,
  "hyn": 18,
  "kŋf": 18,
  "dfr": 18,
  "s␣x": 18,
  "fni": 18,
  "yat": 18,
  "aɱr": 18,
  "lwi": 18,
  "foy": 18,
  "etu": 18,
  "daf": 18,
  "ŋdq": 18,
  "xŋt": 18,
  "gba": 18,
  "efa": 18,
  "ppu": 18,
  "yoɱ": 18,
  "fag": 18,
  "z␣i": 18,
  "dka": 18,
  "aɱc": 18,
  "oln": 17,
  "vix": 17,
  "uk␣": 17,
  "okr": 17,
  "naw": 17,
  "has": 17,
  "␣aa": 17,
  "␣d␣": 17,
  "wuɱ": 17,
  "ylt": 17,
  "ifr": 17,
  "ysu": 17,
  "zoe": 17,
  "ezo": 17,
  "apd": 17,
  "ŋib": 17,
  "dae": 17,
  "␣kɱ": 17,
  "awt": 17,
  "ɱgo": 17,
  "bof": 17,
  "ebŋ": 17,
  "h␣i": 17,
  "aeg": 17,
  "ncu": 17,
  "llg": 17,
  "mia": 17,
  "idb": 17,
  "wob": 17,
  "wop": 17,
  "jas": 17,
  "aja": 17,
  "␣y␣": 17,
  "ey␣": 17,
  "hik": 17,
  "uei": 17,
  "ulw": 17,
  "zŋɱ": 16,
  "owg": 16,
  "ŋf␣": 16,
  "kiw": 16,
  "iz␣": 16,
  "lŋq": 16,
  "kae": 16,
  "bao": 16,
  "dji": 16,
  "nbu": 16,
  "ɱwr": 16,
  "sgo": 16,
  "iah": 16,
  "tgŋ": 16,
  "ɱiw": 16,
  "dyw": 16,
  "yrh": 16,
  "pyc": 16,
  "xog": 16,
  "yad": 16,
  "cɱg": 16,
  "pp␣": 16,
  "miu": 16,
  "upf": 16,
  "lyv": 16,
  "w␣z": 16,
  "nŋq": 16,
  "tna": 16,
  "ŋwp": 16,
  "bna": 16,
  "wnd": 16,
  "skl": 16,
  "ŋji": 16,
  "eŋo": 16,
  "raa": 16,
  "oɱt": 15,
  "upm": 15,
  "az␣": 15,
  "pof": 15,
  "muo": 15,
  "z␣w": 15,
  "voo": 15,
  "uɱh": 15,
  "jiv": 15,
  "␣ŋo": 15,
  "␣ia": 15,
  "opw": 15,
  "fiz": 15,
  "ɱ␣x": 15,
  "nys": 15,
  "yvi": 15,
  "dyɱ": 15,
  "zip": 15,
  "ebi": 15,
  "ku␣": 15,
  "zul": 15,
  "gɱu": 15,
  "esa": 15,
  "uks": 15,
  "bwŋ": 15,
  "ozi": 15,
  "opc": 15,
  "stt": 15,
  "ylp": 15,
  "utv": 15,
  "wfl": 15,
  "xaz": 15,
  "wdl": 15,
  "ɱtb": 15,
  "␣dj": 15,
  "oza": 15,
  "ɱhi": 15,
  "z␣o": 15,
  "fov": 15,
  "doj": 15,
  "uaw": 15,
  "x␣q": 14,
  "cyo": 14,
  "kga": 14,
  "okw": 14,
  "kud": 14,
  "␣f␣": 14,
  "wdu": 14,
  "ltp": 14,
  "dti": 14,
  "lko": 14,
  "gto": 14,
  "fŋf": 14,
  "sah": 14,
  "ipc": 14,
  "bpr": 14,
  "toj": 14,
  "taz": 14,
  "tvo": 14,
  "gɱp": 14,
  "eky": 14,
  "dta": 14,
  "ŋkg": 14,
  "xyb": 14,
  "oib": 14,
  "yŋp": 14,
  "eru": 14,
  "yŋi": 14,
  "yoc": 14,
  "oxs": 14,
  "pry": 14,
  "ɱoz": 14,
  "joŋ": 14,
  "hid": 14,
  "elu": 14,
  "aio": 14,
  "kfl": 14,
  "yrr": 14,
  "sfl": 14,
  "ezy": 13,
  "epn": 13,
  "␣r␣": 13,
  "jib": 13,
  "kwɱ": 13,
  "zos": 13,
  "bb␣": 13,
  "poy": 13,
  "iɱr": 13,
  "hop": 13,
  "ɱnl": 13,
  "lfb": 13,
  "ksa": 13,
  "pyt": 13,
  "gah": 13,
  "xŋg": 13,
  "wbi": 13,
  "fŋo": 13,
  "nbŋ": 13,
  "z␣r": 13,
  "gms": 13,
  "h␣c": 13,
  "hŋp": 13,
  "udr": 13,
  "r␣x": 13,
  "ueɱ": 13,
  "equ": 13,
  "sɱd": 13,
  "i␣u": 13,
  "ɱfl": 13,
  "irq": 13,
  "ixo": 13,
  "ee␣": 13,
  "dbu": 13,
  "yoi": 13,
  "rlw": 13,
  "jih": 13,
  "bpa": 13,
  "ho␣": 13,
  "sbu": 13,
  "iit": 13,
  "wgi": 13,
  "lha": 13,
  "opg": 13,
  "␣c␣": 13,
  "eoc": 13,
  "ouk": 13,
  "ilp": 13,
  "rnn": 13,
  "nu␣": 13,
  "caz": 13,
  "nnŋ": 13,
  "wof": 13,
  "wnb": 13,
  "uby": 13,
  "yx␣": 13,
  "cŋg": 13,
  "lkb": 13,
  "ɱof": 13,
  "ynu": 13,
  "su␣": 13,
  "nsf": 13,
  "eja": 13,
  "alh": 13,
  "ylr": 13,
  "lrh": 13,
  "nsl": 13,
  "dob": 13,
  "ekb": 13,
  "ru␣": 13,
  "sŋz": 13,
  "eha": 13,
  "uib": 13,
  "lqu": 13,
  "yas": 13,
  "u␣v": 13,
  "nfo": 13,
  "ltb": 12,
  "dto": 12,
  "olr": 12,
  "␣mf": 12,
  "epɱ": 12,
  "jŋ␣": 12,
  "ftc": 12,
  "aag": 12,
  "h␣f": 12,
  "akh": 12,
  "h␣s": 12,
  "i␣n": 12,
  "dah": 12,
  "atz": 12,
  "mpɱ": 12,
  "ŋɱc": 12,
  "aju": 12,
  "eŋg": 12,
  "wow": 12,
  "olw": 12,
  "ylɱ": 12,
  "hir": 12,
  "alq": 12,
  "z␣ŋ": 12,
  "rɱp": 12,
  "ŋpd": 12,
  "xol": 12,
  "ɱha": 12,
  "ysk": 12,
  "adz": 12,
  "dwɱ": 12,
  "epa": 12,
  "lɱn": 12,
  "erp": 12,
  "uŋy": 12,
  "tpɱ": 12,
  "btu": 12,
  "zŋw": 12,
  "scy": 12,
  "rtp": 12,
  "oux": 12,
  "dhi": 12,
  "eɱb": 12,
  "␣wy": 12,
  "ibc": 12,
  "maq": 12,
  "b␣k": 12,
  "ogb": 12,
  "fop": 12,
  "iax": 12,
  "ysy": 12,
  "bfi": 12,
  "xul": 12,
  "boz": 12,
  "b␣j": 12,
  "ŋux": 11,
  "aal": 11,
  "ŋej": 11,
  "␣za": 11,
  "ikh": 11,
  "cza": 11,
  "wkŋ": 11,
  "ntr": 11,
  "avg": 11,
  "ŋz␣": 11,
  "sfr": 11,
  "vga": 11,
  "oeg": 11,
  "rr␣": 11,
  "hai": 11,
  "zhd": 11,
  "pyb": 11,
  "gyb": 11,
  "␣gc": 11,
  "oeh": 11,
  "ŋub": 11,
  "laa": 11,
  "gcd": 11,
  "kwŋ": 11,
  "kgo": 11,
  "tŋk": 11,
  "a␣x": 11,
  "␣dh": 11,
  "voe": 11,
  "fud": 11,
  "jit": 11,
  "lox": 11,
  "laf": 11,
  "ln␣": 11,
  "lok": 11,
  "tzy": 11,
  "ngo": 11,
  "ylg": 11,
  "irv": 11,
  "sdr": 11,
  "gda": 11,
  "ltd": 11,
  "ofy": 11,
  "y␣x": 11,
  "m␣v": 11,
  "nkŋ": 11,
  "zou": 11,
  "ffd": 11,
  "wto": 11,
  "wsb": 11,
  "nyl": 11,
  "dŋj": 10,
  "sko": 10,
  "zot": 10,
  "efd": 10,
  "dya": 10,
  "ycy": 10,
  "␣b␣": 10,
  "pca": 10,
  "uju": 10,
  "bha": 10,
  "gip": 10,
  "soz": 10,
  "asw": 10,
  "ygd": 10,
  "ngi": 10,
  "wtŋ": 10,
  "lkɱ": 10,
  "auz": 10,
  "dpr": 10,
  "hda": 10,
  "azh": 10,
  "␣kw": 10,
  "g␣x": 10,
  "eɱl": 10,
  "i␣v": 10,
  "mŋw": 10,
  "yry": 10,
  "dcŋ": 10,
  "zil": 10,
  "caj": 10,
  "␣mt": 10,
  "iks": 10,
  "e␣z": 10,
  "bws": 10,
  "m␣k": 10,
  "aŋɱ": 10,
  "n␣z": 10,
  "nbo": 10,
  "fɱŋ": 10,
  "nof": 10,
  "l␣x": 10,
  "dzŋ": 10,
  "faz": 10,
  "apf": 10,
  "wpu": 10,
  "udn": 10,
  "␣ky": 10,
  "hak": 10,
  "␣ŋw": 10,
  "pcɱ": 10,
  "mba": 10,
  "zid": 10,
  "ovy": 10,
  "goy": 10,
  "rkd": 10,
  "cŋy": 10,
  "obf": 10,
  "usq": 10,
  "h␣b": 10,
  "edr": 10,
  "ieh": 10,
  "ouz": 10,
  "akr": 10,
  "lpy": 10,
  "bah": 10,
  "ahn": 10,
  "ptn": 10
}