{
  "␣tɱ": 1601548,
  "tɱe": 1514440,
  "ɱe␣": 1206214,
  "ed␣": 877972,
  "␣ŋf": 605618,
  "␣iŋ": 546167,
  "ŋd␣": 544616,
  "aŋd": 544488,
  "iŋg": 520109,
  "␣aŋ": 499965,
  "ŋf␣": 490842,
  "␣tŋ": 487612,
  "tŋ␣": 454234,
  "ŋg␣": 450258,
  "as␣": 419778,
  "ioŋ": 382021,
  "ŋ␣t": 381817,
  "d␣t": 376297,
  "er␣": 355395,
  "␣a␣": 335311,
  "iŋ␣": 332884,
  "␣cŋ": 314518,
  "tio": 297191,
  "eŋt": 295423,
  "␣re": 295215,
  "re␣": 290040,
  "s␣a": 286319,
  "es␣": 278155,
  "e␣t": 269494,
  "is␣": 265523,
  "fŋr": 259702,
  "was": 252081,
  "␣fŋ": 245206,
  "␣be": 241299,
  "at␣": 233936,
  "al␣": 233418,
  "f␣t": 232990,
  "ter": 230288,
  "ly␣": 229475,
  "ted": 224974,
  "ate": 218912,
  "ŋt␣": 217493,
  "ɱer": 215902,
  "␣wa": 215807,
  "e␣a": 213015,
  "s␣t": 212271,
  "e␣s": 212143,
  "d␣a": 210607,
  "ere": 210236,
  "ɱat": 204375,
  "oŋ␣": 204292,
  "ŋr␣": 202173,
  "t␣t": 201780,
  "ati": 200836,
  "e␣ŋ": 200181,
  "tɱa": 191705,
  "ŋ␣a": 191411,
  "s␣ŋ": 190010,
  "ɱis": 182248,
  "␣ɱi": 181420,
  "␣wi": 180001,
  "␣ŋŋ": 179820,
  "st␣": 175638,
  "␣pr": 175527,
  "eŋ␣": 174948,
  "cŋŋ": 173310,
  "tɱ␣": 170348,
  "itɱ": 164437,
  "e␣c": 164089,
  "ts␣": 163467,
  "␣as": 161509,
  "wit": 159650,
  "␣ɱa": 158049,
  "all": 157046,
  "ver": 155992,
  "ers": 151429,
  "e␣f": 151048,
  "␣de": 150537,
  "␣se": 149890,
  "␣ɱe": 148662,
  "␣ma": 146820,
  "␣st": 146553,
  "res": 145931,
  "d␣b": 143416,
  "d␣i": 142029,
  "aŋ␣": 141636,
  "r␣t": 138733,
  "␣wɱ": 135972,
  "ŋce": 135356,
  "ŋŋ␣": 135118,
  "e␣w": 134826,
  "ve␣": 132834,
  "ɱeŋ": 132166,
  "e␣p": 131816,
  "e␣i": 131012,
  "cɱ␣": 129627,
  "ɱ␣t": 129180,
  "prŋ": 129109,
  "le␣": 127578,
  "␣we": 127267,
  "ŋte": 125351,
  "␣by": 124931,
  "cŋɱ": 124151,
  "est": 123393,
  "ive": 122678,
  "g␣t": 122537,
  "wer": 122471,
  "␣fr": 120906,
  "rs␣": 120559,
  "s␣w": 119333,
  "red": 119022,
  "ŋve": 116816,
  "s␣i": 116415,
  "␣mŋ": 116357,
  "t␣ŋ": 115855,
  "␣su": 115156,
  "␣fi": 114398,
  "␣ca": 114082,
  "ce␣": 113952,
  "␣it": 112099,
  "rŋɱ": 112057,
  "tiŋ": 112043,
  "␣nŋ": 111996,
  "iŋt": 110881,
  "␣di": 110831,
  "aiŋ": 110526,
  "rea": 110219,
  "e␣b": 110027,
  "␣at": 108964,
  "t␣a": 108677,
  "ear": 108583,
  "ŋ␣ŋ": 108499,
  "ect": 107722,
  "are": 107487,
  "ad␣": 107259,
  "eve": 106976,
  "se␣": 106692,
  "␣ar": 106336,
  "d␣ŋ": 106233,
  "frŋ": 104591,
  "␣al": 104044,
  "iti": 103876,
  "e␣r": 102853,
  "ut␣": 102322,
  "sta": 101804,
  "by␣": 101518,
  "e␣m": 99279,
  "sed": 98791,
  "ŋst": 98781,
  "ide": 97245,
  "per": 96654,
  "ŋs␣": 95348,
  "ess": 95284,
  "ŋti": 94890,
  "ŋuŋ": 93876,
  "cti": 93778,
  "iŋe": 93681,
  "␣sŋ": 93428,
  "y␣t": 92985,
  "wɱi": 92583,
  "te␣": 92337,
  "ies": 92033,
  "ŋde": 91906,
  "␣is": 91195,
  "␣pŋ": 90946,
  "ŋ␣s": 90696,
  "tra": 90532,
  "s␣f": 90361,
  "␣la": 90358,
  "ist": 90098,
  "␣pa": 89228,
  "s␣s": 88861,
  "ld␣": 88727,
  "ŋut": 88295,
  "ɱ␣a": 88247,
  "it␣": 88207,
  "e␣d": 86868,
  "der": 86766,
  "ŋrt": 86658,
  "d␣s": 86629,
  "ɱic": 86607,
  "aɱe": 86385,
  "tur": 86096,
  "ŋtɱ": 85911,
  "pla": 85497,
  "ɱad": 85477,
  "d␣f": 85207,
  "str": 85189,
  "ll␣": 84940,
  "uŋd": 84701,
  "ŋ␣i": 84563,
  "ŋ␣b": 84487,
  "ŋre": 84350,
  "ɱaŋ": 84052,
  "rat": 83763,
  "pre": 83492,
  "e␣e": 83271,
  "eeŋ": 83083,
  "y␣a": 82958,
  "ŋɱ␣": 82860,
  "d␣w": 82357,
  "e␣ɱ": 81947,
  "␣wŋ": 81859,
  "cal": 81536,
  "ry␣": 81500,
  "t␣i": 81437,
  "␣sɱ": 80991,
  "ica": 80203,
  "tŋr": 79698,
  "d␣ɱ": 79576,
  "oŋs": 79426,
  "ɱiŋ": 78654,
  "r␣a": 78584,
  "ave": 78377,
  "ŋe␣": 77892,
  "art": 77762,
  "ŋ␣ɱ": 77701,
  "ŋŋt": 77516,
  "lat": 77396,
  "ɱed": 76962,
  "ded": 76643,
  "eas": 76417,
  "era": 76391,
  "rŋu": 76225,
  "diŋ": 75981,
  "␣si": 75963,
  "par": 75859,
  "igɱ": 75532,
  "␣ex": 75369,
  "ste": 75127,
  "tic": 74997,
  "␣tr": 74820,
  "t␣w": 74294,
  "e␣l": 74006,
  "␣li": 73645,
  "iŋc": 73453,
  "act": 73419,
  "eat": 73294,
  "␣le": 73276,
  "s␣c": 73206,
  "ŋ␣c": 73122,
  "use": 72384,
  "gɱt": 72245,
  "rec": 72200,
  "riŋ": 71812,
  "␣uŋ": 71557,
  "ŋ␣w": 71534,
  "ŋŋe": 71177,
  "icɱ": 70811,
  "ure": 70522,
  "␣bu": 70387,
  "nŋt": 68583,
  "ŋal": 67972,
  "ŋɱe": 67845,
  "␣ne": 67549,
  "ŋse": 67453,
  "tɱi": 67254,
  "aŋt": 67235,
  "age": 66813,
  "teŋ": 66785,
  "ŋsi": 66272,
  "but": 65964,
  "␣ŋr": 65845,
  "␣ba": 65809,
  "ŋŋs": 65695,
  "eri": 65677,
  "ial": 65660,
  "␣cɱ": 65646,
  "eŋd": 65486,
  "␣me": 64666,
  "s␣b": 64572,
  "lar": 64249,
  "ces": 63967,
  "ic␣": 63715,
  "␣eŋ": 63597,
  "lly": 63578,
  "be␣": 63512,
  "ge␣": 63415,
  "ŋ␣p": 63234,
  "ŋur": 62982,
  "␣pl": 62892,
  "ugɱ": 62869,
  "als": 62859,
  "e␣n": 62547,
  "ty␣": 62289,
  "ble": 61964,
  "␣lŋ": 61867,
  "ɱŋu": 61850,
  "y␣ŋ": 61339,
  "s␣p": 61333,
  "ar␣": 61073,
  "rie": 60998,
  "eŋc": 60904,
  "led": 60829,
  "g␣a": 60604,
  "its": 60597,
  "ɱes": 60535,
  "sio": 59769,
  "ecŋ": 59674,
  "ŋul": 59541,
  "des": 59525,
  "sti": 59501,
  "␣fa": 59375,
  "a␣s": 59291,
  "ŋ␣f": 59144,
  "ity": 59125,
  "ssi": 58944,
  "␣pe": 58612,
  "ŋiŋ": 58467,
  "iŋs": 58458,
  "att": 58408,
  "␣ac": 58355,
  "ast": 58276,
  "ŋrɱ": 58183,
  "uld": 58039,
  "ŋts": 57934,
  "r␣ŋ": 57588,
  "ŋug": 57527,
  "␣sp": 57502,
  "ir␣": 57285,
  "pŋr": 57235,
  "ree": 57131,
  "d␣c": 57066,
  "␣bŋ": 56973,
  "iɱe": 56602,
  "␣te": 56511,
  "t␣ɱ": 56275,
  "dis": 56249,
  "de␣": 56047,
  "spe": 55961,
  "fir": 55908,
  "ill": 55848,
  "t␣s": 55254,
  "pŋs": 55191,
  "ɱav": 55114,
  "cɱa": 55077,
  "ral": 55001,
  "ŋɱp": 54975,
  "siŋ": 54941,
  "lea": 54729,
  "ŋ␣r": 54563,
  "tat": 54353,
  "tiv": 54107,
  "ŋ␣e": 53994,
  "lit": 53861,
  "aŋc": 53681,
  "ŋwn": 53464,
  "liŋ": 53333,
  "ele": 53206,
  "ɱei": 53095,
  "s␣ɱ": 53095,
  "lŋw": 52936,
  "ved": 52866,
  "raŋ": 52829,
  "ŋŋg": 52786,
  "ass": 52690,
  "ser": 52655,
  "ite": 52600,
  "cŋu": 52459,
  "␣ɱŋ": 52240,
  "lle": 52051,
  "tte": 52048,
  "␣ra": 51952,
  "ŋed": 51752,
  "tɱŋ": 51751,
  "s␣r": 51351,
  "eir": 51059,
  "rit": 50937,
  "e␣g": 50831,
  "sŋ␣": 50659,
  "tiɱ": 50656,
  "sɱe": 50611,
  "r␣s": 50588,
  "␣gr": 50575,
  "s␣d": 50560,
  "tɱr": 50476,
  "veŋ": 50350,
  "wŋr": 50303,
  "d␣p": 50190,
  "ern": 50174,
  "f␣a": 50145,
  "abl": 49995,
  "iŋa": 49736,
  "ss␣": 49495,
  "laŋ": 49354,
  "ay␣": 49301,
  "ŋ␣d": 49224,
  "ase": 49192,
  "ɱil": 49139,
  "ŋge": 49127,
  "ds␣": 48997,
  "trŋ": 48771,
  "les": 48717,
  "␣cr": 47916,
  "rst": 47529,
  "cte": 47475,
  "bee": 47443,
  "ŋtr": 47335,
  "stŋ": 47082,
  "ŋta": 46694,
  "ack": 46631,
  "wɱe": 46173,
  "irs": 46132,
  "ead": 46131,
  "ire": 46024,
  "tri": 45787,
  "l␣a": 45617,
  "rac": 45604,
  "t␣f": 45402,
  "ard": 45216,
  "␣mi": 45140,
  "deŋ": 45116,
  "fic": 45108,
  "sŋŋ": 45041,
  "app": 44988,
  "eŋe": 44776,
  "ace": 44767,
  "eɱe": 44730,
  "rel": 44563,
  "ey␣": 44530,
  "wɱŋ": 44458,
  "us␣": 44438,
  "rt␣": 44361,
  "ple": 44167,
  "␣ti": 44138,
  "ell": 44010,
  "ŋ␣m": 44007,
  "fte": 43784,
  "ade": 43658,
  "ŋdi": 43646,
  "ŋri": 43389,
  "pec": 43348,
  "y␣s": 43263,
  "ɱar": 43260,
  "uŋt": 43244,
  "sɱi": 42965,
  "t␣c": 42747,
  "iŋd": 42639,
  "ign": 42606,
  "clu": 42521,
  "␣cl": 42327,
  "cŋr": 42285,
  "ese": 42282,
  "sit": 42260,
  "ɱt␣": 42237,
  "ɱ␣ŋ": 42112,
  "␣sa": 42067,
  "cre": 42020,
  "sɱŋ": 41965,
  "reŋ": 41914,
  "aft": 41852,
  "ced": 41843,
  "ɱas": 41653,
  "tes": 41614,
  "d␣m": 41587,
  "ely": 41469,
  "␣fe": 41260,
  "d␣n": 41250,
  "d␣d": 41242,
  "␣ab": 41195,
  "y␣i": 41101,
  "␣dŋ": 40783,
  "ice": 40567,
  "ŋɱɱ": 40526,
  "iŋi": 40513,
  "ceŋ": 40348,
  "eci": 40285,
  "␣br": 40269,
  "duc": 40261,
  "d␣r": 40102,
  "s␣m": 40047,
  "ŋll": 40028,
  "ŋwe": 39958,
  "␣ea": 39933,
  "rep": 39873,
  "vel": 39860,
  "ula": 39783,
  "rti": 39774,
  "ŋrd": 39546,
  "cat": 39464,
  "twŋ": 39366,
  "s␣n": 39303,
  "ise": 39179,
  "lsŋ": 39177,
  "y␣w": 39170,
  "gɱ␣": 39136,
  "␣tw": 39088,
  "lay": 39084,
  "wn␣": 38994,
  "a␣c": 38866,
  "ŋtŋ": 38820,
  "␣us": 38815,
  "r␣c": 38727,
  "sid": 38700,
  "␣rŋ": 38654,
  "cɱe": 38628,
  "seŋ": 38531,
  "␣sc": 38460,
  "t␣b": 38445,
  "ew␣": 38421,
  "ls␣": 38379,
  "ŋcl": 38317,
  "r␣i": 38153,
  "s␣l": 38127,
  "uri": 38113,
  "acɱ": 38096,
  "war": 38071,
  "ŋpe": 38060,
  "ari": 37947,
  "ual": 37729,
  "maŋ": 37593,
  "sse": 37546,
  "␣da": 37523,
  "caŋ": 37498,
  "y␣c": 37498,
  "isɱ": 37446,
  "lis": 37371,
  "␣ga": 37366,
  "l␣t": 37315,
  "bec": 37312,
  "wŋu": 37222,
  "tal": 37216,
  "rge": 36894,
  "taŋ": 36860,
  "a␣p": 36826,
  "wiŋ": 36824,
  "ses": 36809,
  "exp": 36717,
  "ɱŋr": 36714,
  "ile": 36571,
  "et␣": 36512,
  "kiŋ": 36468,
  "suc": 36459,
  "fer": 36428,
  "reɱ": 36273,
  "ck␣": 36225,
  "id␣": 36190,
  "ŋy␣": 36178,
  "mŋr": 36115,
  "␣ta": 36110,
  "s␣e": 36009,
  "ŋdu": 35883,
  "aŋy": 35883,
  "␣na": 35789,
  "gra": 35770,
  "r␣w": 35674,
  "ɱŋ␣": 35670,
  "cia": 35652,
  "ct␣": 35478,
  "ult": 35450,
  "arg": 35379,
  "fŋu": 35294,
  "ffe": 35284,
  "ɱey": 35256,
  "␣ad": 35156,
  "geŋ": 35110,
  "ɱpl": 35106,
  "tar": 35094,
  "aŋg": 35066,
  "␣pu": 34977,
  "ŋw␣": 34845,
  "llŋ": 34844,
  "␣ev": 34824,
  "g␣ŋ": 34803,
  "cri": 34753,
  "ɱip": 34678,
  "uct": 34668,
  "ber": 34582,
  "t␣p": 34354,
  "␣mu": 34300,
  "ɱ␣w": 34201,
  "lac": 34199,
  "␣ap": 34145,
  "giŋ": 34125,
  "y␣f": 34081,
  "lud": 34071,
  "ŋŋd": 34016,
  "ars": 34005,
  "␣ŋt": 33976,
  "ɱ␣i": 33973,
  "ŋff": 33941,
  "arr": 33869,
  "tai": 33746,
  "rai": 33624,
  "r␣f": 33619,
  "␣vi": 33591,
  "ŋus": 33572,
  "eca": 33558,
  "ɱ␣ɱ": 33438,
  "ake": 33411,
  "lŋŋ": 33325,
  "␣ag": 33311,
  "ŋrk": 33230,
  "ied": 33192,
  "wŋ␣": 33162,
  "oŋa": 33151,
  "pri": 33150,
  "␣du": 33068,
  "ary": 33018,
  "ili": 33016,
  "d␣e": 33011,
  "ucɱ": 32953,
  "ges": 32941,
  "caɱ": 32906,
  "ŋes": 32802,
  "eŋs": 32784,
  "ɱea": 32618,
  "l␣s": 32564,
  "ali": 32508,
  "erv": 32483,
  "sur": 32423,
  "usi": 32379,
  "␣af": 32376,
  "atɱ": 32358,
  "teɱ": 32250,
  "esi": 32231,
  "r␣p": 32076,
  "ɱiɱ": 31908,
  "tle": 31882,
  "sig": 31831,
  "peŋ": 31781,
  "edi": 31745,
  "y␣b": 31714,
  "ɱal": 31707,
  "ɱeɱ": 31688,
  "ɱs␣": 31630,
  "abŋ": 31604,
  "ici": 31587,
  "ret": 31584,
  "␣ŋv": 31469,
  "f␣ɱ": 31450,
  "␣iɱ": 31446,
  "tre": 31434,
  "ŋly": 31385,
  "r␣ɱ": 31326,
  "␣ŋu": 31182,
  "meŋ": 31157,
  "rd␣": 31145,
  "ŋds": 31057,
  "sec": 30994,
  "rtɱ": 30950,
  "yea": 30851,
  "g␣i": 30840,
  "␣ye": 30744,
  "fiŋ": 30741,
  "ɱbe": 30698,
  "eli": 30681,
  "bli": 30660,
  "ɱŋŋ": 30584,
  "viŋ": 30534,
  "lic": 30531,
  "rŋŋ": 30529,
  "e␣u": 30448,
  "ara": 30398,
  "␣ŋp": 30383,
  "aŋs": 30352,
  "tly": 30256,
  "ŋgs": 30202,
  "gre": 30193,
  "ned": 30193,
  "cɱi": 30115,
  "tru": 30086,
  "d␣l": 30069,
  "ppe": 30036,
  "ŋ␣l": 29915,
  "ivi": 29895,
  "t␣d": 29838,
  "ria": 29823,
  "l␣ŋ": 29707,
  "eɱa": 29632,
  "ric": 29328,
  "␣gŋ": 29240,
  "isi": 29199,
  "ɱ␣s": 29198,
  "cul": 29193,
  "aŋi": 29191,
  "a␣m": 29160,
  "l␣c": 29116,
  "rte": 29065,
  "ee␣": 28972,
  "wee": 28946,
  "sea": 28864,
  "ppŋ": 28848,
  "lec": 28846,
  "ɱŋs": 28793,
  "equ": 28787,
  "cie": 28690,
  "ieŋ": 28673,
  "rev": 28570,
  "ɱit": 28491,
  "mŋs": 28423,
  "evi": 28323,
  "lie": 28306,
  "atu": 28283,
  "sel": 28220,
  "iɱp": 28217,
  "eac": 28214,
  "ŋci": 28183,
  "ail": 28174,
  "rri": 28170,
  "␣fl": 28168,
  "ous": 28136,
  "␣fu": 28092,
  "arl": 28079,
  "car": 28051,
  "y␣ɱ": 28033,
  "sŋɱ": 27865,
  "ŋat": 27852,
  "rce": 27833,
  "ita": 27773,
  "urn": 27761,
  "grŋ": 27729,
  "nŋw": 27702,
  "new": 27638,
  "y␣r": 27523,
  "acc": 27515,
  "eed": 27471,
  "bŋu": 27444,
  "y␣d": 27440,
  "ŋŋl": 27418,
  "ŋss": 27358,
  "ŋld": 27322,
  "ust": 27288,
  "ɱrŋ": 27281,
  "a␣f": 27268,
  "t␣m": 27238,
  "ece": 27208,
  "rde": 27194,
  "ete": 27167,
  "ert": 27133,
  "ffi": 27114,
  "lli": 27096,
  "dit": 27096,
  "eɱp": 27089,
  "iss": 27024,
  "iɱa": 27017,
  "ŋli": 26986,
  "rŋd": 26979,
  "ega": 26970,
  "ke␣": 26960,
  "␣up": 26925,
  "ude": 26889,
  "t␣r": 26887,
  "ves": 26885,
  "ext": 26881,
  "lŋs": 26840,
  "ŋrs": 26721,
  "rŋv": 26698,
  "udi": 26601,
  "r␣m": 26399,
  "til": 26393,
  "pea": 26348,
  "tie": 26289,
  "dec": 26260,
  "rŋp": 26258,
  "ifi": 26205,
  "cŋl": 26074,
  "␣ce": 26007,
  "nat": 25982,
  "␣ge": 25957,
  "rcɱ": 25763,
  "␣dr": 25762,
  "f␣s": 25750,
  "r␣b": 25746,
  "que": 25713,
  "y␣p": 25680,
  "a␣r": 25675,
  "a␣t": 25538,
  "rio": 25496,
  "eti": 25474,
  "ue␣": 25357,
  "ŋit": 25342,
  "ɱre": 25339,
  "bet": 25330,
  "ŋok": 25329,
  "rig": 25295,
  "sŋu": 25213,
  "ur␣": 25015,
  "rn␣": 25011,
  "ale": 24948,
  "aga": 24942,
  "air": 24926,
  "sup": 24907,
  "niŋ": 24888,
  "gai": 24852,
  "ris": 24805,
  "ked": 24772,
  "vid": 24772,
  "ɱpa": 24740,
  "g␣s": 24739,
  "ŋvi": 24628,
  "ŋis": 24556,
  "ɱŋw": 24555,
  "rly": 24528,
  "twe": 24514,
  "iou": 24503,
  "rre": 24488,
  "eal": 24446,
  "ped": 24439,
  "cce": 24423,
  "␣ri": 24419,
  "uŋi": 24401,
  "tel": 24390,
  "tea": 24234,
  "ŋer": 24212,
  "dur": 24065,
  "ŋɱi": 23954,
  "ɱɱe": 23902,
  "ict": 23889,
  "l␣p": 23800,
  "ery": 23793,
  "ubl": 23771,
  "␣el": 23769,
  "cau": 23769,
  "sis": 23767,
  "cer": 23740,
  "gaŋ": 23739,
  "ged": 23674,
  "vis": 23651,
  "ŋra": 23629,
  "reg": 23567,
  "up␣": 23562,
  "gaɱ": 23552,
  "a␣l": 23525,
  "r␣r": 23519,
  "aus": 23472,
  "ŋŋc": 23468,
  "sts": 23454,
  "ks␣": 23436,
  "ɱel": 23335,
  "s␣u": 23294,
  "scr": 23277,
  "rib": 23240,
  "ute": 23175,
  "lŋc": 23139,
  "iɱ␣": 23100,
  "sev": 23055,
  "cla": 23018,
  "alt": 23005,
  "ref": 22929,
  "ɱpŋ": 22895,
  "let": 22863,
  "etw": 22683,
  "way": 22682,
  "las": 22667,
  "upp": 22662,
  "␣ve": 22606,
  "rɱe": 22598,
  "rŋt": 22496,
  "lig": 22494,
  "spŋ": 22445,
  "rɱa": 22436,
  "ŋry": 22425,
  "ger": 22425,
  "eɱ␣": 22393,
  "r␣d": 22350,
  "gs␣": 22332,
  "utɱ": 22212,
  "ful": 22157,
  "efŋ": 22151,
  "aye": 22121,
  "qui": 22112,
  "esp": 22079,
  "fil": 22075,
  "ɱig": 22030,
  "ize": 21960,
  "ŋod": 21945,
  "ŋca": 21936,
  "t␣e": 21892,
  "e␣v": 21883,
  "g␣w": 21811,
  "uti": 21761,
  "l␣i": 21693,
  "adi": 21642,
  "cle": 21634,
  "bat": 21633,
  "tia": 21585,
  "g␣f": 21582,
  "a␣d": 21531,
  "itt": 21526,
  "ps␣": 21500,
  "elŋ": 21467,
  "sub": 21413,
  "rad": 21412,
  "tit": 21392,
  "iŋf": 21368,
  "pŋŋ": 21179,
  "ild": 21152,
  "esc": 21083,
  "fac": 21060,
  "ɱ␣c": 20990,
  "g␣ɱ": 20921,
  "die": 20845,
  "sic": 20734,
  "pŋl": 20720,
  "tcɱ": 20697,
  "iat": 20694,
  "ruc": 20690,
  "t␣l": 20646,
  "eiŋ": 20627,
  "knŋ": 20608,
  "lt␣": 20608,
  "iɱi": 20576,
  "uŋc": 20554,
  "aɱp": 20529,
  "rŋl": 20526,
  "cit": 20517,
  "␣nu": 20516,
  "cur": 20452,
  "␣ci": 20318,
  "efe": 20235,
  "pub": 20208,
  "tŋo": 20161,
  "ttl": 20136,
  "y␣m": 20124,
  "sŋl": 20123,
  "egi": 20103,
  "cɱŋ": 20075,
  "riv": 19973,
  "ɱai": 19893,
  "qua": 19887,
  "eɱŋ": 19885,
  "ŋrc": 19867,
  "␣bi": 19746,
  "naɱ": 19723,
  "␣va": 19669,
  "cas": 19638,
  "eŋg": 19559,
  "r␣e": 19553,
  "rne": 19531,
  "mus": 19456,
  "aŋn": 19454,
  "l␣f": 19445,
  "ela": 19440,
  "fŋl": 19404,
  "dea": 19380,
  "d␣u": 19349,
  "beg": 19340,
  "nŋr": 19330,
  "rds": 19319,
  "ueŋ": 19153,
  "dep": 19135,
  "ick": 19133,
  "mat": 19122,
  "cap": 19117,
  "el␣": 19107,
  "␣es": 19089,
  "mad": 19070,
  "stu": 19022,
  "day": 19020,
  "val": 19019,
  "eaɱ": 19005,
  "ŋle": 18984,
  "rse": 18925,
  "tab": 18921,
  "ark": 18917,
  "il␣": 18915,
  "rk␣": 18899,
  "tak": 18882,
  "asi": 18872,
  "ŋ␣g": 18867,
  "␣qu": 18795,
  "eɱb": 18778,
  "ŋ␣u": 18743,
  "ctŋ": 18690,
  "mŋŋ": 18690,
  "ip␣": 18684,
  "ɱ␣f": 18678,
  "arɱ": 18631,
  "␣kn": 18626,
  "yiŋ": 18595,
  "wel": 18549,
  "ŋlŋ": 18542,
  "␣pi": 18540,
  "tac": 18529,
  "a␣b": 18528,
  "bel": 18492,
  "brŋ": 18485,
  "erɱ": 18482,
  "ura": 18346,
  "f␣i": 18323,
  "uce": 18296,
  "mar": 18168,
  "ept": 18168,
  "␣wr": 18155,
  "rve": 18155,
  "f␣c": 18125,
  "dev": 18125,
  "rŋs": 18111,
  "l␣r": 18044,
  "iŋu": 18041,
  "bas": 18030,
  "baŋ": 17970,
  "did": 17952,
  "igi": 17931,
  "avi": 17918,
  "paŋ": 17879,
  "bef": 17872,
  "aɱi": 17864,
  "eld": 17765,
  "nuɱ": 17707,
  "ike": 17686,
  "scŋ": 17676,
  "pai": 17674,
  "ŋne": 17674,
  "urr": 17660,
  "eta": 17658,
  "fie": 17600,
  "dif": 17576,
  "pti": 17575,
  "ler": 17553,
  "g␣c": 17497,
  "fea": 17479,
  "uil": 17447,
  "iff": 17446,
  "ŋgi": 17435,
  "clŋ": 17429,
  "ily": 17423,
  "erf": 17417,
  "pul": 17389,
  "rŋw": 17340,
  "rvi": 17336,
  "urt": 17328,
  "ŋwi": 17306,
  "tud": 17255,
  "leg": 17234,
  "ett": 17230,
  "rɱ␣": 17207,
  "␣ɱu": 17205,
  "dic": 17195,
  "cke": 17192,
  "ues": 17174,
  "bŋt": 17160,
  "yed": 17159,
  "arc": 17152,
  "y␣e": 17151,
  "f␣p": 17027,
  "mal": 17006,
  "ɱet": 16989,
  "␣ru": 16979,
  "bil": 16957,
  "a␣n": 16900,
  "d␣g": 16857,
  "leŋ": 16855,
  "uɱe": 16812,
  "␣cu": 16808,
  "xpe": 16783,
  "wed": 16782,
  "eig": 16781,
  "ɱŋt": 16757,
  "ŋda": 16732,
  "set": 16706,
  "uɱb": 16689,
  "g␣p": 16676,
  "iaŋ": 16663,
  "pat": 16583,
  "ŋtl": 16579,
  "lŋg": 16578,
  "uɱ␣": 16553,
  "see": 16548,
  "r␣l": 16545,
  "␣bl": 16530,
  "lve": 16510,
  "vic": 16498,
  "␣aɱ": 16496,
  "l␣w": 16475,
  "iŋv": 16462,
  "rts": 16406,
  "y␣l": 16395,
  "ilɱ": 16345,
  "k␣ŋ": 16316,
  "ays": 16312,
  "jec": 16257,
  "wri": 16250,
  "bac": 16241,
  "ier": 16237,
  "bui": 16226,
  "vie": 16211,
  "isŋ": 16209,
  "rta": 16186,
  "ok␣": 16183,
  "pŋi": 16177,
  "ŋ␣n": 16138,
  "asŋ": 16136,
  "def": 16106,
  "crŋ": 16093,
  "urs": 16086,
  "rap": 16057,
  "vŋl": 16021,
  "pas": 15963,
  "mil": 15919,
  "f␣w": 15900,
  "dat": 15875,
  "ɱ␣p": 15865,
  "aid": 15830,
  "err": 15828,
  "leɱ": 15827,
  "atŋ": 15813,
  "od␣": 15793,
  "sma": 15762,
  "lŋp": 15760,
  "bri": 15708,
  "ctu": 15681,
  "s␣g": 15674,
  "cts": 15650,
  "␣gi": 15642,
  "aŋe": 15627,
  "spi": 15614,
  "ft␣": 15574,
  "mŋv": 15572,
  "isc": 15558,
  "ucc": 15553,
  "nŋ␣": 15524,
  "lai": 15524,
  "ŋck": 15478,
  "␣ki": 15446,
  "sib": 15436,
  "mai": 15426,
  "miŋ": 15415,
  "l␣b": 15406,
  "ɱŋl": 15369,
  "pic": 15349,
  "etɱ": 15329,
  "tta": 15310,
  "bei": 15292,
  "rŋa": 15266,
  "cŋv": 15233,
  "fec": 15161,
  "l␣d": 15148,
  "a␣w": 15146,
  "ibl": 15132,
  "␣sy": 15086,
  "f␣m": 15037,
  "try": 14995,
  "may": 14927,
  "del": 14926,
  "ys␣": 14915,
  "ŋup": 14884,
  "ŋtu": 14861,
  "erc": 14843,
  "dŋw": 14836,
  "div": 14780,
  "ssu": 14753,
  "lif": 14750,
  "␣eɱ": 14740,
  "ɱ␣m": 14731,
  "t␣n": 14725,
  "ife": 14697,
  "dia": 14696,
  "alŋ": 14631,
  "meɱ": 14572,
  "ibe": 14550,
  "pŋp": 14549,
  "ŋsp": 14527,
  "tua": 14497,
  "piŋ": 14473,
  "ull": 14461,
  "lik": 14460,
  "eff": 14411,
  "add": 14396,
  "rŋc": 14386,
  "ɱ␣b": 14382,
  "ŋgr": 14378,
  "siv": 14374,
  "ued": 14352,
  "epa": 14322,
  "ŋic": 14305,
  "aɱ␣": 14295,
  "eŋi": 14293,
  "ŋpp": 14271,
  "ŋpu": 14264,
  "dre": 14212,
  "icu": 14150,
  "gat": 14145,
  "dy␣": 14134,
  "rŋo": 14127,
  "yer": 14089,
  "␣sm": 14064,
  "scɱ": 14041,
  "tec": 14034,
  "l␣m": 14011,
  "eet": 13994,
  "ila": 13988,
  "lla": 13987,
  "wat": 13941,
  "vat": 13892,
  "n␣a": 13886,
  "rna": 13869,
  "ŋgl": 13852,
  "iew": 13823,
  "mak": 13823,
  "eav": 13813,
  "ics": 13774,
  "ŋad": 13770,
  "dra": 13763,
  "rag": 13753,
  "aŋŋ": 13752,
  "plŋ": 13742,
  "gni": 13727,
  "itu": 13717,
  "dge": 13705,
  "tŋw": 13667,
  "␣ai": 13664,
  "ecu": 13664,
  "liv": 13661,
  "ŋcŋ": 13633,
  "␣au": 13627,
  "␣sl": 13606,
  "␣ŋb": 13569,
  "eak": 13564,
  "bit": 13557,
  "ism": 13553,
  "cep": 13546,
  "ɱpe": 13544,
  "atc": 13522,
  "lev": 13503,
  "sla": 13456,
  "esu": 13450,
  "aɱŋ": 13441,
  "␣gu": 13428,
  "ɱpt": 13418,
  "sul": 13387,
  "f␣f": 13379,
  "get": 13365,
  "gŋv": 13364,
  "pli": 13355,
  "ner": 13330,
  "cra": 13325,
  "g␣b": 13286,
  "p␣t": 13253,
  "lŋo": 13240,
  "yŋu": 13224,
  "␣tu": 13221,
  "ldi": 13210,
  "ŋni": 13164,
  "ŋcr": 13154,
  "f␣ŋ": 13148,
  "cei": 13140,
  "a␣g": 13134,
  "vio": 13118,
  "lf␣": 13113,
  "ŋŋŋ": 13099,
  "k␣t": 13087,
  "ɱŋɱ": 13075,
  "␣vŋ": 13069,
  "iev": 13062,
  "aut": 13052,
  "ŋue": 13040,
  "ɱag": 13036,
  "pit": 13030,
  "faɱ": 13011,
  "w␣t": 13002,
  "epŋ": 13002,
  "eɱi": 13002,
  "ape": 12984,
  "a␣ɱ": 12927,
  "l␣e": 12919,
  "siɱ": 12917,
  "tis": 12909,
  "ŋar": 12875,
  "rɱi": 12847,
  "req": 12842,
  "ccu": 12817,
  "ird": 12804,
  "elf": 12790,
  "rke": 12785,
  "ɱuŋ": 12744,
  "ŋŋi": 12729,
  "mŋd": 12725,
  "ede": 12696,
  "abi": 12681,
  "ltɱ": 12673,
  "k␣a": 12672,
  "rsi": 12606,
  "arŋ": 12592,
  "bed": 12588,
  "eiv": 12575,
  "giv": 12530,
  "ppr": 12507,
  "riɱ": 12497,
  "␣ju": 12479,
  "raɱ": 12470,
  "fre": 12466,
  "ets": 12465,
  "pt␣": 12438,
  "␣ŋw": 12425,
  "lue": 12419,
  "lti": 12411,
  "ŋŋf": 12397,
  "gle": 12395,
  "␣ef": 12371,
  "n␣t": 12332,
  "var": 12318,
  "aŋa": 12314,
  "ws␣": 12303,
  "cid": 12301,
  "adv": 12240,
  "tag": 12218,
  "ŋɱb": 12201,
  "dir": 12198,
  "ŋŋa": 12197,
  "pte": 12191,
  "sɱa": 12191,
  "g␣m": 12181,
  "iva": 12175,
  "bre": 12141,
  "ea␣": 12129,
  "zed": 12098,
  "aɱa": 12097,
  "tee": 12093,
  "nea": 12058,
  "uit": 12055,
  "ŋcc": 12048,
  "␣ŋc": 12039,
  "apt": 12008,
  "yst": 11995,
  "urc": 11975,
  "els": 11969,
  "ips": 11954,
  "gne": 11951,
  "sɱ␣": 11903,
  "ciŋ": 11895,
  "ccŋ": 11881,
  "ɱŋo": 11877,
  "aci": 11873,
  "bŋr": 11867,
  "met": 11858,
  "ŋŋv": 11790,
  "rfŋ": 11789,
  "lls": 11787,
  "bal": 11763,
  "iŋn": 11735,
  "etu": 11733,
  "edu": 11728,
  "ɱ␣r": 11718,
  "wɱa": 11640,
  "tif": 11622,
  "epi": 11618,
  "saɱ": 11599,
  "rdi": 11588,
  "ɱy␣": 11585,
  "␣yŋ": 11551,
  "gn␣": 11515,
  "ruŋ": 11498,
  "sal": 11487,
  "det": 11444,
  "mea": 11435,
  "awa": 11422,
  "␣pɱ": 11396,
  "ŋcɱ": 11389,
  "bse": 11366,
  "l␣ɱ": 11359,
  "liɱ": 11358,
  "gge": 11357,
  "flŋ": 11352,
  "nɱe": 11346,
  "deɱ": 11335,
  "ŋfl": 11327,
  "ket": 11316,
  "ŋct": 11310,
  "nes": 11285,
  "aff": 11280,
  "ɱɱa": 11280,
  "aŋk": 11279,
  "cus": 11277,
  "␣av": 11262,
  "mis": 11252,
  "ɱ␣d": 11244,
  "tŋp": 11244,
  "eer": 11226,
  "sŋc": 11224,
  "erŋ": 11213,
  "pŋw": 11195,
  "spa": 11187,
  "sai": 11168,
  "ŋke": 11161,
  "keŋ": 11154,
  "rid": 11144,
  "ugg": 11109,
  "irc": 11107,
  "e␣k": 11090,
  "rip": 11077,
  "epr": 11075,
  "epl": 11009,
  "rnɱ": 10988,
  "ɱir": 10955,
  "exc": 10951,
  "gue": 10935,
  "eop": 10914,
  "lio": 10911,
  "wea": 10905,
  "rŋg": 10871,
  "pac": 10868,
  "fai": 10830,
  "ɱpr": 10806,
  "ŋpi": 10786,
  "ŋsu": 10763,
  "wil": 10747,
  "gio": 10747,
  "f␣r": 10741,
  "t␣u": 10733,
  "ubs": 10729,
  "ŋpŋ": 10720,
  "cks": 10719,
  "ɱie": 10692,
  "rar": 10656,
  "␣jŋ": 10654,
  "ɱ␣e": 10652,
  "rni": 10631,
  "aki": 10621,
  "r␣n": 10620,
  "ɱɱi": 10619,
  "cut": 10604,
  "put": 10598,
  "raf": 10594,
  "cis": 10593,
  "f␣e": 10584,
  "g␣d": 10577,
  "bra": 10536,
  "ssa": 10516,
  "eɱs": 10494,
  "sŋr": 10491,
  "uŋg": 10479,
  "uŋs": 10479,
  "f␣d": 10473,
  "sce": 10466,
  "e␣y": 10466,
  "ŋol": 10454,
  "wes": 10452,
  "ul␣": 10439,
  "suɱ": 10436,
  "rŋb": 10394,
  "epe": 10370,
  "ecɱ": 10360,
  "fig": 10349,
  "tŋŋ": 10319,
  "ɱ␣l": 10319,
  "erg": 10312,
  "jŋr": 10277,
  "f␣b": 10277,
  "t␣g": 10275,
  "ŋŋɱ": 10270,
  "maj": 10266,
  "or␣": 10253,
  "ŋlv": 10240,
  "opl": 10238,
  "ajŋ": 10232,
  "bŋo": 10225,
  "peo": 10214,
  "eaŋ": 10201,
  "vil": 10200,
  "muc": 10187,
  "rew": 10156,
  "lab": 10155,
  "drŋ": 10099,
  "g␣r": 10069,
  "ŋft": 10061,
  "ŋlu": 10061,
  "sue": 10061,
  "sua": 10030,
  "ɱɱŋ": 10027,
  "l␣l": 9989,
  "r␣g": 9985,
  "rrŋ": 9954,
  "tŋu": 9952,
  "ɱuɱ": 9921,
  "fle": 9906,
  "dar": 9886,
  "wid": 9886,
  "flu": 9884,
  "biŋ": 9879,
  "ava": 9856,
  "feŋ": 9833,
  "ŋot": 9813,
  "␣ni": 9812,
  "fuŋ": 9789,
  "sca": 9782,
  "ibu": 9781,
  "ŋet": 9765,
  "apɱ": 9744,
  "␣id": 9730,
  "eŋa": 9728,
  "ior": 9695,
  "fur": 9681,
  "bly": 9648,
  "␣aw": 9644,
  "sys": 9640,
  "ŋŋu": 9637,
  "aiɱ": 9624,
  "lte": 9618,
  "iuɱ": 9587,
  "rɱs": 9582,
  "itŋ": 9582,
  "ibi": 9571,
  "xte": 9563,
  "ssŋ": 9553,
  "cli": 9542,
  "bes": 9537,
  "pie": 9507,
  "ŋrg": 9476,
  "ŋp␣": 9452,
  "ras": 9446,
  "eep": 9426,
  "p␣ŋ": 9401,
  "f␣l": 9383,
  "eek": 9370,
  "vit": 9346,
  "rav": 9342,
  "ŋrn": 9329,
  "cel": 9319,
  "pra": 9294,
  "lia": 9282,
  "ŋaŋ": 9275,
  "ff␣": 9272,
  "cip": 9272,
  "isl": 9204,
  "cs␣": 9182,
  "d␣v": 9173,
  "typ": 9137,
  "ŋgu": 9137,
  "dŋɱ": 9115,
  "rsŋ": 9102,
  "uir": 9068,
  "kil": 9066,
  "tti": 9060,
  "uar": 9059,
  "ŋeŋ": 9056,
  "pur": 9031,
  "gar": 9003,
  "rga": 8993,
  "␣ei": 8987,
  "arn": 8982,
  "tɱs": 8962,
  "eŋŋ": 8954,
  "ais": 8951,
  "isp": 8928,
  "sug": 8921,
  "alb": 8862,
  "iel": 8862,
  "six": 8857,
  "ddi": 8856,
  "lŋr": 8853,
  "ŋdŋ": 8851,
  "g␣e": 8849,
  "daɱ": 8843,
  "pir": 8820,
  "xpl": 8816,
  "uat": 8803,
  "ɱur": 8798,
  "isa": 8781,
  "oŋe": 8764,
  "avŋ": 8764,
  "etr": 8745,
  "y␣u": 8739,
  "exa": 8687,
  "vaŋ": 8663,
  "ŋnŋ": 8654,
  "ŋɱa": 8635,
  "␣ed": 8623,
  "lŋt": 8621,
  "ŋws": 8599,
  "due": 8581,
  "rsɱ": 8575,
  "ilt": 8571,
  "cŋa": 8542,
  "ŋla": 8538,
  "ŋcu": 8523,
  "sil": 8521,
  "fiv": 8511,
  "lef": 8497,
  "tŋɱ": 8491,
  "rks": 8489,
  "agr": 8478,
  "ɱse": 8468,
  "y␣n": 8464,
  "bar": 8462,
  "pe␣": 8461,
  "lɱ␣": 8426,
  "aw␣": 8422,
  "ŋoŋ": 8417,
  "ury": 8412,
  "ŋye": 8405,
  "buɱ": 8389,
  "eft": 8378,
  "bir": 8370,
  "ule": 8361,
  "tir": 8359,
  "ŋ␣v": 8353,
  "fla": 8351,
  "ŋor": 8333,
  "s␣v": 8325,
  "med": 8324,
  "cy␣": 8304,
  "rŋy": 8300,
  "lde": 8294,
  "fel": 8285,
  "rty": 8276,
  "c␣a": 8267,
  "iɱs": 8255,
  "ŋiɱ": 8255,
  "ecr": 8249,
  "pɱy": 8244,
  "lbu": 8226,
  "rra": 8211,
  "ŋfi": 8192,
  "w␣a": 8191,
  "ŋwl": 8186,
  "rli": 8173,
  "ews": 8169,
  "jus": 8169,
  "far": 8168,
  "bla": 8166,
  "ŋrl": 8164,
  "iod": 8136,
  "pɱŋ": 8134,
  "ŋvŋ": 8119,
  "rld": 8116,
  "p␣a": 8094,
  "nec": 8090,
  "pɱi": 8089,
  "few": 8087,
  "seq": 8087,
  "bŋa": 8075,
  "pet": 8062,
  "ppl": 8052,
  "sci": 8048,
  "gui": 8003,
  "ɱte": 7994,
  "ift": 7993,
  "ŋɱŋ": 7987,
  "mas": 7948,
  "l␣g": 7945,
  "fŋo": 7915,
  "sat": 7904,
  "ŋbs": 7896,
  "pɱe": 7875,
  "rei": 7868,
  "ŋfŋ": 7839,
  "if␣": 7831,
  "ief": 7805,
  "y␣g": 7800,
  "bŋd": 7795,
  "mŋt": 7773,
  "ŋag": 7767,
  "dua": 7761,
  "␣sk": 7722,
  "ŋac": 7701,
  "a␣v": 7677,
  "lus": 7674,
  "␣ke": 7668,
  "guŋ": 7664,
  "urv": 7661,
  "dri": 7656,
  "ŋk␣": 7650,
  "xt␣": 7634,
  "uff": 7611,
  "ɱɱu": 7606,
  "k␣i": 7603,
  "iet": 7596,
  "daŋ": 7594,
  "efu": 7591,
  "fri": 7579,
  "bje": 7559,
  "sly": 7550,
  "cru": 7546,
  "dŋŋ": 7530,
  "ŋfe": 7530,
  "pme": 7516,
  "rus": 7514,
  "lut": 7510,
  "ŋrp": 7492,
  "bea": 7465,
  "fe␣": 7461,
  "fal": 7453,
  "tme": 7450,
  "efi": 7443,
  "luɱ": 7392,
  "acr": 7378,
  "ecl": 7376,
  "ɱbi": 7349,
  "elp": 7343,
  "rui": 7338,
  "ŋrr": 7326,
  "ker": 7324,
  "iɱɱ": 7299,
  "iŋk": 7298,
  "ayi": 7294,
  "dio": 7280,
  "saŋ": 7270,
  "ns␣": 7264,
  "mag": 7248,
  "eva": 7246,
  "␣if": 7233,
  "ctr": 7231,
  "dŋ␣": 7225,
  "pŋt": 7218,
  "dly": 7216,
  "aug": 7207,
  "exi": 7206,
  "scu": 7205,
  "uis": 7204,
  "ege": 7204,
  "weŋ": 7198,
  "␣ty": 7171,
  "bus": 7143,
  "ats": 7124,
  "rab": 7124,
  "usl": 7116,
  "k␣w": 7107,
  "fli": 7105,
  "ŋdy": 7074,
  "wrŋ": 7052,
  "fee": 7044,
  "nex": 7038,
  "kes": 7022,
  "fat": 6998,
  "ix␣": 6966,
  "sty": 6961,
  "iga": 6961,
  "sfu": 6955,
  "uɱa": 6951,
  "ask": 6946,
  "ŋsa": 6911,
  "egu": 6909,
  "p␣w": 6901,
  "ŋva": 6890,
  "gul": 6890,
  "evŋ": 6888,
  "ɱŋp": 6862,
  "ssf": 6840,
  "law": 6829,
  "seɱ": 6829,
  "lag": 6817,
  "g␣l": 6815,
  "itl": 6811,
  "ŋwa": 6799,
  "ze␣": 6791,
  "eeɱ": 6786,
  "fra": 6766,
  "ipa": 6758,
  "elt": 6748,
  "ewe": 6730,
  "ipt": 6718,
  "tŋg": 6711,
  "uŋ␣": 6700,
  "asɱ": 6694,
  "ŋgt": 6677,
  "gic": 6662,
  "mŋu": 6643,
  "cŋp": 6636,
  "uts": 6625,
  "viv": 6619,
  "alf": 6619,
  "ril": 6614,
  "beh": 6608,
  "stl": 6594,
  "jŋi": 6539,
  "wŋɱ": 6531,
  "ees": 6527,
  "fus": 6518,
  "pis": 6514,
  "ziŋ": 6509,
  "veɱ": 6508,
  "atr": 6501,
  "raw": 6497,
  "nif": 6485,
  "xaɱ": 6473,
  "iŋŋ": 6471,
  "wal": 6469,
  "ŋŋr": 6466,
  "n␣ŋ": 6466,
  "liz": 6450,
  "ŋcy": 6449,
  "lŋy": 6429,
  "gtɱ": 6422,
  "gɱe": 6422,
  "ŋŋn": 6417,
  "ŋl␣": 6411,
  "gis": 6410,
  "icl": 6408,
  "eit": 6403,
  "␣ŋl": 6400,
  "l␣n": 6399,
  "arb": 6397,
  "r␣u": 6391,
  "blŋ": 6370,
  "f␣n": 6362,
  "ala": 6360,
  "ɱap": 6349,
  "nev": 6344,
  "bur": 6343,
  "nee": 6341,
  "aig": 6340,
  "dde": 6319,
  "api": 6297,
  "adɱ": 6277,
  "␣ep": 6273,
  "c␣s": 6259,
  "spl": 6254,
  "idi": 6252,
  "ŋio": 6239,
  "ɱ␣n": 6224,
  "uŋa": 6216,
  "nal": 6209,
  "kel": 6161,
  "ŋsɱ": 6155,
  "nŋŋ": 6154,
  "s␣k": 6153,
  "dɱi": 6152,
  "␣sw": 6151,
  "fes": 6132,
  "ysi": 6111,
  "alɱ": 6110,
  "ŋbl": 6107,
  "dul": 6102,
  "ŋeɱ": 6085,
  "ske": 6077,
  "sŋd": 6076,
  "gal": 6073,
  "ŋie": 6066,
  "rŋf": 6058,
  "lŋu": 6057,
  "pee": 6055,
  "f␣g": 6047,
  "exe": 6046,
  "␣eq": 6031,
  "ipl": 6030,
  "ŋop": 6027,
  "gua": 6005,
  "rtu": 5988,
  "suf": 5987,
  "ŋoɱ": 5980,
  "pɱa": 5970,
  "ɱts": 5964,
  "ŋsŋ": 5962,
  "usu": 5955,
  "tyl": 5947,
  "ŋje": 5942,
  "␣gl": 5941,
  "rva": 5936,
  "w␣ŋ": 5933,
  "ŋas": 5902,
  "ety": 5901,
  "irt": 5898,
  "ɱus": 5895,
  "spr": 5891,
  "agi": 5873,
  "ia␣": 5870,
  "sm␣": 5864,
  "gy␣": 5852,
  "w␣s": 5844,
  "pal": 5841,
  "ida": 5841,
  "asu": 5829,
  "cir": 5828,
  "ŋ␣k": 5809,
  "rpŋ": 5799,
  "eag": 5786,
  "r␣v": 5776,
  "ŋil": 5770,
  "aɱɱ": 5761,
  "dva": 5737,
  "iri": 5735,
  "vŋt": 5728,
  "ptu": 5716,
  "vŋr": 5713,
  "uŋn": 5712,
  "ŋga": 5701,
  "adu": 5688,
  "cŋi": 5686,
  "upe": 5684,
  "waŋ": 5684,
  "ype": 5670,
  "e␣j": 5659,
  "fit": 5650,
  "gna": 5643,
  "rŋj": 5635,
  "eel": 5635,
  "vŋi": 5627,
  "ldr": 5615,
  "mid": 5596,
  "ŋxi": 5592,
  "yle": 5589,
  "gur": 5577,
  "nŋu": 5576,
  "erl": 5570,
  "eŋu": 5564,
  "wev": 5562,
  "rci": 5560,
  "edg": 5558,
  "ŋba": 5556,
  "aps": 5554,
  "siz": 5552,
  "t␣v": 5538,
  "ŋpm": 5538,
  "ŋid": 5522,
  "erp": 5516,
  "lee": 5513,
  "ruɱ": 5512,
  "apa": 5503,
  "pes": 5493,
  "gɱŋ": 5491,
  "dle": 5483,
  "igu": 5470,
  "iza": 5469,
  "ɱeo": 5467,
  "ak␣": 5461,
  "ehi": 5460,
  "dee": 5457,
  "xce": 5439,
  "slŋ": 5439,
  "tŋt": 5436,
  "irɱ": 5436,
  "ŋ␣y": 5429,
  "n␣f": 5412,
  "faŋ": 5399,
  "␣ec": 5397,
  "usɱ": 5395,
  "dŋc": 5386,
  "ɱ␣g": 5386,
  "deb": 5378,
  "ɱba": 5378,
  "vir": 5370,
  "syɱ": 5369,
  "esɱ": 5368,
  "wŋŋ": 5356,
  "xtr": 5355,
  "xis": 5350,
  "pap": 5348,
  "ep␣": 5342,
  "tut": 5336,
  "ŋŋy": 5336,
  "nŋv": 5333,
  "rul": 5330,
  "cuɱ": 5316,
  "ŋpt": 5314,
  "reb": 5311,
  "sus": 5311,
  "rcr": 5311,
  "egr": 5307,
  "bŋŋ": 5295,
  "ŋab": 5292,
  "tŋl": 5287,
  "ply": 5281,
  "ɱly": 5278,
  "a␣ŋ": 5271,
  "cŋs": 5268,
  "fav": 5264,
  "ɱpi": 5259,
  "gŋo": 5254,
  "eck": 5246,
  "t␣y": 5242,
  "ŋiz": 5240,
  "ŋtt": 5226,
  "rɱŋ": 5223,
  "ilŋ": 5213,
  "adŋ": 5211,
  "rfa": 5211,
  "iqu": 5206,
  "uck": 5200,
  "gly": 5196,
  "p␣i": 5179,
  "aɱs": 5179,
  "␣my": 5155,
  "g␣u": 5152,
  "ils": 5148,
  "ads": 5145,
  "mig": 5135,
  "c␣c": 5134,
  "ɱaɱ": 5129,
  "tig": 5119,
  "nig": 5110,
  "feɱ": 5099,
  "idg": 5097,
  "n␣i": 5086,
  "lau": 5084,
  "␣er": 5073,
  "tuŋ": 5072,
  "avy": 5069,
  "ski": 5053,
  "ŋya": 5039,
  "cad": 5029,
  "lɱŋ": 5009,
  "squ": 4994,
  "cɱn": 4987,
  "ffŋ": 4974,
  "aud": 4974,
  "rcu": 4969,
  "sli": 4965,
  "pil": 4964,
  "sui": 4963,
  "cil": 4960,
  "a␣a": 4958,
  "ŋgn": 4945,
  "sep": 4933,
  "g␣n": 4932,
  "k␣f": 4931,
  "uic": 4899,
  "ebr": 4897,
  "w␣c": 4896,
  "ɱbl": 4886,
  "bŋɱ": 4885,
  "ŋgy": 4882,
  "gɱl": 4882,
  "ckl": 4880,
  "iec": 4880,
  "ɱŋv": 4880,
  "say": 4879,
  "eds": 4879,
  "ra␣": 4878,
  "ttr": 4875,
  "esŋ": 4870,
  "io␣": 4866,
  "ɱbŋ": 4866,
  "ŋty": 4853,
  "ata": 4849,
  "rki": 4847,
  "ŋo␣": 4841,
  "mee": 4826,
  "rwa": 4824,
  "ltu": 4823,
  "wne": 4821,
  "uɱp": 4817,
  "uɱɱ": 4814,
  "ɱul": 4813,
  "ceɱ": 4806,
  "idu": 4790,
  "iol": 4781,
  "alu": 4778,
  "uŋe": 4760,
  "urp": 4724,
  "vai": 4722,
  "vy␣": 4719,
  "urf": 4718,
  "ady": 4711,
  "ol␣": 4703,
  "pŋo": 4695,
  "gav": 4688,
  "bio": 4687,
  "agu": 4685,
  "zat": 4683,
  "c␣p": 4670,
  "ait": 4663,
  "ŋpɱ": 4655,
  "␣ɱy": 4649,
  "pta": 4648,
  "cŋg": 4640,
  "sau": 4619,
  "ray": 4619,
  "yal": 4616,
  "e␣q": 4615,
  "lub": 4610,
  "erw": 4609,
  "rbi": 4588,
  "ef␣": 4588,
  "tas": 4585,
  "␣il": 4578,
  "dus": 4577,
  "alr": 4568,
  "elv": 4563,
  "ups": 4563,
  "rgu": 4560,
  "xiɱ": 4551,
  "utŋ": 4545,
  "n␣s": 4530,
  "w␣i": 4521,
  "bŋw": 4514,
  "lid": 4514,
  "ɱni": 4503,
  "fis": 4495,
  "tɱu": 4491,
  "ŋub": 4482,
  "eor": 4473,
  "w␣w": 4472,
  "g␣g": 4470,
  "l␣v": 4464,
  "sag": 4454,
  "teg": 4451,
  "ɱpɱ": 4450,
  "itc": 4450,
  "geɱ": 4449,
  "efl": 4436,
  "kee": 4434,
  "ira": 4399,
  "lib": 4395,
  "aɱb": 4391,
  "rns": 4390,
  "rif": 4370,
  "pel": 4358,
  "ɱŋd": 4357,
  "riz": 4346,
  "ŋks": 4343,
  "saw": 4331,
  "nit": 4330,
  "auŋ": 4319,
  "bab": 4317,
  "fly": 4313,
  "rup": 4312,
  "ige": 4306,
  "k␣p": 4304,
  "ada": 4302,
  "bŋl": 4287,
  "sŋo": 4286,
  "ids": 4285,
  "c␣t": 4279,
  "llu": 4275,
  "iag": 4251,
  "tip": 4250,
  "tne": 4248,
  "cta": 4242,
  "k␣b": 4222,
  "dŋe": 4218,
  "uad": 4215,
  "irŋ": 4213,
  "y␣v": 4211,
  "uiŋ": 4200,
  "nic": 4197,
  "udy": 4196,
  "cee": 4194,
  "uŋk": 4193,
  "rry": 4192,
  "upt": 4186,
  "net": 4180,
  "cɱu": 4170,
  "ɱys": 4151,
  "ŋsc": 4140,
  "iŋl": 4125,
  "sex": 4119,
  "lwa": 4112,
  "jur": 4110,
  "dŋu": 4101,
  "w␣m": 4101,
  "apŋ": 4080,
  "wle": 4078,
  "nav": 4077,
  "mer": 4074,
  "fas": 4061,
  "urb": 4046,
  "kly": 4046,
  "ipp": 4042,
  "cki": 4038,
  "xpa": 4037,
  "utu": 4031,
  "eye": 4031,
  "agn": 4030,
  "ɱwa": 4028,
  "ŋsf": 4026,
  "bst": 4026,
  "alk": 4025,
  "olŋ": 4017,
  "ŋfa": 3999,
  "aur": 3992,
  "abs": 3990,
  "wŋo": 3987,
  "w␣p": 3983,
  "ctl": 3975,
  "hiŋ": 3971,
  "ytɱ": 3960,
  "ŋbj": 3956,
  "ops": 3944,
  "rug": 3940,
  "xpr": 3928,
  "cif": 3922,
  "azi": 3917,
  "ŋrb": 3914,
  "deo": 3899,
  "agŋ": 3887,
  "pŋe": 3880,
  "vŋc": 3879,
  "lŋa": 3878,
  "lts": 3877,
  "geo": 3876,
  "spɱ": 3870,
  "k␣s": 3869,
  "edŋ": 3867,
  "iɱu": 3865,
  "tɱw": 3862,
  "n␣w": 3845,
  "rpr": 3845,
  "ŋdr": 3845,
  "cŋo": 3843,
  "uta": 3841,
  "urg": 3840,
  "sar": 3838,
  "gŋ␣": 3835,
  "w␣ɱ": 3834,
  "nŋɱ": 3824,
  "rɱy": 3814,
  "n␣p": 3782,
  "eba": 3781,
  "ŋrŋ": 3780,
  "neg": 3774,
  "tex": 3770,
  "gŋt": 3730,
  "mul": 3722,
  "gŋl": 3721,
  "eap": 3720,
  "fŋc": 3718,
  "w␣f": 3718,
  "ŋu␣": 3704,
  "vas": 3703,
  "beŋ": 3699,
  "fed": 3698,
  "ify": 3697,
  "rŋk": 3694,
  "laɱ": 3693,
  "we␣": 3688,
  "nar": 3687,
  "upŋ": 3677,
  "eks": 3671,
  "jŋu": 3669,
  "ubj": 3665,
  "ɱ␣u": 3653,
  "cyc": 3652,
  "ycl": 3639,
  "uss": 3634,
  "atm": 3629,
  "gag": 3608,
  "ŋju": 3607,
  "lav": 3603,
  "lap": 3601,
  "wis": 3601,
  "ebu": 3597,
  "ŋey": 3596,
  "ŋki": 3589,
  "gaz": 3577,
  "f␣v": 3577,
  "n␣b": 3569,
  "c␣f": 3562,
  "rtl": 3557,
  "lŋv": 3555,
  "ogr": 3552,
  "ɱab": 3547,
  "lex": 3545,
  "cup": 3544,
  "ewa": 3534,
  "bŋv": 3532,
  "rsa": 3530,
  "␣cy": 3529,
  "rŋr": 3528,
  "usa": 3523,
  "ɱid": 3515,
  "wic": 3512,
  "yŋŋ": 3510,
  "lty": 3509,
  "key": 3505,
  "eda": 3504,
  "yɱe": 3497,
  "acy": 3493,
  "uca": 3489,
  "civ": 3485,
  "ŋbi": 3482,
  "hea": 3482,
  "c␣i": 3472,
  "gŋŋ": 3471,
  "rba": 3467,
  "nel": 3459,
  "rtr": 3458,
  "␣lu": 3449,
  "c␣ŋ": 3447,
  "gŋa": 3446,
  "␣ur": 3442,
  "pse": 3430,
  "cca": 3427,
  "l␣u": 3421,
  "vŋu": 3414,
  "ŋdl": 3414,
  "udg": 3413,
  "tse": 3405,
  "ŋ␣j": 3402,
  "iŋh": 3399,
  "tax": 3391,
  "wif": 3386,
  "lds": 3385,
  "edl": 3378,
  "idd": 3378,
  "bul": 3376,
  "␣sq": 3374,
  "tsi": 3363,
  "t␣k": 3361,
  "aly": 3358,
  "pts": 3358,
  "eŋv": 3356,
  "iŋj": 3354,
  "a␣y": 3336,
  "sif": 3336,
  "smi": 3333,
  "cea": 3330,
  "gel": 3325,
  "c␣r": 3324,
  "n␣c": 3324,
  "d␣j": 3321,
  "wei": 3319,
  "pay": 3312,
  "eha": 3310,
  "c␣d": 3308,
  "rbŋ": 3301,
  "rsu": 3298,
  "oks": 3297,
  "lp␣": 3295,
  "ppi": 3291,
  "ap␣": 3281,
  "ypi": 3266,
  "utt": 3263,
  "k␣c": 3251,
  "pid": 3246,
  "gri": 3241,
  "ryi": 3236,
  "tus": 3235,
  "uel": 3235,
  "p␣f": 3230,
  "egŋ": 3227,
  "␣ir": 3223,
  "r␣y": 3219,
  "dal": 3212,
  "fut": 3204,
  "sy␣": 3201,
  "f␣u": 3197,
  "rŋx": 3196,
  "epu": 3196,
  "xec": 3179,
  "k␣ɱ": 3177,
  "sk␣": 3175,
  "iar": 3171,
  "via": 3167,
  "p␣s": 3166,
  "w␣b": 3158,
  "axi": 3151,
  "p␣b": 3150,
  "aŋu": 3149,
  "rnŋ": 3149,
  "rgi": 3149,
  "rer": 3147,
  "ttŋ": 3128,
  "luŋ": 3123,
  "gla": 3115,
  "awn": 3115,
  "dru": 3110,
  "a␣i": 3109,
  "bs␣": 3104,
  "uɱs": 3103,
  "lre": 3096,
  "tuɱ": 3091,
  "fif": 3090,
  "pio": 3086,
  "exɱ": 3083,
  "ɱti": 3079,
  "aul": 3077,
  "diu": 3067,
  "ods": 3056,
  "ex␣": 3048,
  "etŋ": 3047,
  "lyi": 3044,
  "␣ic": 3041,
  "ucl": 3035,
  "tɱy": 3024,
  "iaɱ": 3023,
  "uci": 3020,
  "gŋi": 3012,
  "adr": 3010,
  "cqu": 3010,
  "rik": 3008,
  "dig": 3005,
  "ɱpu": 3004,
  "ŋee": 3004,
  "acq": 3003,
  "ub␣": 2998,
  "uŋl": 2995,
  "cav": 2993,
  "oŋi": 2989,
  "usp": 2984,
  "ŋps": 2980,
  "ŋia": 2972,
  "sia": 2961,
  "gns": 2959,
  "wly": 2957,
  "rpe": 2957,
  "w␣d": 2956,
  "gme": 2954,
  "vea": 2954,
  "agg": 2952,
  "mix": 2946,
  "yɱp": 2944,
  "nuc": 2943,
  "ubɱ": 2935,
  "blu": 2928,
  "y␣k": 2927,
  "ŋiu": 2923,
  "tɱd": 2916,
  "kne": 2915,
  "iɱb": 2915,
  "syn": 2913,
  "ɱŋi": 2908,
  "dŋr": 2906,
  "ŋel": 2900,
  "aba": 2899,
  "ŋiv": 2899,
  "igr": 2899,
  "plu": 2895,
  "my␣": 2895,
  "d␣k": 2890,
  "ciɱ": 2885,
  "sfe": 2881,
  "eol": 2881,
  "dŋl": 2879,
  "rey": 2873,
  "lad": 2867,
  "ie␣": 2851,
  "rej": 2851,
  "lse": 2848,
  "xed": 2841,
  "exu": 2830,
  "ek␣": 2818,
  "dap": 2817,
  "ŋnu": 2811,
  "uag": 2809,
  "eo␣": 2804,
  "lpe": 2801,
  "ole": 2795,
  "acu": 2793,
  "rgy": 2791,
  "tŋc": 2791,
  "ŋpr": 2789,
  "ɱib": 2788,
  "gas": 2784,
  "ɱ␣v": 2781,
  "uid": 2775,
  "ori": 2775,
  "aca": 2774,
  "ɱtl": 2773,
  "ŋos": 2771,
  "dŋp": 2769,
  "c␣m": 2746,
  "␣ey": 2743,
  "tba": 2743,
  "swi": 2741,
  "ixe": 2735,
  "dau": 2727,
  "ŋha": 2724,
  "lys": 2722,
  "s␣j": 2721,
  "jud": 2716,
  "pus": 2706,
  "dve": 2702,
  "xpŋ": 2701,
  "wav": 2700,
  "ivŋ": 2696,
  "eut": 2695,
  "ŋrw": 2691,
  "aws": 2691,
  "lur": 2690,
  "twi": 2684,
  "bis": 2677,
  "leb": 2676,
  "oɱ␣": 2673,
  "py␣": 2672,
  "nei": 2672,
  "ŋqu": 2672,
  "c␣b": 2671,
  "ppa": 2664,
  "ŋwd": 2656,
  "utr": 2655,
  "rfu": 2655,
  "ddl": 2645,
  "xua": 2640,
  "nis": 2639,
  "alc": 2636,
  "eoŋ": 2635,
  "c␣e": 2632,
  "w␣r": 2632,
  "ɱee": 2627,
  "erh": 2622,
  "urd": 2621,
  "␣sn": 2618,
  "uɱi": 2616,
  "mac": 2615,
  "swe": 2614,
  "suŋ": 2614,
  "␣ja": 2609,
  "ixt": 2605,
  "vac": 2603,
  "lɱs": 2599,
  "irl": 2599,
  "lk␣": 2597,
  "zeŋ": 2592,
  "upl": 2591,
  "c␣w": 2582,
  "asp": 2576,
  "eje": 2574,
  "ŋyɱ": 2574,
  "irr": 2572,
  "dvi": 2563,
  "nua": 2563,
  "g␣v": 2553,
  "eec": 2543,
  "ɱdr": 2537,
  "erb": 2533,
  "iab": 2529,
  "pŋu": 2529,
  "sle": 2520,
  "ŋef": 2519,
  "glŋ": 2518,
  "fru": 2510,
  "hŋl": 2510,
  "eou": 2505,
  "y␣y": 2503,
  "iog": 2500,
  "p␣ɱ": 2497,
  "reh": 2496,
  "git": 2485,
  "neu": 2483,
  "uip": 2465,
  "diɱ": 2464,
  "tli": 2458,
  "uɱŋ": 2452,
  "lip": 2447,
  "p␣c": 2447,
  "taf": 2439,
  "isk": 2433,
  "lɱe": 2429,
  "yet": 2422,
  "deg": 2422,
  "tay": 2422,
  "fy␣": 2415,
  "ilv": 2413,
  "sac": 2410,
  "ebe": 2408,
  "cab": 2408,
  "ɱŋc": 2408,
  "pag": 2405,
  "twa": 2404,
  "ney": 2403,
  "eŋr": 2402,
  "alw": 2394,
  "eŋl": 2390,
  "ydr": 2384,
  "upi": 2384,
  "ggl": 2376,
  "sav": 2376,
  "icy": 2376,
  "mel": 2371,
  "yri": 2371,
  "sap": 2370,
  "saf": 2367,
  "afe": 2365,
  "usc": 2364,
  "ɱp␣": 2346,
  "ɱwe": 2345,
  "cɱr": 2342,
  "cio": 2338,
  "s␣y": 2332,
  "mŋo": 2327,
  "gnŋ": 2324,
  "smŋ": 2320,
  "asc": 2320,
  "kep": 2314,
  "n␣ɱ": 2311,
  "g␣y": 2311,
  "gɱw": 2307,
  "uɱn": 2298,
  "ols": 2293,
  "w␣l": 2292,
  "eɱu": 2292,
  "ckn": 2290,
  "wsp": 2285,
  "etc": 2284,
  "sɱr": 2278,
  "sie": 2274,
  "sme": 2272,
  "gŋr": 2271,
  "spu": 2265,
  "wns": 2262,
  "n␣e": 2255,
  "xɱi": 2254,
  "lŋb": 2252,
  "ipe": 2238,
  "niz": 2237,
  "ffs": 2229,
  "mŋl": 2226,
  "sɱɱ": 2223,
  "hav": 2217,
  "ibr": 2203,
  "ory": 2202,
  "ŋ␣q": 2198,
  "uou": 2193,
  "odi": 2190,
  "ias": 2190,
  "ubt": 2179,
  "mur": 2173,
  "a␣j": 2171,
  "lŋd": 2170,
  "dut": 2163,
  "zŋŋ": 2160,
  "puŋ": 2152,
  "rfe": 2152,
  "ta␣": 2152,
  "oti": 2152,
  "ŋɱy": 2151,
  "sba": 2149,
  "d␣y": 2148,
  "dli": 2147,
  "eur": 2145,
  "eɱy": 2143,
  "ŋbt": 2142,
  "egg": 2138,
  "bey": 2136,
  "uŋp": 2136,
  "yɱb": 2136,
  "giɱ": 2134,
  "d␣q": 2133,
  "naŋ": 2132,
  "ŋea": 2127,
  "rtŋ": 2127,
  "␣ly": 2122,
  "bŋy": 2121,
  "sir": 2117,
  "bta": 2115,
  "ɱyp": 2109,
  "fŋs": 2108,
  "ŋuc": 2107,
  "dwa": 2105,
  "sas": 2102,
  "ŋof": 2100,
  "tep": 2099,
  "nŋs": 2096,
  "ŋbe": 2096,
  "mec": 2093,
  "rby": 2092,
  "ɱif": 2092,
  "ipm": 2086,
  "ɱyd": 2085,
  "sŋp": 2081,
  "uge": 2081,
  "taɱ": 2075,
  "ptŋ": 2074,
  "lɱi": 2069,
  "xes": 2069,
  "big": 2068,
  "gia": 2065,
  "icŋ": 2059,
  "rue": 2054,
  "s␣q": 2050,
  "ŋif": 2047,
  "ŋuɱ": 2045,
  "rha": 2041,
  "jŋy": 2038,
  "ŋna": 2038,
  "rtn": 2038,
  "uŋf": 2034,
  "ŋɱs": 2032,
  "dca": 2030,
  "bad": 2027,
  "k␣m": 2023,
  "yna": 2020,
  "tŋd": 2017,
  "luc": 2015,
  "ehŋ": 2011,
  "ŋud": 1997,
  "otb": 1996,
  "xti": 1995,
  "yli": 1995,
  "ɱb␣": 1988,
  "␣ul": 1983,
  "tiz": 1968,
  "juŋ": 1966,
  "ilu": 1965,
  "gir": 1964,
  "x␣ŋ": 1962,
  "ŋtm": 1962,
  "w␣e": 1960,
  "wai": 1956,
  "adl": 1956,
  "tap": 1952,
  "jŋb": 1951,
  "dŋo": 1944,
  "otɱ": 1940,
  "rtm": 1938,
  "adc": 1937,
  "izi": 1934,
  "lel": 1933,
  "reo": 1920,
  "ŋjŋ": 1917,
  "cci": 1915,
  "isu": 1914,
  "lne": 1914,
  "ehe": 1910,
  "ŋfr": 1909,
  "ɱew": 1903,
  "yel": 1902,
  "ewɱ": 1902,
  "hap": 1893,
  "ɱps": 1893,
  "ŋpa": 1887,
  "mes": 1885,
  "arv": 1884,
  "pŋk": 1883,
  "abu": 1882,
  "n␣r": 1881,
  "lyr": 1879,
  "fet": 1873,
  "ot␣": 1869,
  "k␣r": 1868,
  "uŋu": 1866,
  "bsŋ": 1865,
  "vŋy": 1863,
  "ulp": 1861,
  "ŋsl": 1859,
  "arp": 1858,
  "buŋ": 1857,
  "pab": 1857,
  "ode": 1856,
  "uŋr": 1854,
  "uaŋ": 1852,
  "eru": 1850,
  "r␣j": 1848,
  "max": 1847,
  "wre": 1842,
  "ftɱ": 1837,
  "c␣l": 1827,
  "␣ps": 1826,
  "tmŋ": 1824,
  "asy": 1822,
  "fs␣": 1821,
  "veh": 1819,
  "a␣k": 1818,
  "idl": 1817,
  "vey": 1816,
  "yar": 1814,
  "uli": 1809,
  "la␣": 1808,
  "uty": 1807,
  "eau": 1806,
  "lca": 1806,
  "ɱle": 1805,
  "lta": 1803,
  "ddr": 1800,
  "xcl": 1799,
  "ŋze": 1797,
  "r␣k": 1797,
  "␣dy": 1797,
  "n␣m": 1796,
  "wtɱ": 1794,
  "ŋwt": 1794,
  "rpɱ": 1793,
  "eys": 1792,
  "tɱl": 1792,
  "dil": 1791,
  "hŋo": 1789,
  "bŋx": 1788,
  "uve": 1788,
  "mŋɱ": 1786,
  "eŋj": 1785,
  "niq": 1785,
  "k␣d": 1783,
  "her": 1779,
  "swa": 1777,
  "ŋkn": 1774,
  "␣ŋx": 1773,
  "␣eg": 1773,
  "adj": 1771,
  "rgŋ": 1771,
  "rpa": 1770,
  "dsɱ": 1767,
  "ŋls": 1766,
  "abe": 1763,
  "ɱbs": 1762,
  "eyŋ": 1761,
  "ayŋ": 1757,
  "ɱnŋ": 1756,
  "gli": 1741,
  "tfŋ": 1739,
  "ŋaɱ": 1739,
  "lŋɱ": 1738,
  "igg": 1736,
  "psy": 1736,
  "rcl": 1733,
  "iɱŋ": 1725,
  "ycɱ": 1725,
  "lcŋ": 1719,
  "epɱ": 1719,
  "ube": 1716,
  "ŋfu": 1706,
  "arf": 1704,
  "oɱs": 1701,
  "itn": 1700,
  "eaf": 1699,
  "dŋg": 1680,
  "xer": 1680,
  "tub": 1678,
  "hic": 1678,
  "cŋd": 1675,
  "tid": 1672,
  "ciz": 1672,
  "eŋn": 1672,
  "usb": 1667,
  "gɱb": 1665,
  "c␣ɱ": 1664,
  "ŋlc": 1663,
  "ŋhe": 1662,
  "fue": 1657,
  "ɱa␣": 1657,
  "pia": 1656,
  "␣zŋ": 1655,
  "ŋir": 1655,
  "lak": 1654,
  "ŋhi": 1654,
  "hab": 1649,
  "dyn": 1644,
  "ilw": 1641,
  "uls": 1640,
  "rru": 1634,
  "c␣v": 1633,
  "mic": 1631,
  "ors": 1630,
  "dry": 1629,
  "dwi": 1627,
  "tue": 1622,
  "ŋys": 1621,
  "p␣d": 1618,
  "ɱac": 1616,
  "␣et": 1616,
  "lŋi": 1613,
  "␣je": 1613,
  "ɱae": 1612,
  "riu": 1609,
  "nŋl": 1605,
  "iot": 1604,
  "n␣d": 1604,
  "ax␣": 1604,
  "hib": 1601,
  "euɱ": 1600,
  "p␣p": 1590,
  "asa": 1589,
  "ag␣": 1588,
  "ewl": 1585,
  "teb": 1584,
  "␣ŋi": 1583,
  "me␣": 1581,
  "eɱn": 1581,
  "stw": 1580,
  "t␣j": 1579,
  "ŋgŋ": 1577,
  "oki": 1574,
  "mut": 1572,
  "ŋpy": 1572,
  "ŋsm": 1569,
  "bbe": 1560,
  "rŋi": 1558,
  "ŋdf": 1558,
  "isf": 1557,
  "ley": 1556,
  "snŋ": 1553,
  "ŋeu": 1552,
  "sku": 1552,
  "ŋeo": 1551,
  "abb": 1550,
  "ggr": 1549,
  "tau": 1545,
  "ud␣": 1542,
  "kul": 1539,
  "atf": 1538,
  "ose": 1536,
  "jac": 1535,
  "pig": 1532,
  "w␣g": 1532,
  "nas": 1531,
  "dip": 1525,
  "ffa": 1522,
  "utl": 1522,
  "ɱut": 1521,
  "tŋs": 1520,
  "pŋd": 1519,
  "l␣y": 1517,
  "fts": 1512,
  "ɱri": 1510,
  "m␣a": 1507,
  "fid": 1505,
  "xcɱ": 1504,
  "syc": 1503,
  "k␣u": 1502,
  "seu": 1501,
  "oke": 1496,
  "cka": 1493,
  "rbe": 1492,
  "a␣u": 1488,
  "xid": 1486,
  "ŋuf": 1482,
  "ɱbr": 1481,
  "fyi": 1480,
  "ipi": 1479,
  "k␣l": 1472,
  "ewi": 1472,
  "␣rh": 1465,
  "ŋiq": 1463,
  "ŋui": 1461,
  "bsi": 1460,
  "bɱi": 1459,
  "vet": 1459,
  "xac": 1458,
  "urŋ": 1447,
  "ŋx␣": 1447,
  "agm": 1445,
  "ckg": 1435,
  "ŋdɱ": 1435,
  "yes": 1432,
  "atl": 1425,
  "ypŋ": 1424,
  "fix": 1421,
  "sei": 1420,
  "kgr": 1418,
  "vig": 1418,
  "rcŋ": 1413,
  "p␣r": 1412,
  "ŋyi": 1409,
  "cry": 1408,
  "lax": 1407,
  "l␣k": 1406,
  "lry": 1400,
  "tsm": 1398,
  "o␣a": 1397,
  "map": 1393,
  "c␣g": 1393,
  "cŋt": 1391,
  "lvi": 1389,
  "dai": 1387,
  "erd": 1387,
  "abr": 1386,
  "rut": 1385,
  "sew": 1382,
  "tɱɱ": 1380,
  "ky␣": 1380,
  "cue": 1379,
  "vul": 1377,
  "nŋb": 1377,
  "lep": 1377,
  "nŋc": 1377,
  "sms": 1375,
  "eab": 1375,
  "rca": 1372,
  "n␣l": 1371,
  "kle": 1368,
  "eŋz": 1365,
  "awi": 1364,
  "utc": 1364,
  "zes": 1364,
  "bid": 1361,
  "ope": 1361,
  "ŋb␣": 1360,
  "guɱ": 1358,
  "o␣s": 1355,
  "k␣e": 1354,
  "ufa": 1350,
  "ots": 1350,
  "gŋd": 1349,
  "wli": 1348,
  "p␣m": 1346,
  "eei": 1346,
  "gsi": 1344,
  "ggs": 1343,
  "sad": 1342,
  "ŋau": 1340,
  "bud": 1335,
  "ɱia": 1334,
  "f␣y": 1331,
  "␣ig": 1327,
  "seg": 1325,
  "tad": 1325,
  "ssm": 1325,
  "maɱ": 1322,
  "mŋb": 1322,
  "ubb": 1320,
  "upr": 1318,
  "ɱra": 1317,
  "sab": 1312,
  "quo": 1311,
  "psi": 1305,
  "itr": 1305,
  "ŋex": 1304,
  "sŋf": 1302,
  "edy": 1299,
  "lpt": 1299,
  "eew": 1298,
  "udd": 1297,
  "ɱst": 1296,
  "ɱep": 1294,
  "niv": 1294,
  "ypɱ": 1291,
  "dŋi": 1291,
  "elu": 1290,
  "ccl": 1289,
  "ags": 1288,
  "ulf": 1287,
  "dvŋ": 1287,
  "tib": 1287,
  "ios": 1285,
  "c␣n": 1285,
  "ɱio": 1283,
  "xtu": 1282,
  "bia": 1278,
  "alv": 1274,
  "sŋi": 1273,
  "xil": 1271,
  "x␣m": 1269,
  "ifŋ": 1266,
  "icr": 1262,
  "stɱ": 1258,
  "ɱak": 1256,
  "elɱ": 1256,
  "ig␣": 1256,
  "ŋyŋ": 1251,
  "rpl": 1247,
  "gus": 1246,
  "ote": 1242,
  "gdŋ": 1240,
  "ŋgd": 1239,
  "a␣q": 1236,
  "ɱ␣y": 1235,
  "mit": 1235,
  "seb": 1234,
  "rub": 1233,
  "rgr": 1232,
  "y␣j": 1231,
  "tei": 1230,
  "eps": 1230,
  "of␣": 1229,
  "agl": 1227,
  "cɱɱ": 1227,
  "ae␣": 1226,
  "o␣g": 1225,
  "ord": 1224,
  "ŋxy": 1223,
  "cŋh": 1222,
  "ryŋ": 1220,
  "dɱe": 1219,
  "eog": 1218,
  "edd": 1217,
  "sfŋ": 1216,
  "edr": 1214,
  "ebŋ": 1214,
  "ɱli": 1211,
  "ɱau": 1210,
  "ahe": 1209,
  "dfa": 1209,
  "␣ae": 1208,
  "idŋ": 1208,
  "myt": 1204,
  "bru": 1203,
  "ŋa␣": 1195,
  "pɱs": 1189,
  "ɱne": 1187,
  "scl": 1186,
  "ɱn␣": 1185,
  "t␣q": 1183,
  "cua": 1183,
  "ieg": 1182,
  "ldw": 1181,
  "x␣a": 1180,
  "aty": 1176,
  "isr": 1175,
  "veg": 1173,
  "lŋ␣": 1171,
  "mys": 1171,
  "idn": 1171,
  "ŋŋp": 1168,
  "rfi": 1166,
  "ŋpl": 1165,
  "bsp": 1164,
  "aeo": 1162,
  "ɱec": 1161,
  "uer": 1159,
  "␣dw": 1155,
  "iki": 1154,
  "eiz": 1150,
  "rau": 1150,
  "lua": 1149,
  "dqu": 1147,
  "eg␣": 1143,
  "pɱr": 1142,
  "vag": 1140,
  "ɱyl": 1136,
  "w␣u": 1134,
  "etl": 1133,
  "cet": 1132,
  "iŋy": 1131,
  "adq": 1129,
  "ŋbŋ": 1126,
  "tŋb": 1124,
  "sks": 1120,
  "uor": 1117,
  "ynt": 1116,
  "lcu": 1114,
  "cɱy": 1114,
  "rhe": 1113,
  "bɱa": 1111,
  "␣ut": 1110,
  "ŋbb": 1108,
  "haŋ": 1108,
  "ŋyt": 1108,
  "ŋuo": 1105,
  "euv": 1105,
  "eis": 1104,
  "pɱ␣": 1103,
  "ŋhŋ": 1102,
  "swŋ": 1101,
  "wag": 1101,
  "dne": 1101,
  "vec": 1099,
  "r␣q": 1097,
  "aks": 1093,
  "rsy": 1091,
  "rsp": 1089,
  "asm": 1087,
  "eil": 1083,
  "ɱtɱ": 1081,
  "ŋzy": 1080,
  "axe": 1078,
  "gie": 1073,
  "os␣": 1069,
  "rwi": 1066,
  "w␣n": 1066,
  "b␣a": 1063,
  "egs": 1063,
  "ptɱ": 1060,
  "gea": 1060,
  "nut": 1058,
  "ŋlt": 1058,
  "uln": 1058,
  "ye␣": 1057,
  "ɱna": 1053,
  "sky": 1053,
  "rɱu": 1047,
  "zer": 1044,
  "ntɱ": 1043,
  "l␣j": 1040,
  "dst": 1039,
  "ota": 1039,
  "␣ah": 1038,
  "dyi": 1035,
  "x␣w": 1034,
  "pyr": 1034,
  "x␣s": 1034,
  "iru": 1030,
  "web": 1027,
  "x␣t": 1023,
  "xtɱ": 1022,
  "hŋu": 1022,
  "ewŋ": 1020,
  "␣vu": 1020,
  "sɱu": 1019,
  "sna": 1018,
  "pŋc": 1018,
  "ŋlk": 1017,
  "aer": 1017,
  "tŋx": 1016,
  "fug": 1016,
  "rys": 1015,
  "ieu": 1013,
  "ŋdd": 1012,
  "rla": 1010,
  "bsc": 1010,
  "ug␣": 1010,
  "rdl": 1010,
  "zyɱ": 1006,
  "rud": 1006,
  "liq": 1005,
  "vad": 1004,
  "acl": 1003,
  "ggi": 1000,
  "lrŋ": 1000,
  "aqu": 999,
  "ŋbv": 999,
  "gil": 993,
  "wiɱ": 993,
  "fti": 992,
  "auc": 992,
  "eŋf": 990,
  "egm": 989,
  "fau": 989,
  "uiv": 988,
  "ppy": 988,
  "luo": 987,
  "utb": 987,
  "gad": 985,
  "ulŋ": 984,
  "nai": 984,
  "ifu": 983,
  "buy": 983,
  "yge": 982,
  "ŋev": 981,
  "uŋw": 979,
  "ɱiz": 978,
  "xyg": 978,
  "liu": 976,
  "wd␣": 975,
  "wet": 975,
  "ŋdt": 973,
  "ryt": 971,
  "egy": 968,
  "reu": 968,
  "ɱru": 967,
  "iry": 965,
  "zzl": 964,
  "uga": 961,
  "ŋua": 960,
  "oli": 960,
  "rps": 960,
  "bbi": 959,
  "wɱy": 959,
  "dtr": 959,
  "aya": 957,
  "ald": 956,
  "izŋ": 956,
  "rhŋ": 955,
  "yɱŋ": 950,
  "ŋru": 948,
  "ilr": 948,
  "uot": 946,
  "vei": 946,
  "pup": 945,
  "rhy": 944,
  "rlŋ": 943,
  "ugu": 943,
  "orl": 943,
  "lfi": 942,
  "dhŋ": 942,
  "seh": 940,
  "vŋk": 940,
  "uŋŋ": 939,
  "uee": 936,
  "xiŋ": 935,
  "yse": 935,
  "cɱl": 933,
  "efs": 933,
  "rur": 929,
  "ŋew": 924,
  "efr": 923,
  "ola": 923,
  "ubu": 922,
  "aze": 921,
  "rŋ␣": 921,
  "uɱu": 919,
  "upa": 917,
  "sef": 915,
  "ms␣": 915,
  "cŋc": 915,
  "bŋi": 913,
  "ɱfŋ": 913,
  "dsc": 911,
  "f␣j": 910,
  "mŋk": 909,
  "xit": 909,
  "our": 908,
  "nŋo": 907,
  "dib": 905,
  "lew": 904,
  "iŋq": 902,
  "sne": 901,
  "zar": 901,
  "lke": 900,
  "eŋh": 898,
  "eos": 897,
  "ŋɱf": 894,
  "ebt": 893,
  "sŋv": 893,
  "m␣ŋ": 892,
  "xca": 892,
  "kni": 891,
  "tbr": 891,
  "acŋ": 890,
  "o␣f": 889,
  "eki": 885,
  "lpi": 881,
  "pgr": 881,
  "b␣w": 879,
  "lln": 876,
  "nŋi": 874,
  "ŋŋk": 872,
  "leu": 872,
  "ioc": 871,
  "iŋɱ": 871,
  "ŋŋq": 871,
  "ayɱ": 871,
  "sud": 871,
  "gap": 870,
  "jaw": 869,
  "lki": 867,
  "␣ŋa": 866,
  "bic": 865,
  "ulɱ": 864,
  "cly": 862,
  "ore": 861,
  "m␣i": 861,
  "yŋf": 860,
  "gif": 859,
  "rŋh": 858,
  "juv": 857,
  "stm": 857,
  "tŋi": 856,
  "b␣t": 855,
  "y␣q": 852,
  "leo": 851,
  "f␣k": 850,
  "ost": 847,
  "kit": 846,
  "uie": 844,
  "ɱŋg": 844,
  "ryl": 842,
  "uzz": 839,
  "ŋsw": 838,
  "p␣l": 837,
  "b␣ŋ": 837,
  "irp": 835,
  "rle": 835,
  "juɱ": 834,
  "muŋ": 833,
  "zle": 833,
  "cui": 831,
  "teu": 830,
  "rls": 829,
  "nak": 827,
  "wde": 826,
  "kid": 825,
  "igŋ": 823,
  "itm": 821,
  "wl␣": 821,
  "␣ya": 819,
  "hal": 818,
  "ora": 817,
  "ugs": 817,
  "ɱŋb": 814,
  "p␣e": 814,
  "pik": 813,
  "kab": 809,
  "gsɱ": 806,
  "ecc": 805,
  "ulk": 805,
  "kwa": 805,
  "dgi": 803,
  "ɱŋe": 802,
  "tyr": 801,
  "xŋŋ": 801,
  "ɱug": 801,
  "kag": 799,
  "axŋ": 798,
  "eud": 796,
  "gŋe": 796,
  "efa": 796,
  "uab": 795,
  "x␣c": 794,
  "tul": 794,
  "utp": 791,
  "alg": 791,
  "apl": 791,
  "x␣i": 790,
  "isd": 790,
  "uds": 788,
  "mir": 788,
  "tcŋ": 787,
  "upg": 786,
  "eus": 786,
  "wnt": 785,
  "kic": 783,
  "eke": 781,
  "ɱaz": 781,
  "ɱlŋ": 781,
  "tla": 780,
  "wir": 780,
  "sŋt": 780,
  "yra": 778,
  "tst": 778,
  "pip": 778,
  "lyp": 776,
  "tfu": 776,
  "yag": 774,
  "o␣c": 774,
  "xic": 773,
  "rpi": 773,
  "k␣g": 773,
  "ɱbu": 772,
  "oɱe": 772,
  "dŋz": 772,
  "adn": 771,
  "duɱ": 771,
  "ebs": 771,
  "hyt": 771,
  "rf␣": 771,
  "ldh": 769,
  "va␣": 768,
  "odl": 766,
  "o␣w": 766,
  "ny␣": 765,
  "bŋs": 765,
  "ltr": 763,
  "n␣n": 763,
  "cky": 761,
  "ius": 761,
  "n␣u": 760,
  "ylŋ": 759,
  "tɱn": 758,
  "rda": 757,
  "yee": 757,
  "n␣g": 756,
  "o␣m": 754,
  "ubi": 746,
  "g␣j": 746,
  "ynŋ": 746,
  "bag": 745,
  "uŋb": 744,
  "rl␣": 743,
  "gst": 740,
  "␣ŋɱ": 738,
  "w␣y": 737,
  "cay": 737,
  "␣py": 736,
  "gnɱ": 736,
  "ɱ␣k": 735,
  "cub": 734,
  "deq": 733,
  "ilk": 731,
  "rɱl": 731,
  "xci": 730,
  "sru": 729,
  "rwe": 727,
  "sip": 726,
  "rae": 722,
  "eby": 722,
  "cef": 720,
  "egn": 719,
  "dja": 717,
  "ssl": 717,
  "elc": 717,
  "rtw": 716,
  "lks": 714,
  "a␣e": 714,
  "lsi": 713,
  "rdŋ": 713,
  "bt␣": 712,
  "da␣": 712,
  "dub": 712,
  "cŋf": 711,
  "xts": 710,
  "ldl": 708,
  "yie": 708,
  "k␣n": 708,
  "lei": 708,
  "␣ŋd": 706,
  "pav": 706,
  "␣ŋs": 706,
  "m␣f": 705,
  "ipɱ": 703,
  "euŋ": 702,
  "isg": 702,
  "o␣ŋ": 702,
  "ntŋ": 700,
  "gib": 699,
  "ŋbu": 697,
  "op␣": 697,
  "lux": 697,
  "tet": 696,
  "lui": 696,
  "kna": 695,
  "gru": 695,
  "wŋl": 694,
  "l␣q": 693,
  "nur": 692,
  "␣eu": 691,
  "dŋs": 691,
  "dab": 690,
  "dd␣": 690,
  "ŋdg": 689,
  "ŋŋw": 688,
  "teo": 685,
  "gma": 683,
  "xɱa": 683,
  "exŋ": 682,
  "bie": 681,
  "apy": 681,
  "rvŋ": 678,
  "ɱ␣j": 676,
  "awy": 676,
  "wye": 676,
  "xie": 675,
  "puɱ": 675,
  "tty": 674,
  "ŋŋz": 674,
  "dɱa": 673,
  "raz": 671,
  "g␣k": 670,
  "rwɱ": 670,
  "ybŋ": 670,
  "w␣v": 668,
  "ŋlf": 668,
  "p␣u": 668,
  "etb": 667,
  "wak": 666,
  "heŋ": 665,
  "dla": 663,
  "alp": 663,
  "rbl": 661,
  "irf": 659,
  "o␣l": 659,
  "nap": 659,
  "ŋgg": 657,
  "uŋh": 656,
  "dju": 654,
  "cɱd": 652,
  "ɱfu": 651,
  "uy␣": 651,
  "␣ax": 651,
  "ycŋ": 646,
  "tiq": 645,
  "aka": 644,
  "aes": 644,
  "ɱns": 642,
  "utf": 642,
  "fty": 641,
  "ckw": 640,
  "w␣k": 639,
  "ɱla": 637,
  "rka": 636,
  "o␣i": 636,
  "b␣i": 635,
  "mud": 634,
  "nad": 633,
  "gee": 631,
  "␣io": 625,
  "sfi": 624,
  "rb␣": 624,
  "tŋe": 624,
  "ŋxe": 622,
  "gŋs": 621,
  "ipu": 621,
  "bvi": 621,
  "ŋkl": 620,
  "uba": 620,
  "␣yi": 620,
  "bay": 618,
  "pty": 618,
  "ync": 615,
  "egl": 614,
  "uak": 614,
  "uet": 610,
  "aza": 610,
  "eot": 609,
  "p␣g": 609,
  "ulg": 608,
  "rhi": 608,
  "abd": 607,
  "cŋe": 602,
  "erk": 602,
  "ɱ␣q": 602,
  "epp": 599,
  "lst": 599,
  "ŋŋj": 598,
  "yŋr": 598,
  "rrh": 597,
  "wni": 595,
  "jet": 594,
  "osi": 594,
  "ulu": 593,
  "e␣z": 591,
  "rp␣": 591,
  "x␣p": 588,
  "igs": 588,
  "yɱɱ": 587,
  "ŋak": 587,
  "adw": 587,
  "xta": 585,
  "tpŋ": 584,
  "upd": 584,
  "g␣q": 581,
  "dba": 581,
  "pda": 580,
  "igm": 579,
  "llɱ": 579,
  "o␣t": 576,
  "cac": 575,
  "eup": 574,
  "cɱb": 574,
  "dac": 574,
  "bbl": 574,
  "ɱŋa": 573,
  "ubŋ": 573,
  "eŋy": 572,
  "eoɱ": 570,
  "dtɱ": 570,
  "ɱqu": 568,
  "paw": 566,
  "ifl": 566,
  "tɱq": 566,
  "laz": 564,
  "ypa": 563,
  "lfu": 562,
  "nia": 561,
  "kis": 561,
  "gay": 560,
  "ŋsy": 560,
  "ŋny": 559,
  "sfa": 559,
  "slu": 559,
  "yti": 557,
  "ypt": 556,
  "rak": 556,
  "dei": 553,
  "kir": 553,
  "cyt": 549,
  "duŋ": 549,
  "ma␣": 548,
  "tew": 547,
  "m␣t": 545,
  "rdɱ": 545,
  "lge": 542,
  "lva": 541,
  "pad": 540,
  "kat": 539,
  "upɱ": 538,
  "m␣w": 538,
  "k␣v": 537,
  "lga": 537,
  "ŋwɱ": 537,
  "yte": 535,
  "ne␣": 535,
  "siu": 533,
  "rao": 533,
  "tpu": 532,
  "axy": 531,
  "dhe": 531,
  "isb": 530,
  "ɱɱ␣": 530,
  "ɱdŋ": 530,
  "org": 527,
  "pŋv": 526,
  "u␣w": 525,
  "fib": 525,
  "uly": 524,
  "upy": 524,
  "esa": 523,
  "esm": 521,
  "rŋe": 520,
  "rbs": 519,
  "dnŋ": 519,
  "biv": 519,
  "tfi": 517,
  "ffl": 517,
  "bve": 515,
  "axa": 515,
  "gɱs": 514,
  "kli": 514,
  "wnl": 512,
  "x␣d": 511,
  "ssy": 510,
  "␣ze": 510,
  "bts": 509,
  "byp": 509,
  "ŋgw": 508,
  "iba": 507,
  "jŋk": 506,
  "sre": 505,
  "af␣": 505,
  "uŋɱ": 504,
  "tŋa": 504,
  "nlŋ": 502,
  "lug": 502,
  "tdŋ": 502,
  "lpɱ": 501,
  "lyz": 501,
  "usk": 501,
  "ŋdw": 500,
  "utd": 500,
  "n␣v": 499,
  "azz": 499,
  "wls": 499,
  "x␣r": 497,
  "duo": 496,
  "puz": 495,
  "uke": 495,
  "idt": 495,
  "mŋi": 494,
  "ove": 494,
  "f␣q": 493,
  "ɱaf": 493,
  "tuf": 493,
  "tbŋ": 491,
  "␣gɱ": 489,
  "bby": 488,
  "usn": 488,
  "aŋx": 488,
  "dŋt": 487,
  "vaɱ": 487,
  "vab": 485,
  "ugb": 484,
  "cec": 483,
  "ckŋ": 482,
  "yrŋ": 481,
  "tɱf": 481,
  "aby": 481,
  "ffr": 481,
  "buf": 479,
  "nac": 479,
  "␣ka": 478,
  "uda": 477,
  "xeɱ": 476,
  "ifa": 476,
  "ybr": 475,
  "u␣c": 473,
  "cŋw": 469,
  "fab": 469,
  "zŋo": 469,
  "ubd": 469,
  "␣zi": 469,
  "lbe": 468,
  "c␣u": 467,
  "nag": 466,
  "fia": 466,
  "ŋap": 465,
  "eez": 464,
  "kal": 464,
  "ɱtf": 464,
  "ŋza": 463,
  "feu": 462,
  "ryp": 461,
  "syl": 461,
  "␣aq": 461,
  "ŋyw": 461,
  "rfl": 459,
  "ɱiv": 457,
  "ioa": 457,
  "sgu": 455,
  "u␣a": 455,
  "b␣f": 453,
  "gŋu": 453,
  "yla": 452,
  "awl": 452,
  "uŋv": 452,
  "paɱ": 452,
  "ɱtn": 451,
  "lae": 451,
  "yab": 450,
  "ejŋ": 450,
  "sdi": 450,
  "oce": 449,
  "dna": 448,
  "p␣n": 447,
  "aɱu": 447,
  "ŋip": 446,
  "glu": 446,
  "fak": 446,
  "ɱyb": 446,
  "vŋw": 445,
  "ekl": 445,
  "diz": 445,
  "oac": 445,
  "ioɱ": 444,
  "gwr": 443,
  "x␣f": 443,
  "cyl": 443,
  "ynd": 442,
  "tma": 441,
  "ltŋ": 441,
  "klŋ": 441,
  "adh": 440,
  "waɱ": 439,
  "rdw": 438,
  "mŋc": 438,
  "sc␣": 437,
  "dŋx": 437,
  "fad": 436,
  "gɱi": 435,
  "lbŋ": 434,
  "xat": 433,
  "gby": 431,
  "neo": 431,
  "o␣d": 430,
  "sŋa": 430,
  "kad": 429,
  "aic": 429,
  "o␣e": 429,
  "ncɱ": 429,
  "smu": 429,
  "iŋp": 428,
  "ebi": 428,
  "ywr": 428,
  "bbŋ": 427,
  "cŋ␣": 426,
  "jew": 426,
  "iox": 426,
  "ywɱ": 425,
  "gau": 425,
  "o␣ɱ": 424,
  "o␣p": 423,
  "kar": 422,
  "kie": 422,
  "cɱs": 420,
  "o␣b": 420,
  "lfa": 419,
  "lul": 419,
  "stp": 418,
  "wds": 417,
  "gac": 417,
  "ŋrh": 417,
  "eoc": 416,
  "daw": 416,
  "yze": 416,
  "ffu": 416,
  "utw": 415,
  "tuc": 415,
  "o␣r": 415,
  "xy␣": 415,
  "oxi": 415,
  "yll": 415,
  "lps": 414,
  "ab␣": 414,
  "dds": 412,
  "ftw": 412,
  "bte": 412,
  "awk": 411,
  "xio": 410,
  "tuo": 410,
  "kew": 409,
  "lyt": 408,
  "iŋb": 408,
  "btr": 407,
  "ptl": 407,
  "akn": 407,
  "awe": 406,
  "␣uɱ": 405,
  "aor": 405,
  "ŋc␣": 405,
  "ɱix": 404,
  "ytŋ": 404,
  "ldŋ": 404,
  "iac": 404,
  "url": 403,
  "ŋdb": 402,
  "rc␣": 402,
  "llp": 402,
  "ŋaw": 402,
  "ubf": 401,
  "nud": 401,
  "das": 400,
  "ixi": 398,
  "wep": 397,
  "pst": 397,
  "dsi": 397,
  "wsu": 396,
  "btl": 396,
  "b␣s": 395,
  "wra": 395,
  "kst": 393,
  "bdu": 393,
  "yaŋ": 393,
  "ucr": 392,
  "vap": 392,
  "ɱyɱ": 392,
  "ɱda": 392,
  "ewr": 391,
  "usy": 390,
  "ŋig": 390,
  "tɱc": 389,
  "mɱ␣": 388,
  "yŋt": 387,
  "tef": 387,
  "pwa": 387,
  "urɱ": 386,
  "dsŋ": 386,
  "x␣b": 386,
  "udŋ": 385,
  "xpi": 384,
  "jaz": 384,
  "ckb": 383,
  "upw": 383,
  "x␣y": 383,
  "dŋd": 382,
  "ckp": 382,
  "aɱl": 382,
  "jer": 381,
  "nɱŋ": 380,
  "nep": 380,
  "ubc": 380,
  "sɱy": 380,
  "␣ej": 379,
  "oty": 378,
  "ca␣": 377,
  "x␣ɱ": 376,
  "uai": 376,
  "yɱa": 376,
  "u␣t": 376,
  "dys": 375,
  "za␣": 375,
  "ŋ␣z": 374,
  "xag": 373,
  "yl␣": 372,
  "bdi": 372,
  "ody": 371,
  "tnu": 371,
  "kup": 370,
  "gry": 370,
  "i␣a": 370,
  "ryw": 369,
  "fsɱ": 369,
  "bɱe": 368,
  "tev": 368,
  "ux␣": 366,
  "bŋg": 365,
  "eyb": 364,
  "afl": 363,
  "eyi": 363,
  "rpt": 363,
  "gŋg": 362,
  "xib": 362,
  "ckd": 360,
  "esb": 359,
  "pɱl": 359,
  "ccr": 359,
  "b␣c": 359,
  "kŋu": 358,
  "eef": 358,
  "gg␣": 357,
  "sey": 355,
  "hel": 355,
  "vau": 354,
  "ŋkr": 354,
  "ɱao": 352,
  "oŋt": 352,
  "pne": 351,
  "meg": 351,
  "vib": 350,
  "vae": 350,
  "nŋd": 349,
  "wny": 349,
  "pep": 349,
  "pau": 349,
  "buc": 347,
  "yce": 346,
  "ibŋ": 346,
  "fŋŋ": 345,
  "gga": 344,
  "ŋyl": 343,
  "lyɱ": 342,
  "llb": 342,
  "ɱiu": 341,
  "aŋz": 340,
  "edb": 340,
  "ruf": 339,
  "uas": 339,
  "ipŋ": 339,
  "cɱt": 339,
  "dfi": 338,
  "eɱɱ": 337,
  "djŋ": 336,
  "dsl": 336,
  "b␣ɱ": 336,
  "yew": 335,
  "ɱcŋ": 335,
  "laq": 335,
  "fei": 334,
  "ksɱ": 332,
  "kru": 331,
  "yɱn": 331,
  "uvr": 331,
  "pŋg": 331,
  "taw": 330,
  "bap": 330,
  "rwŋ": 330,
  "sɱl": 330,
  "b␣b": 330,
  "stb": 329,
  "yis": 329,
  "pŋ␣": 328,
  "lɱɱ": 328,
  "irb": 328,
  "eze": 327,
  "adg": 327,
  "izz": 327,
  "ɱax": 326,
  "d␣z": 326,
  "eŋp": 326,
  "fev": 325,
  "ecy": 325,
  "␣gy": 324,
  "tɱb": 323,
  "jai": 323,
  "ubg": 323,
  "aɱn": 323,
  "lba": 323,
  "m␣b": 322,
  "sbi": 322,
  "hyd": 322,
  "fsp": 321,
  "ac␣": 320,
  "pcŋ": 320,
  "aux": 319,
  "kdŋ": 318,
  "ska": 318,
  "xeŋ": 318,
  "pyi": 318,
  "rnt": 317,
  "dɱŋ": 317,
  "ofs": 316,
  "dfu": 316,
  "wme": 315,
  "tup": 315,
  "xcu": 315,
  "x␣l": 314,
  "tsɱ": 314,
  "tav": 314,
  "ɱik": 313,
  "bdŋ": 313,
  "rkn": 312,
  "zz␣": 310,
  "ŋov": 310,
  "sfy": 309,
  "u␣ɱ": 309,
  "ugm": 308,
  "ɱef": 307,
  "gid": 306,
  "yre": 306,
  "u␣s": 305,
  "nip": 305,
  "lyn": 305,
  "mug": 304,
  "ga␣": 304,
  "dwŋ": 304,
  "dup": 304,
  "lci": 303,
  "wiv": 303,
  "cib": 303,
  "lɱa": 303,
  "nie": 302,
  "bai": 302,
  "orŋ": 302,
  "guo": 302,
  "nst": 302,
  "aŋv": 301,
  "hes": 301,
  "upc": 300,
  "npi": 299,
  "lyc": 299,
  "aŋw": 299,
  "ywa": 298,
  "rnp": 297,
  "opa": 297,
  "ŋwc": 296,
  "fŋx": 296,
  "ŋgɱ": 296,
  "dlŋ": 295,
  "ɱyc": 294,
  "xŋt": 293,
  "dgm": 292,
  "cuo": 292,
  "ɱaw": 291,
  "kla": 291,
  "ihŋ": 290,
  "izu": 290,
  "ɱeb": 289,
  "sak": 289,
  "zŋɱ": 288,
  "dag": 288,
  "ssw": 288,
  "ygŋ": 287,
  "zur": 287,
  "wnw": 287,
  "ɱɱs": 287,
  "ssn": 287,
  "hau": 287,
  "na␣": 287,
  "wca": 286,
  "myc": 286,
  "guy": 285,
  "neb": 284,
  "ryd": 283,
  "ŋec": 283,
  "rqu": 282,
  "cku": 282,
  "bsu": 282,
  "fuɱ": 281,
  "sɱw": 281,
  "keo": 281,
  "ŋav": 280,
  "b␣r": 279,
  "ŋbr": 279,
  "tui": 279,
  "gyɱ": 279,
  "jaɱ": 278,
  "uuɱ": 278,
  "lŋq": 278,
  "x␣e": 278,
  "eaw": 278,
  "xur": 277,
  "sŋb": 277,
  "dwe": 276,
  "bip": 276,
  "euk": 276,
  "oŋw": 275,
  "auɱ": 275,
  "b␣p": 275,
  "cae": 272,
  "osa": 272,
  "ayl": 270,
  "dug": 270,
  "nul": 269,
  "niu": 269,
  "ŋeg": 269,
  "ŋtc": 269,
  "eev": 268,
  "ciu": 268,
  "ŋwr": 268,
  "ndr": 267,
  "ŋdp": 266,
  "dex": 266,
  "rkl": 265,
  "uxu": 265,
  "nwa": 264,
  "iŋw": 264,
  "rbu": 264,
  "x␣g": 263,
  "eju": 263,
  "uxi": 263,
  "pru": 262,
  "bib": 261,
  "tcr": 261,
  "khe": 259,
  "ilg": 259,
  "nty": 259,
  "rŋz": 259,
  "lka": 258,
  "bug": 258,
  "lkl": 258,
  "afr": 257,
  "nsɱ": 257,
  "gi␣": 256,
  "vre": 256,
  "srŋ": 256,
  "sps": 256,
  "gab": 254,
  "n␣j": 254,
  "tiu": 254,
  "dpŋ": 254,
  "tsp": 253,
  "lpa": 253,
  "nt␣": 253,
  "dni": 253,
  "akd": 252,
  "cyb": 252,
  "sp␣": 252,
  "tsc": 252,
  "tni": 251,
  "zab": 250,
  "bnŋ": 250,
  "gnt": 250,
  "ktɱ": 250,
  "het": 249,
  "kpi": 248,
  "lkh": 247,
  "giz": 247,
  "wla": 247,
  "odw": 246,
  "cag": 246,
  "gut": 246,
  "ssr": 245,
  "gig": 245,
  "cig": 245,
  "apu": 245,
  "yda": 244,
  "dew": 244,
  "his": 244,
  "ylu": 244,
  "jug": 242,
  "b␣d": 242,
  "psu": 242,
  "ryb": 241,
  "wfu": 241,
  "esq": 240,
  "bba": 240,
  "sgr": 239,
  "miɱ": 239,
  "lgr": 239,
  "akt": 238,
  "ɱub": 238,
  "fse": 238,
  "lky": 238,
  "ibb": 238,
  "ŋɱn": 237,
  "ɱex": 237,
  "c␣j": 236,
  "ŋdn": 236,
  "lft": 236,
  "ŋyc": 236,
  "awf": 235,
  "fŋg": 234,
  "abn": 234,
  "ŋdc": 233,
  "ŋdh": 233,
  "ucu": 233,
  "aɱy": 233,
  "␣pn": 233,
  "azŋ": 232,
  "bfŋ": 232,
  "lyg": 232,
  "gti": 232,
  "pŋɱ": 231,
  "aŋq": 230,
  "b␣m": 230,
  "gub": 230,
  "lcɱ": 229,
  "llf": 229,
  "urk": 228,
  "bcŋ": 228,
  "iad": 228,
  "muz": 228,
  "ryɱ": 227,
  "utn": 227,
  "cm␣": 227,
  "ŋka": 227,
  "ŋŋb": 227,
  "cuu": 227,
  "ayw": 226,
  "ewm": 226,
  "au␣": 226,
  "rdr": 226,
  "arh": 226,
  "␣xe": 226,
  "iop": 225,
  "u␣ŋ": 225,
  "ucŋ": 225,
  "ldn": 224,
  "w␣j": 224,
  "isy": 224,
  "ŋai": 224,
  "kɱa": 224,
  "dŋv": 224,
  "yps": 223,
  "lgŋ": 223,
  "nib": 223,
  "tcy": 222,
  "ŋgb": 222,
  "tfl": 221,
  "rtf": 221,
  "ŋeq": 221,
  "ldf": 220,
  "spy": 220,
  "uyi": 219,
  "rsc": 219,
  "occ": 219,
  "dez": 219,
  "ŋrf": 219,
  "tŋk": 219,
  "ezv": 218,
  "ssp": 218,
  "zvŋ": 218,
  "yɱ␣": 217,
  "ipr": 217,
  "hil": 217,
  "sɱb": 217,
  "i␣i": 217,
  "caf": 217,
  "ayf": 217,
  "stn": 216,
  "wbŋ": 216,
  "lih": 216,
  "ssb": 216,
  "oɱi": 216,
  "xty": 216,
  "lfr": 216,
  "ei␣": 216,
  "ulb": 215,
  "rcy": 214,
  "uo␣": 214,
  "kda": 214,
  "dyl": 213,
  "ifs": 212,
  "upb": 212,
  "zŋp": 212,
  "bry": 211,
  "lfw": 211,
  "teh": 211,
  "ayt": 210,
  "fwa": 210,
  "␣ib": 210,
  "duk": 210,
  "tyc": 209,
  "odp": 209,
  "eid": 208,
  "jea": 208,
  "afi": 208,
  "ŋwŋ": 208,
  "nih": 207,
  "seo": 207,
  "ŋgf": 207,
  "ŋwm": 206,
  "scs": 206,
  "tca": 206,
  "iai": 205,
  "p␣v": 204,
  "ckf": 204,
  "hiz": 204,
  "jag": 204,
  "rfs": 203,
  "pŋx": 203,
  "sa␣": 203,
  "pew": 202,
  "wig": 202,
  "u␣d": 200,
  "awŋ": 200,
  "ugi": 200,
  "ptc": 199,
  "ksi": 199,
  "aea": 198,
  "ŋky": 198,
  "wax": 198,
  "dda": 198,
  "ybi": 197,
  "rdu": 197,
  "bub": 196,
  "rdn": 195,
  "pma": 195,
  "geb": 195,
  "ipw": 195,
  "ibs": 195,
  "ɱty": 194,
  "ŋsq": 194,
  "ŋtf": 194,
  "ɱya": 194,
  "aos": 194,
  "tlŋ": 194,
  "ybe": 193,
  "ŋwb": 193,
  "i␣ŋ": 193,
  "␣kŋ": 192,
  "ewp": 192,
  "fŋa": 192,
  "rlf": 191,
  "biɱ": 191,
  "ka␣": 191,
  "ocɱ": 190,
  "isq": 190,
  "kyl": 189,
  "ɱyt": 189,
  "hŋr": 189,
  "feb": 188,
  "zza": 188,
  "wip": 188,
  "rgl": 188,
  "adf": 188,
  "bik": 188,
  "ezi": 188,
  "otp": 188,
  "li␣": 187,
  "iiŋ": 187,
  "eov": 187,
  "tɱp": 187,
  "irg": 186,
  "nau": 186,
  "rdy": 186,
  "tt␣": 186,
  "ɱwŋ": 185,
  "ija": 185,
  "cai": 185,
  "elk": 185,
  "nŋy": 185,
  "ɱij": 184,
  "i␣w": 184,
  "ubp": 184,
  "euc": 184,
  "ctm": 184,
  "wpŋ": 184,
  "ndi": 183,
  "sɱf": 183,
  "cɱc": 181,
  "aje": 181,
  "tɱh": 181,
  "rcs": 181,
  "tya": 181,
  "iid": 181,
  "ŋzŋ": 181,
  "eŋw": 180,
  "tpl": 179,
  "esn": 179,
  "dcŋ": 179,
  "yŋl": 179,
  "geh": 179,
  "awm": 179,
  "t␣z": 179,
  "lŋf": 178,
  "lsa": 178,
  "u␣m": 178,
  "afŋ": 178,
  "byi": 177,
  "tŋy": 177,
  "deu": 177,
  "ɱcr": 177,
  "wkw": 177,
  "kŋa": 177,
  "idw": 176,
  "uka": 176,
  "psŋ": 176,
  "ɱhŋ": 175,
  "ois": 175,
  "iob": 175,
  "ŋsv": 175,
  "keu": 175,
  "sve": 174,
  "kɱ␣": 174,
  "beq": 174,
  "tyi": 174,
  "nŋg": 174,
  "cys": 173,
  "lgi": 173,
  "khŋ": 173,
  "fŋi": 173,
  "lpŋ": 172,
  "ceo": 172,
  "kii": 172,
  "s␣z": 172,
  "oɱa": 171,
  "gbŋ": 171,
  "jar": 171,
  "kfŋ": 170,
  "eod": 170,
  "vee": 170,
  "dgl": 170,
  "bge": 170,
  "gef": 170,
  "tsk": 170,
  "xa␣": 170,
  "ewt": 170,
  "tfa": 169,
  "kip": 169,
  "llw": 169,
  "opŋ": 169,
  "fŋe": 169,
  "mŋg": 169,
  "ayb": 169,
  "utm": 168,
  "ebb": 168,
  "ɱfi": 168,
  "biq": 168,
  "rtc": 168,
  "utg": 168,
  "u␣g": 168,
  "har": 168,
  "aiv": 168,
  "ŋvu": 168,
  "xpu": 168,
  "u␣f": 168,
  "xia": 167,
  "acs": 167,
  "lvŋ": 167,
  "zy␣": 167,
  "oll": 167,
  "yca": 166,
  "ŋɱr": 166,
  "uea": 166,
  "cŋy": 166,
  "ŋwf": 166,
  "m␣ɱ": 166,
  "cni": 166,
  "kdr": 165,
  "lhŋ": 165,
  "icn": 164,
  "aŋl": 164,
  "yzŋ": 164,
  "wie": 164,
  "ihe": 163,
  "esy": 163,
  "ŋaf": 163,
  "pef": 163,
  "wad": 162,
  "cŋb": 162,
  "ftl": 162,
  "ugl": 162,
  "adp": 162,
  "esk": 162,
  "aot": 161,
  "eŋq": 161,
  "ŋsg": 161,
  "kap": 161,
  "ulc": 160,
  "eof": 160,
  "ipy": 160,
  "lŋl": 160,
  "tyɱ": 160,
  "eic": 160,
  "gae": 160,
  "zea": 160,
  "c␣q": 160,
  "agp": 159,
  "ttɱ": 159,
  "aeɱ": 159,
  "caw": 159,
  "i␣t": 159,
  "rih": 158,
  "pya": 158,
  "idy": 158,
  "bfa": 158,
  "sni": 158,
  "out": 158,
  "ɱhe": 158,
  "yɱs": 158,
  "u␣i": 157,
  "lir": 157,
  "nio": 157,
  "azy": 157,
  "eip": 157,
  "kfa": 157,
  "ŋeb": 156,
  "x␣n": 156,
  "r␣z": 156,
  "ŋhy": 156,
  "awb": 156,
  "w␣q": 155,
  "xcŋ": 155,
  "pud": 155,
  "m␣s": 154,
  "l␣z": 154,
  "apr": 154,
  "dbŋ": 154,
  "iɱn": 154,
  "rdc": 154,
  "cak": 154,
  "opɱ": 154,
  "fŋw": 154,
  "vŋɱ": 154,
  "ŋae": 154,
  "u␣l": 154,
  "c␣k": 153,
  "ipb": 153,
  "ŋei": 153,
  "m␣c": 153,
  "uys": 153,
  "mŋa": 153,
  "piv": 152,
  "a␣z": 152,
  "wab": 152,
  "ŋuv": 152,
  "ŋɱu": 152,
  "f␣z": 152,
  "lyb": 152,
  "wŋv": 151,
  "bak": 151,
  "sdŋ": 150,
  "ddy": 150,
  "dcɱ": 149,
  "lpl": 149,
  "ŋgm": 149,
  "gŋc": 149,
  "ɱyr": 149,
  "rɱf": 149,
  "esw": 149,
  "k␣j": 148,
  "tcl": 148,
  "iur": 148,
  "puc": 148,
  "obi": 148,
  "vex": 148,
  "uos": 148,
  "ezŋ": 147,
  "cic": 147,
  "dpl": 147,
  "ti␣": 147,
  "␣pt": 147,
  "irw": 147,
  "kya": 147,
  "gyn": 147,
  "gyr": 147,
  "pwr": 146,
  "ocr": 146,
  "cdŋ": 146,
  "ecd": 146,
  "␣ub": 145,
  "yɱi": 145,
  "rii": 144,
  "itz": 144,
  "xe␣": 144,
  "kak": 144,
  "ri␣": 144,
  "u␣p": 143,
  "tug": 143,
  "uye": 143,
  "heɱ": 143,
  "raj": 143,
  "nab": 142,
  "puf": 142,
  "ŋyb": 142,
  "sda": 141,
  "buo": 141,
  "biu": 141,
  "gfu": 141,
  "pbr": 140,
  "ubv": 140,
  "uoy": 140,
  "tŋv": 140,
  "ŋyf": 140,
  "xtb": 140,
  "ihi": 140,
  "edn": 139,
  "ceh": 139,
  "stc": 139,
  "zŋl": 139,
  "dsm": 139,
  "pex": 139,
  "ueb": 139,
  "ɱɱy": 138,
  "aik": 138,
  "afa": 138,
  "asl": 138,
  "gew": 138,
  "uvi": 138,
  "xcr": 138,
  "tsu": 137,
  "rek": 137,
  "pm␣": 137,
  "kbŋ": 137,
  "wba": 137,
  "osŋ": 137,
  "asn": 137,
  "ɱsɱ": 137,
  "cuc": 136,
  "oca": 136,
  "keɱ": 136,
  "muɱ": 136,
  "tbu": 136,
  "gpi": 135,
  "sbe": 135,
  "kpŋ": 135,
  "xŋp": 135,
  "ɱi␣": 135,
  "tpa": 135,
  "bev": 134,
  "ni␣": 134,
  "wnp": 134,
  "ki␣": 134,
  "ɱyi": 134,
  "m␣m": 133,
  "ŋhu": 133,
  "xle": 133,
  "dbl": 133,
  "␣ak": 133,
  "u␣k": 133,
  "oɱy": 133,
  "kɱe": 133,
  "ŋax": 132,
  "aŋh": 132,
  "aŋp": 132,
  "ufl": 132,
  "lhe": 132,
  "ckɱ": 131,
  "ppɱ": 131,
  "ttu": 131,
  "arq": 131,
  "yhŋ": 131,
  "ysm": 130,
  "gsp": 130,
  "pŋa": 130,
  "dpa": 130,
  "osy": 130,
  "kwŋ": 129,
  "k␣y": 129,
  "eul": 129,
  "yfu": 129,
  "ɱtw": 129,
  "axl": 128,
  "lwŋ": 128,
  "deh": 128,
  "dcr": 128,
  "ktŋ": 128,
  "oge": 128,
  "ldc": 128,
  "rua": 128,
  "hŋd": 128,
  "lri": 128,
  "yni": 127,
  "adb": 127,
  "ŋi␣": 127,
  "eb␣": 127,
  "␣sf": 127,
  "wap": 127,
  "orw": 127,
  "baɱ": 127,
  "wnf": 126,
  "fuc": 126,
  "jeo": 126,
  "ebl": 126,
  "ugŋ": 126,
  "ŋrv": 126,
  "xtŋ": 126,
  "b␣l": 126,
  "m␣d": 125,
  "isj": 125,
  "dye": 125,
  "eya": 125,
  "ŋja": 125,
  "pfu": 125,
  "yac": 125,
  "zal": 124,
  "jaŋ": 124,
  "uŋq": 124,
  "u␣b": 124,
  "ŋŋx": 124,
  "ɱev": 124,
  "sɱn": 124,
  "bŋ␣": 124,
  "dse": 124,
  "lpf": 123,
  "ryn": 123,
  "ysf": 123,
  "rfr": 123,
  "gŋp": 123,
  "vŋŋ": 123,
  "feg": 122,
  "dfl": 122,
  "ceb": 122,
  "aku": 122,
  "pba": 122,
  "tpr": 122,
  "ilh": 122,
  "wmi": 122,
  "elb": 121,
  "sf␣": 121,
  "opi": 121,
  "ɱeg": 121,
  "pbu": 121,
  "peg": 120,
  "aec": 120,
  "ɱtc": 120,
  "rkf": 120,
  "rpu": 120,
  "bup": 119,
  "tbi": 119,
  "wfa": 119,
  "ɱpy": 119,
  "rbr": 119,
  "ehy": 119,
  "lfe": 118,
  "ba␣": 118,
  "zyg": 118,
  "mau": 118,
  "gei": 118,
  "uxt": 118,
  "hag": 118,
  "m␣g": 118,
  "ɱye": 118,
  "aoh": 118,
  "ckc": 118,
  "uft": 118,
  "rah": 117,
  "ewb": 117,
  "bŋh": 117,
  "kŋf": 117,
  "irn": 117,
  "oŋl": 117,
  "tga": 117,
  "bbr": 117,
  "jux": 117,
  "wma": 117,
  "hŋw": 116,
  "ɱŋk": 116,
  "ɱu␣": 116,
  "ika": 116,
  "ypu": 116,
  "wnh": 116,
  "biz": 116,
  "bŋb": 116,
  "jut": 115,
  "yŋs": 115,
  "␣iv": 115,
  "ŋlp": 115,
  "p␣k": 115,
  "ubw": 115,
  "luv": 115,
  "cya": 115,
  "luk": 115,
  "ikŋ": 114,
  "cuŋ": 114,
  "kaŋ": 114,
  "eea": 114,
  "ɱyŋ": 114,
  "okl": 113,
  "bwa": 113,
  "ydŋ": 113,
  "urh": 112,
  "usŋ": 112,
  "pif": 112,
  "cyn": 112,
  "dwr": 111,
  "nuŋ": 111,
  "odb": 111,
  "elr": 111,
  "kra": 111,
  "tah": 111,
  "ulv": 110,
  "zeb": 110,
  "pyg": 110,
  "xŋs": 110,
  "uia": 110,
  "tda": 110,
  "mŋp": 110,
  "␣ji": 110,
  "bys": 110,
  "ah␣": 110,
  "wsɱ": 110,
  "rɱt": 110,
  "uki": 109,
  "i␣f": 109,
  "huɱ": 109,
  "ɱeh": 109,
  "o␣v": 109,
  "ggy": 109,
  "ssɱ": 109,
  "yŋg": 109,
  "uŋj": 109,
  "uac": 109,
  "ɱtm": 108,
  "igy": 108,
  "ltw": 108,
  "eɱl": 108,
  "eoi": 108,
  "peu": 108,
  "ceu": 107,
  "n␣k": 107,
  "sax": 107,
  "␣ts": 107,
  "erj": 107,
  "␣uk": 107,
  "sŋs": 107,
  "ryz": 107,
  "␣kr": 107,
  "aiz": 106,
  "vŋs": 106,
  "ɱpb": 106,
  "hyɱ": 106,
  "neɱ": 105,
  "ctf": 105,
  "sge": 105,
  "psa": 105,
  "i␣s": 105,
  "stf": 105,
  "dbi": 105,
  "hed": 105,
  "ɱyg": 105,
  "ecs": 105,
  "ioi": 105,
  "yby": 105,
  "zas": 104,
  "rex": 104,
  "tze": 104,
  "ŋɱl": 104,
  "odc": 104,
  "jŋc": 104,
  "yfr": 104,
  "tsŋ": 104,
  "akf": 104,
  "rix": 103,
  "dpe": 103,
  "yba": 103,
  "ncr": 103,
  "bgr": 103,
  "bi␣": 103,
  "jui": 103,
  "o␣n": 103,
  "isn": 103,
  "uɱv": 102,
  "ɱpg": 102,
  "oed": 102,
  "uxe": 102,
  "udl": 102,
  "aha": 102,
  "ib␣": 102,
  "swu": 102,
  "i␣c": 102,
  "luf": 101,
  "osp": 101,
  "sbŋ": 101,
  "wry": 101,
  "tgr": 101,
  "x␣v": 101,
  "xɱu": 101,
  "rax": 101,
  "kaw": 101,
  "ubr": 101,
  "dcu": 101,
  "cuf": 101,
  "pyl": 101,
  "bti": 101,
  "cɱw": 100,
  "cek": 100,
  "␣s␣": 100,
  "lbw": 100,
  "aln": 100,
  "npl": 100,
  "kŋ␣": 100,
  "p␣q": 100,
  "kŋo": 99,
  "rtg": 99,
  "dbr": 99,
  "wcŋ": 98,
  "iap": 98,
  "arw": 98,
  "ytt": 98,
  "buk": 98,
  "xyl": 98,
  "eu␣": 98,
  "upu": 97,
  "pa␣": 97,
  "ysc": 97,
  "i␣m": 97,
  "rkp": 97,
  "ygm": 96,
  "ɱuf": 96,
  "␣lb": 96,
  "kiɱ": 96,
  "etp": 96,
  "sju": 96,
  "off": 96,
  "nfa": 96,
  "ldb": 96,
  "ŋtb": 96,
  "gmy": 96,
  "ftŋ": 96,
  "b␣e": 96,
  "ewc": 95,
  "ŋkt": 95,
  "lce": 95,
  "rkɱ": 95,
  "leh": 95,
  "ŋtw": 94,
  "rtz": 94,
  "wks": 94,
  "m␣r": 94,
  "ckh": 94,
  "veo": 94,
  "sŋw": 94,
  "bpl": 94,
  "ffb": 94,
  "eyɱ": 93,
  "yfl": 93,
  "rdb": 93,
  "xaf": 93,
  "lil": 93,
  "xŋr": 92,
  "bca": 92,
  "dfŋ": 92,
  "tgu": 92,
  "lbs": 92,
  "yne": 92,
  "m␣p": 92,
  "kŋŋ": 92,
  "btŋ": 92,
  "u␣n": 92,
  "btf": 91,
  "kbi": 91,
  "eeb": 91,
  "zie": 91,
  "yru": 91,
  "otl": 91,
  "gŋɱ": 91,
  "twr": 91,
  "lah": 91,
  "atn": 91,
  "bju": 90,
  "ɱue": 90,
  "␣ŋy": 90,
  "iov": 90,
  "ufŋ": 90,
  "pbŋ": 90,
  "ŋez": 90,
  "idf": 90,
  "p␣y": 90,
  "o␣u": 90,
  "ofi": 90,
  "adt": 89,
  "dii": 89,
  "uoi": 89,
  "uze": 89,
  "eŋɱ": 88,
  "udu": 88,
  "i␣d": 88,
  "␣gn": 88,
  "␣yt": 88,
  "kas": 88,
  "ygu": 88,
  "ŋwy": 88,
  "tsw": 88,
  "␣ny": 88,
  "ypr": 88,
  "rkw": 87,
  "i␣p": 87,
  "lŋe": 87,
  "eiɱ": 87,
  "nta": 87,
  "yeb": 87,
  "okŋ": 87,
  "kwi": 87,
  "ioe": 87,
  "ŋep": 87,
  "ezz": 86,
  "tu␣": 86,
  "olb": 86,
  "ɱ␣z": 86,
  "kca": 86,
  "g␣z": 86,
  "wuŋ": 86,
  "daz": 86,
  "dui": 86,
  "sgi": 86,
  "ygr": 85,
  "dby": 85,
  "kfi": 85,
  "ŋog": 85,
  "gyp": 85,
  "rtb": 85,
  "akŋ": 85,
  "nyɱ": 85,
  "eŋb": 85,
  "odŋ": 84,
  "lye": 84,
  "wts": 84,
  "wy␣": 84,
  "uaɱ": 84,
  "lpr": 84,
  "n␣q": 84,
  "xal": 84,
  "fba": 84,
  "snu": 83,
  "krŋ": 83,
  "yzi": 83,
  "ocl": 83,
  "tgŋ": 83,
  "rɱh": 83,
  "asq": 83,
  "zli": 83,
  "lkw": 83,
  "p␣j": 83,
  "akl": 82,
  "atp": 82,
  "wse": 82,
  "ewn": 82,
  "ɱca": 82,
  "k␣k": 82,
  "ŋxa": 82,
  "itf": 82,
  "ewd": 82,
  "b␣n": 82,
  "ynx": 82,
  "ksm": 81,
  "irk": 81,
  "pke": 81,
  "tŋf": 81,
  "sde": 81,
  "evu": 81,
  "ŋkɱ": 81,
  "nui": 81,
  "otŋ": 81,
  "buz": 81,
  "vŋ␣": 81,
  "kse": 81,
  "oŋɱ": 81,
  "zel": 81,
  "myŋ": 81,
  "ilf": 80,
  "u␣r": 80,
  "ckt": 80,
  "dik": 80,
  "ruv": 80,
  "oya": 80,
  "gev": 80,
  "dyg": 80,
  "tts": 80,
  "vŋd": 80,
  "gec": 80,
  "ivy": 79,
  "obŋ": 79,
  "iae": 79,
  "tja": 79,
  "hŋg": 79,
  "b␣u": 79,
  "byt": 79,
  "jee": 79,
  "zet": 79,
  "u␣e": 79,
  "ckr": 79,
  "aet": 78,
  "jes": 78,
  "ubn": 78,
  "kbe": 78,
  "ŋob": 78,
  "␣ug": 78,
  "ŋzi": 78,
  "cɱh": 78,
  "bw␣": 78,
  "␣ee": 78,
  "aɱw": 77,
  "psɱ": 77,
  "cbi": 77,
  "elh": 77,
  "ygi": 77,
  "hŋs": 77,
  "yeŋ": 77,
  "rnu": 77,
  "icb": 77,
  "oid": 77,
  "dav": 77,
  "dsp": 76,
  "o␣y": 76,
  "ɱay": 76,
  "c␣y": 76,
  "nhi": 76,
  "aŋf": 76,
  "gŋw": 76,
  "ŋwp": 76,
  "i␣ɱ": 76,
  "rky": 76,
  "fta": 76,
  "rct": 76,
  "ŋoe": 75,
  "iyŋ": 75,
  "peb": 75,
  "ŋlɱ": 75,
  "kiy": 75,
  "atw": 75,
  "hŋŋ": 75,
  "m␣e": 74,
  "lsc": 74,
  "wŋk": 74,
  "bew": 74,
  "ldu": 74,
  "ekd": 74,
  "c␣z": 74,
  "olɱ": 73,
  "fae": 73,
  "zŋa": 73,
  "zee": 73,
  "ieb": 73,
  "rsm": 73,
  "bye": 73,
  "sŋe": 73,
  "xi␣": 73,
  "lal": 73,
  "zzi": 73,
  "bue": 73,
  "aed": 73,
  "rij": 73,
  "ŋsk": 73,
  "ywe": 73,
  "rlu": 72,
  "bhŋ": 72,
  "aru": 72,
  "ŋrq": 72,
  "gey": 72,
  "efy": 72,
  "ogl": 72,
  "ofe": 72,
  "ccɱ": 72,
  "e␣x": 72,
  "wng": 72,
  "keb": 72,
  "wdi": 72,
  "k␣q": 72,
  "ɱdi": 72,
  "ɱsy": 72,
  "ɱsc": 72,
  "ii␣": 72,
  "pae": 72,
  "wdŋ": 71,
  "bcu": 71,
  "xel": 70,
  "tz␣": 70,
  "ngr": 70,
  "z␣a": 70,
  "ɱsi": 70,
  "rŋq": 70,
  "lnu": 70,
  "␣ŋo": 70,
  "edɱ": 70,
  "pɱt": 69,
  "cse": 69,
  "gɱn": 69,
  "ɱup": 69,
  "bez": 69,
  "fuz": 69,
  "␣az": 69,
  "n␣y": 69,
  "ntu": 69,
  "iju": 69,
  "i␣b": 69,
  "ɱwɱ": 69,
  "gɱa": 69,
  "bŋe": 68,
  "kbu": 68,
  "ueg": 68,
  "␣ŋg": 68,
  "i␣r": 68,
  "ɱve": 68,
  "b␣g": 67,
  "y␣z": 67,
  "axp": 67,
  "fne": 67,
  "pɱu": 67,
  "gfi": 67,
  "ɱtt": 67,
  "ɱfe": 67,
  "jua": 67,
  "ɱud": 67,
  "bty": 67,
  "ɱsŋ": 66,
  "ueo": 66,
  "gaf": 66,
  "xud": 66,
  "xɱŋ": 66,
  "evy": 66,
  "uep": 66,
  "lru": 66,
  "gbi": 66,
  "ŋtg": 65,
  "nsp": 65,
  "yci": 65,
  "bpŋ": 65,
  "ŋik": 65,
  "kta": 65,
  "oɱŋ": 65,
  "myr": 65,
  "dje": 65,
  "sst": 64,
  "yfi": 64,
  "ɱci": 64,
  "rhu": 64,
  "ɱtj": 64,
  "dŋf": 64,
  "dbe": 64,
  "paq": 64,
  "llt": 63,
  "pix": 63,
  "wsl": 63,
  "vue": 63,
  "olu": 63,
  "llh": 63,
  "pmŋ": 63,
  "ctn": 63,
  "yga": 63,
  "maz": 62,
  "ui␣": 62,
  "ɱfa": 62,
  "beɱ": 62,
  "uɱc": 62,
  "␣eb": 62,
  "wiz": 62,
  "␣zy": 62,
  "nsi": 62,
  "ŋdk": 62,
  "dix": 62,
  "kys": 62,
  "urq": 61,
  "kea": 61,
  "pbe": 61,
  "kyw": 61,
  "ai␣": 61,
  "tsa": 61,
  "viz": 61,
  "oft": 61,
  "apn": 61,
  "tbe": 61,
  "tŋz": 61,
  "exq": 60,
  "pki": 60,
  "klu": 60,
  "xqu": 60,
  "ilb": 60,
  "ahŋ": 60,
  "esl": 60,
  "yng": 60,
  "ovi": 60,
  "cɱp": 60,
  "rkh": 60,
  "yŋv": 59,
  "␣ay": 59,
  "rpm": 59,
  "kpl": 59,
  "jiŋ": 59,
  "ayg": 59,
  "ysa": 59,
  "zze": 59,
  "cst": 59,
  "xŋd": 58,
  "xub": 58,
  "sby": 58,
  "ubh": 58,
  "eyd": 58,
  "oly": 58,
  "ocŋ": 58,
  "uɱf": 57,
  "tpe": 57,
  "cyp": 57,
  "oka": 57,
  "epf": 57,
  "ɱeq": 57,
  "o␣q": 57,
  "twɱ": 57,
  "ayr": 57,
  "oiŋ": 57,
  "ŋn␣": 57,
  "rny": 57,
  "rwr": 57,
  "myz": 57,
  "cty": 57,
  "nae": 57,
  "iep": 56,
  "wbe": 56,
  "fha": 56,
  "cyɱ": 56,
  "hyŋ": 56,
  "bni": 56,
  "bŋk": 56,
  "lu␣": 56,
  "pfa": 56,
  "yeo": 56,
  "ffh": 56,
  "lna": 55,
  "olt": 55,
  "uv␣": 55,
  "zaŋ": 55,
  "yde": 55,
  "eyn": 55,
  "ci␣": 55,
  "sae": 55,
  "uef": 55,
  "lb␣": 55,
  "␣ŋe": 55,
  "gta": 54,
  "tnŋ": 54,
  "ŋsd": 54,
  "kay": 54,
  "yak": 54,
  "aŋb": 54,
  "rnf": 54,
  "syp": 54,
  "ŋŋh": 54,
  "npŋ": 54,
  "sdu": 54,
  "eow": 54,
  "d␣x": 54,
  "kba": 53,
  "lek": 53,
  "zzŋ": 53,
  "sbr": 53,
  "ɱpk": 53,
  "yŋ␣": 53,
  "eyh": 53,
  "rye": 53,
  "ewf": 53,
  "lbi": 52,
  "own": 52,
  "zŋd": 52,
  "ffy": 52,
  "ŋcs": 52,
  "aŋj": 52,
  "tŋh": 52,
  "x␣u": 52,
  "rnb": 52,
  "ɱuc": 52,
  "ncŋ": 52,
  "cew": 52,
  "otn": 52,
  "yrd": 52,
  "mye": 51,
  "epm": 51,
  "yly": 51,
  "ygy": 51,
  "yrs": 51,
  "lyw": 51,
  "wnr": 51,
  "exy": 51,
  "fŋɱ": 51,
  "sek": 51,
  "odn": 51,
  "gɱf": 51,
  "rvy": 51,
  "udf": 50,
  "si␣": 50,
  "aar": 50,
  "ybu": 50,
  "wmŋ": 50,
  "kri": 50,
  "wsr": 50,
  "ɱek": 50,
  "csi": 50,
  "peɱ": 50,
  "baf": 50,
  "aky": 50,
  "ŋbc": 50,
  "piu": 50,
  "stg": 50,
  "ysp": 50,
  "ueu": 50,
  "tfe": 50,
  "hŋe": 50,
  "ɱnu": 50,
  "siq": 49,
  "heu": 49,
  "wfŋ": 49,
  "jŋg": 49,
  "orb": 49,
  "vra": 49,
  "rju": 49,
  "mya": 49,
  "otw": 49,
  "jub": 49,
  "lya": 49,
  "ptr": 49,
  "nŋx": 49,
  "␣ŋz": 49,
  "uru": 49,
  "eio": 49,
  "b␣v": 49,
  "eeh": 49,
  "eja": 48,
  "ŋyh": 48,
  "swr": 48,
  "lsɱ": 48,
  "zly": 48,
  "iez": 48,
  "dpi": 48,
  "tcu": 48,
  "wŋe": 48,
  "ywŋ": 48,
  "olc": 48,
  "kcŋ": 48,
  "fry": 48,
  "ysŋ": 48,
  "dke": 47,
  "sut": 47,
  "llr": 47,
  "sŋg": 47,
  "lix": 47,
  "rgɱ": 47,
  "bsɱ": 47,
  "nil": 47,
  "z␣c": 47,
  "uol": 47,
  "wa␣": 47,
  "gm␣": 47,
  "bif": 47,
  "zŋr": 47,
  "fax": 46,
  "ya␣": 46,
  "ŋtd": 46,
  "lfŋ": 46,
  "cɱf": 46,
  "oec": 46,
  "kuŋ": 46,
  "oŋŋ": 46,
  "rkŋ": 46,
  "ivu": 46,
  "iaq": 45,
  "iŋr": 45,
  "ɱde": 45,
  "nly": 45,
  "hui": 45,
  "pug": 45,
  "piz": 45,
  "yny": 45,
  "agt": 45,
  "wsi": 45,
  "ŋvy": 45,
  "evr": 45,
  "jŋl": 45,
  "uoŋ": 45,
  "gpŋ": 45,
  "byr": 45,
  "nri": 44,
  "zir": 44,
  "kha": 44,
  "kaɱ": 44,
  "icc": 44,
  "␣ku": 44,
  "igl": 44,
  "edc": 44,
  "kiv": 44,
  "awd": 44,
  "zig": 44,
  "edw": 44,
  "baz": 44,
  "u␣j": 44,
  "vrŋ": 44,
  "z␣s": 44,
  "dgu": 44,
  "ŋpk": 43,
  "ŋoc": 43,
  "wt␣": 43,
  "syr": 43,
  "osc": 43,
  "vyw": 43,
  "hs␣": 43,
  "vŋa": 43,
  "nub": 43,
  "sŋy": 43,
  "m␣l": 43,
  "lup": 43,
  "axw": 43,
  "yr␣": 43,
  "aŋr": 43,
  "eug": 43,
  "pez": 43,
  "ŋzz": 43,
  "f␣x": 43,
  "ŋkh": 42,
  "lld": 42,
  "bau": 42,
  "yŋp": 42,
  "dte": 42,
  "bcl": 42,
  "mei": 42,
  "atb": 42,
  "wst": 42,
  "ɱpm": 42,
  "nhŋ": 42,
  "vyi": 42,
  "wbr": 42,
  "zŋ␣": 41,
  "udb": 41,
  "edt": 41,
  "␣ŋk": 41,
  "nŋz": 41,
  "awg": 41,
  "oŋn": 41,
  "eif": 41,
  "wk␣": 41,
  "eue": 41,
  "ahs": 41,
  "upk": 41,
  "afn": 41,
  "ywi": 41,
  "oh␣": 40,
  "fŋd": 40,
  "idr": 40,
  "zzy": 40,
  "ŋoz": 40,
  "kpa": 40,
  "bŋc": 40,
  "xwi": 40,
  "p␣z": 40,
  "ŋuu": 40,
  "bde": 40,
  "oɱɱ": 40,
  "rg␣": 40,
  "wgr": 39,
  "nfi": 39,
  "itb": 39,
  "azu": 39,
  "lfl": 39,
  "yd␣": 39,
  "ŋtn": 39,
  "yxŋ": 39,
  "oda": 39,
  "lyŋ": 39,
  "ixa": 39,
  "ugn": 39,
  "nge": 39,
  "lɱl": 38,
  "xus": 38,
  "iof": 38,
  "␣vs": 38,
  "efc": 38,
  "ekn": 38,
  "fca": 38,
  "oba": 38,
  "pnŋ": 38,
  "okɱ": 38,
  "llc": 38,
  "wsc": 38,
  "jel": 38,
  "iɱl": 38,
  "wss": 38,
  "ua␣": 38,
  "jad": 38,
  "yhe": 38,
  "mez": 38,
  "okb": 38,
  "kry": 38,
  "huŋ": 37,
  "dfe": 37,
  "gŋb": 37,
  "otd": 37,
  "ɱyx": 37,
  "uif": 37,
  "xaŋ": 37,
  "vŋg": 37,
  "ypn": 37,
  "gep": 37,
  "uiz": 37,
  "vip": 37,
  "idp": 36,
  "gwŋ": 36,
  "nah": 36,
  "rnl": 36,
  "du␣": 36,
  "dad": 36,
  "rsl": 36,
  "mah": 36,
  "ieɱ": 36,
  "suz": 36,
  "sɱs": 36,
  "vri": 36,
  "epy": 36,
  "beo": 36,
  "ayh": 36,
  "zag": 35,
  "auv": 35,
  "tae": 35,
  "yls": 35,
  "ɱta": 35,
  "wdy": 35,
  "dsk": 35,
  "dga": 35,
  "otr": 35,
  "z␣m": 35,
  "kbr": 35,
  "pue": 35,
  "ɱvi": 35,
  "jŋs": 35,
  "haɱ": 35,
  "ybd": 35,
  "pi␣": 35,
  "psc": 35,
  "ayp": 35,
  "yɱy": 35,
  "lnŋ": 35,
  "dgy": 35,
  "miz": 35,
  "tɱt": 35,
  "xas": 34,
  "ftb": 34,
  "zep": 34,
  "gza": 34,
  "kaz": 34,
  "pfi": 34,
  "nup": 34,
  "ryg": 34,
  "ptw": 34,
  "xab": 34,
  "rdp": 34,
  "ddu": 34,
  "zit": 34,
  "ɱtŋ": 34,
  "nx␣": 34,
  "riq": 34,
  "pwe": 34,
  "ryc": 34,
  "igz": 34,
  "nŋp": 33,
  "ffn": 33,
  "ŋoi": 33,
  "abh": 33,
  "di␣": 33,
  "cmi": 33,
  "dud": 33,
  "ddŋ": 33,
  "eob": 33,
  "sŋj": 33,
  "nus": 33,
  "ocy": 33,
  "uod": 33,
  "rnc": 33,
  "iln": 33,
  "bsl": 33,
  "rcm": 33,
  "jau": 32,
  "ppm": 32,
  "ksg": 32,
  "lda": 32,
  "ŋns": 32,
  "yss": 32,
  "bŋp": 32,
  "zuɱ": 32,
  "zŋi": 32,
  "fcɱ": 32,
  "ffc": 32,
  "ekk": 32,
  "iaz": 32,
  "aie": 32,
  "ylc": 32,
  "uku": 32,
  "viu": 32,
  "aol": 32,
  "apb": 32,
  "aub": 32,
  "vew": 32,
  "eex": 32,
  "cud": 32,
  "oru": 31,
  "bne": 31,
  "pwi": 31,
  "tik": 31,
  "␣ds": 31,
  "keh": 31,
  "i␣e": 31,
  "fsi": 31,
  "jab": 31,
  "xwŋ": 31,
  "lsy": 31,
  "␣ry": 31,
  "rdh": 31,
  "cŋk": 31,
  "akw": 31,
  "sjŋ": 31,
  "tyw": 31,
  "wpa": 31,
  "z␣f": 31,
  "aup": 31,
  "oze": 31,
  "kg␣": 30,
  "ydi": 30,
  "kio": 30,
  "iwa": 30,
  "iɱy": 30,
  "oga": 30,
  "dha": 30,
  "dih": 30,
  "rgs": 30,
  "maf": 30,
  "elw": 30,
  "fdŋ": 30,
  "i␣g": 30,
  "␣kl": 30,
  "ɱŋx": 30,
  "ggŋ": 30,
  "iha": 30,
  "ohs": 30,
  "awr": 30,
  "lcy": 30,
  "rɱw": 30,
  "piq": 30,
  "wfi": 30,
  "abj": 30,
  "kuɱ": 29,
  "␣fj": 29,
  "fjŋ": 29,
  "niɱ": 29,
  "ziɱ": 29,
  "etn": 29,
  "ael": 29,
  "lkt": 29,
  "ɱpf": 29,
  "ova": 29,
  "ŋib": 29,
  "iŋx": 29,
  "kua": 29,
  "gɱy": 29,
  "ŋsn": 29,
  "xif": 28,
  "tys": 28,
  "erz": 28,
  "gaw": 28,
  "rkr": 28,
  "wki": 28,
  "ixp": 28,
  "nfu": 28,
  "ypl": 28,
  "nuf": 28,
  "ŋxw": 28,
  "piɱ": 28,
  "gao": 28,
  "cŋx": 28,
  "bu␣": 28,
  "pwŋ": 28,
  "gnu": 28,
  "bgl": 28,
  "elg": 28,
  "hŋɱ": 27,
  "uva": 27,
  "i␣l": 27,
  "ɱry": 27,
  "muf": 27,
  "bae": 27,
  "z␣p": 27,
  "keg": 27,
  "ŋgp": 27,
  "avu": 27,
  "lyl": 27,
  "aeŋ": 27,
  "nue": 27,
  "x␣k": 27,
  "ssc": 27,
  "rɱb": 27,
  "zaa": 27,
  "mŋw": 27,
  "eah": 27,
  "byc": 27,
  "kŋl": 27,
  "iwi": 27,
  "olh": 27,
  "␣ek": 27,
  "ytr": 26,
  "xig": 26,
  "eoa": 26,
  "giu": 26,
  "waf": 26,
  "gbe": 26,
  "oy␣": 26,
  "vef": 26,
  "kke": 26,
  "lyh": 26,
  "ŋtp": 26,
  "nid": 26,
  "i␣j": 26,
  "fst": 26,
  "dsw": 26,
  "etf": 26,
  "bki": 26,
  "dsu": 26,
  "hŋt": 26,
  "rja": 26,
  "jav": 26,
  "auk": 26,
  "asb": 26,
  "jay": 26,
  "z␣b": 26,
  "byw": 26,
  "mav": 26,
  "ubk": 26,
  "uqu": 26,
  "jŋv": 26,
  "hɱi": 25,
  "m␣u": 25,
  "ɱwi": 25,
  "ec␣": 25,
  "dki": 25,
  "ɱbn": 25,
  "␣vy": 25,
  "ruo": 25,
  "myx": 25,
  "kif": 25,
  "dyk": 25,
  "mg␣": 25,
  "hur": 25,
  "aev": 25,
  "oxy": 25,
  "xau": 25,
  "yeu": 25,
  "ɱeu": 25,
  "yke": 25,
  "ftn": 25,
  "wru": 25,
  "osk": 25,
  "yta": 24,
  "yxi": 24,
  "faw": 24,
  "wnc": 24,
  "ahɱ": 24,
  "wah": 24,
  "ihy": 24,
  "gmŋ": 24,
  "rya": 24,
  "odɱ": 24,
  "ja␣": 24,
  "caq": 24,
  "ilc": 24,
  "apw": 24,
  "uyŋ": 24,
  "std": 24,
  "ehu": 24,
  "jŋ␣": 24,
  "quy": 24,
  "ɱtu": 24,
  "rje": 24,
  "kyd": 24,
  "skr": 24,
  "lyu": 23,
  "lŋz": 23,
  "ŋii": 23,
  "h␣w": 23,
  "ayd": 23,
  "ldy": 23,
  "yaw": 23,
  "wac": 23,
  "nca": 23,
  "baw": 23,
  "aɱf": 23,
  "afy": 23,
  "waw": 23,
  "lfp": 23,
  "zae": 23,
  "fŋt": 23,
  "nc␣": 23,
  "aue": 23,
  "␣xx": 23,
  "skt": 23,
  "lyf": 23,
  "syd": 23,
  "adk": 23,
  "wpl": 23,
  "bek": 23,
  "yur": 23,
  "jig": 23,
  "apm": 23,
  "nwi": 23,
  "wdr": 23,
  "uav": 23,
  "pmu": 23,
  "eln": 23,
  "sɱt": 23,
  "ɱsd": 23,
  "iek": 23,
  "dpɱ": 23,
  "auf": 23,
  "tsy": 22,
  "z␣g": 22,
  "etm": 22,
  "ltz": 22,
  "jŋe": 22,
  "m␣n": 22,
  "gnp": 22,
  "skn": 22,
  "ŋeh": 22,
  "veb": 22,
  "ltl": 22,
  "ort": 22,
  "iwŋ": 22,
  "cŋq": 22,
  "knu": 22,
  "yaɱ": 22,
  "ltm": 22,
  "rir": 22,
  "nɱ␣": 22,
  "ysl": 22,
  "bgi": 22,
  "ahy": 22,
  "oby": 22,
  "ɱsm": 22,
  "fpe": 22,
  "had": 22,
  "zba": 22,
  "avv": 22,
  "tzb": 22,
  "sii": 22,
  "ayc": 22,
  "ldv": 22,
  "yŋk": 21,
  "ŋaz": 21,
  "okc": 21,
  "ŋxɱ": 21,
  "rzŋ": 21,
  "ŋxŋ": 21,
  "ŋ␣x": 21,
  "tsl": 21,
  "ɱiq": 21,
  "u␣u": 21,
  "yŋd": 21,
  "ktr": 21,
  "xx␣": 21,
  "ŋuq": 21,
  "aɱt": 21,
  "tzi": 21,
  "pdr": 21,
  "zap": 21,
  "ysr": 21,
  "tux": 21,
  "fbe": 21,
  "pdŋ": 21,
  "bcɱ": 21,
  "ŋxc": 21,
  "olg": 21,
  "ksc": 21,
  "lbl": 21,
  "kŋs": 21,
  "kyr": 21,
  "tke": 21,
  "byl": 20,
  "␣p␣": 20,
  "␣ao": 20,
  "kfu": 20,
  "ŋkf": 20,
  "agɱ": 20,
  "h␣ŋ": 20,
  "kŋr": 20,
  "tpi": 20,
  "rsw": 20,
  "uay": 20,
  "ŋŋo": 20,
  "h␣a": 20,
  "ɱaj": 20,
  "tmi": 20,
  "usw": 20,
  "␣e␣": 20,
  "ahi": 20,
  "oia": 20,
  "gwa": 20,
  "ɱsp": 20,
  "eyp": 20,
  "ksŋ": 20,
  "psp": 20,
  "hee": 20,
  "xya": 19,
  "gmi": 19,
  "sɱp": 19,
  "rɱn": 19,
  "dek": 19,
  "nug": 19,
  "z␣t": 19,
  "ebc": 19,
  "wpi": 19,
  "v␣a": 19,
  "␣kh": 19,
  "rez": 19,
  "ŋpb": 19,
  "geu": 19,
  "pej": 19,
  "nbi": 19,
  "ji␣": 19,
  "ɱyn": 19,
  "iky": 19,
  "vvy": 19,
  "tiw": 19,
  "ezy": 19,
  "ao␣": 19,
  "ukŋ": 19,
  "lns": 19,
  "pga": 19,
  "ik␣": 19,
  "rdv": 19,
  "suo": 19,
  "ɱtr": 19,
  "cao": 19,
  "uɱl": 19,
  "gwe": 19,
  "ŋuk": 19,
  "okk": 19,
  "pfr": 19,
  "mae": 19,
  "␣xy": 19,
  "etk": 19,
  "fek": 19,
  "dyb": 19,
  "fag": 18,
  "daf": 18,
  "s␣x": 18,
  "aɱr": 18,
  "dfr": 18,
  "fni": 18,
  "rpn": 18,
  "dka": 18,
  "yŋɱ": 18,
  "z␣i": 18,
  "yat": 18,
  "ŋji": 18,
  "gba": 18,
  "tih": 18,
  "hyn": 18,
  "rsk": 18,
  "xet": 18,
  "fŋy": 18,
  "x␣j": 18,
  "ŋdq": 18,
  "eyw": 18,
  "oky": 18,
  "ppu": 18,
  "fa␣": 18,
  "oŋu": 18,
  "kef": 18,
  "rjŋ": 18,
  "ŋbw": 18,
  "aɱc": 18,
  "ŋbn": 18,
  "aok": 18,
  "kki": 18,
  "lwi": 18,
  "aja": 17,
  "ylt": 17,
  "eox": 17,
  "aeg": 17,
  "uk␣": 17,
  "bŋf": 17,
  "ifr": 17,
  "ulw": 17,
  "␣y␣": 17,
  "zŋe": 17,
  "uei": 17,
  "ncu": 17,
  "mia": 17,
  "naw": 17,
  "dae": 17,
  "otm": 17,
  "wuɱ": 17,
  "␣aa": 17,
  "eia": 17,
  "␣kɱ": 17,
  "awt": 17,
  "␣d␣": 17,
  "idb": 17,
  "wŋp": 17,
  "apd": 17,
  "vix": 17,
  "ysu": 17,
  "h␣i": 17,
  "hik": 17,
  "jas": 17,
  "oln": 17,
  "llg": 17,
  "wŋb": 17,
  "ɱgŋ": 17,
  "has": 17,
  "dji": 16,
  "esd": 16,
  "sgŋ": 16,
  "epd": 16,
  "raa": 16,
  "kiw": 16,
  "xŋg": 16,
  "kae": 16,
  "ɱwr": 16,
  "tna": 16,
  "tge": 16,
  "ɱiw": 16,
  "iah": 16,
  "yrh": 16,
  "leq": 16,
  "w␣z": 16,
  "zeɱ": 16,
  "upf": 16,
  "oeŋ": 16,
  "oys": 16,
  "pp␣": 16,
  "yad": 16,
  "pyc": 16,
  "bna": 16,
  "nbu": 16,
  "bao": 16,
  "dyw": 16,
  "iz␣": 16,
  "orn": 16,
  "ŋwg": 16,
  "skl": 16,
  "lyv": 16,
  "miu": 16,
  "neq": 16,
  "opr": 16,
  "eŋk": 16,
  "wnd": 16,
  "cɱg": 16,
  "edh": 16,
  "z␣w": 15,
  "wfl": 15,
  "vŋo": 15,
  "az␣": 15,
  "ɱtb": 15,
  "ylp": 15,
  "fŋv": 15,
  "oŋh": 15,
  "oŋb": 15,
  "xaz": 15,
  "muo": 15,
  "␣eo": 15,
  "ɱhi": 15,
  "␣ia": 15,
  "uks": 15,
  "ɱ␣x": 15,
  "utv": 15,
  "uɱh": 15,
  "bwe": 15,
  "ŋpc": 15,
  "dyɱ": 15,
  "nys": 15,
  "wdl": 15,
  "zip": 15,
  "eyc": 15,
  "upm": 15,
  "gɱu": 15,
  "stt": 15,
  "fiz": 15,
  "pŋf": 15,
  "yvi": 15,
  "dŋj": 15,
  "ku␣": 15,
  "␣dj": 15,
  "jiv": 15,
  "eyl": 15,
  "uaw": 15,
  "z␣ŋ": 15,
  "zul": 15,
  "hid": 14,
  "eza": 14,
  "ɱŋz": 14,
  "eoe": 14,
  "aio": 14,
  "ipc": 14,
  "sah": 14,
  "sfl": 14,
  "pry": 14,
  "yep": 14,
  "gɱp": 14,
  "ŋxs": 14,
  "kfl": 14,
  "ez␣": 14,
  "ŋku": 14,
  "tŋj": 14,
  "jŋŋ": 14,
  "dti": 14,
  "lkŋ": 14,
  "yrr": 14,
  "okw": 14,
  "edf": 14,
  "kga": 14,
  "␣f␣": 14,
  "yei": 14,
  "taz": 14,
  "xyb": 14,
  "ŋkg": 14,
  "eky": 14,
  "yŋc": 14,
  "kud": 14,
  "wdu": 14,
  "ltp": 14,
  "bpr": 14,
  "gtŋ": 14,
  "dta": 14,
  "fef": 14,
  "x␣q": 14,
  "tvŋ": 14,
  "ofl": 14,
  "cyŋ": 14,
  "bpa": 13,
  "ixŋ": 13,
  "yŋi": 13,
  "ueɱ": 13,
  "nfŋ": 13,
  "eka": 13,
  "ofu": 13,
  "␣c␣": 13,
  "i␣u": 13,
  "nsl": 13,
  "iit": 13,
  "jih": 13,
  "ilp": 13,
  "lha": 13,
  "ylr": 13,
  "ɱnl": 13,
  "jib": 13,
  "wgi": 13,
  "lrh": 13,
  "bb␣": 13,
  "uib": 13,
  "xeg": 13,
  "gah": 13,
  "o␣k": 13,
  "hŋp": 13,
  "caz": 13,
  "kwɱ": 13,
  "irq": 13,
  "ksa": 13,
  "sez": 13,
  "r␣x": 13,
  "nne": 13,
  "␣r␣": 13,
  "sɱd": 13,
  "rnn": 13,
  "ɱfl": 13,
  "nbe": 13,
  "eik": 13,
  "gms": 13,
  "nu␣": 13,
  "ru␣": 13,
  "yx␣": 13,
  "wnb": 13,
  "epn": 13,
  "wŋf": 13,
  "ŋpg": 13,
  "lkb": 13,
  "pŋy": 13,
  "ɱŋf": 13,
  "zŋs": 13,
  "ynu": 13,
  "ceg": 13,
  "uby": 13,
  "udr": 13,
  "yas": 13,
  "iɱr": 13,
  "lqu": 13,
  "rlw": 13,
  "dbu": 13,
  "feo": 13,
  "hŋ␣": 13,
  "su␣": 13,
  "ork": 13,
  "pyt": 13,
  "sbu": 13,
  "eaz": 13,
  "wbi": 13,
  "z␣r": 13,
  "oar": 13,
  "hep": 13,
  "dŋb": 13,
  "h␣c": 13,
  "alh": 13,
  "u␣v": 13,
  "ekb": 13,
  "ofr": 13,
  "nsf": 13,
  "ŋpw": 13,
  "lfb": 13,
  "bŋz": 12,
  "eux": 12,
  "adz": 12,
  "ltb": 12,
  "uŋy": 12,
  "lɱn": 12,
  "o␣j": 12,
  "aju": 12,
  "alq": 12,
  "iax": 12,
  "ylɱ": 12,
  "atz": 12,
  "olw": 12,
  "wŋw": 12,
  "scy": 12,
  "aag": 12,
  "btu": 12,
  "␣mf": 12,
  "fŋp": 12,
  "dah": 12,
  "h␣s": 12,
  "ɱha": 12,
  "ysk": 12,
  "hir": 12,
  "bfi": 12,
  "orc": 12,
  "xŋl": 12,
  "␣wy": 12,
  "xul": 12,
  "rtp": 12,
  "tpɱ": 12,
  "dhi": 12,
  "dwɱ": 12,
  "ysy": 12,
  "rɱp": 12,
  "akh": 12,
  "ftc": 12,
  "h␣f": 12,
  "edp": 12,
  "dtŋ": 12,
  "ibc": 12,
  "maq": 12,
  "zew": 12,
  "ŋux": 12,
  "b␣j": 12,
  "eɱc": 12,
  "b␣k": 12,
  "i␣n": 12,
  "mpɱ": 12,
  "je␣": 12,
  "z␣e": 12,
  "gda": 11,
  "ffd": 11,
  "␣dh": 11,
  "rr␣": 11,
  "vŋe": 11,
  "fud": 11,
  "ofy": 11,
  "ylg": 11,
  "kwe": 11,
  "pyb": 11,
  "kgŋ": 11,
  "wsb": 11,
  "ltd": 11,
  "nyl": 11,
  "␣za": 11,
  "eub": 11,
  "tek": 11,
  "wtŋ": 11,
  "a␣x": 11,
  "cza": 11,
  "wke": 11,
  "gyb": 11,
  "oku": 11,
  "gcd": 11,
  "␣gc": 11,
  "hai": 11,
  "ntr": 11,
  "oye": 11,
  "ogn": 11,
  "laa": 11,
  "lŋk": 11,
  "nke": 11,
  "aal": 11,
  "ln␣": 11,
  "lŋx": 11,
  "laf": 11,
  "y␣x": 11,
  "jit": 11,
  "sfr": 11,
  "m␣v": 11,
  "ngŋ": 11,
  "irv": 11,
  "zhd": 11,
  "vga": 11,
  "ikh": 11,
  "olr": 11,
  "avg": 11,
  "eej": 11,
  "tzy": 11,
  "zŋu": 11,
  "sdr": 11,
  "gŋy": 10,
  "lpy": 10,
  "iks": 10,
  "auz": 10,
  "zŋt": 10,
  "ngi": 10,
  "faz": 10,
  "bah": 10,
  "ieh": 10,
  "i␣v": 10,
  "ŋgc": 10,
  "efd": 10,
  "apf": 10,
  "asw": 10,
  "ygd": 10,
  "zil": 10,
  "rkd": 10,
  "ŋbf": 10,
  "mba": 10,
  "␣ky": 10,
  "dze": 10,
  "␣b␣": 10,
  "mew": 10,
  "m␣k": 10,
  "oɱt": 10,
  "dce": 10,
  "gip": 10,
  "caj": 10,
  "␣ew": 10,
  "udn": 10,
  "lkɱ": 10,
  "wte": 10,
  "nŋf": 10,
  "sŋz": 10,
  "bha": 10,
  "␣kw": 10,
  "wpu": 10,
  "ahn": 10,
  "yry": 10,
  "g␣x": 10,
  "zid": 10,
  "␣mt": 10,
  "odg": 10,
  "akr": 10,
  "pcɱ": 10,
  "hak": 10,
  "bws": 10,
  "orh": 10,
  "dpr": 10,
  "cey": 10,
  "l␣x": 10,
  "hda": 10,
  "azh": 10,
  "ŋuz": 10,
  "uju": 10,
  "fɱe": 10,
  "ptn": 10,
  "usq": 10,
  "dya": 10,
  "h␣b": 10,
  "dej": 10,
  "nbŋ": 10,
  "aŋɱ": 10,
  "n␣z": 10,
  "skŋ": 10,
  "pca": 10,
  "ycy": 10
}